Scale/StrainGauge.csv

#Digilent WaveForms Oscilloscope Acquisition
#Device Name: Discovery2
#Serial Number: SN:210321A18730
#Date Time: 2018-09-18 14:31:52.475
#Sample rate: 100Hz
#Samples: 7266
#Trigger: Source: Channel 1 Type: Edge Condition: Rising Level: 0 V Hyst.: Auto HoldOff: 0 s
#Channel 2: Range: 100 mV/div Offset: 0 V

Time (s),Channel 2 (V)
-40,-0.00087241245370599544
-39.990000000000002,-0.0041995944795411621
-39.979999999999997,-0.0041995944795411621
-39.969999999999999,-0.0041995944795411621
-39.960000000000001,-0.0041995944795411621
-39.950000000000003,-0.0041995944795411621
-39.939999999999998,-0.0041995944795411621
-39.93,-0.0045323126821246789
-39.920000000000002,-0.0041995944795411621
-39.909999999999997,-0.0041995944795411621
-39.899999999999999,-0.0041995944795411621
-39.890000000000001,-0.0041995944795411621
-39.880000000000003,-0.0038668762769577965
-39.869999999999997,-0.0038668762769576452
-39.859999999999999,-0.0038668762769576452
-39.850000000000001,-0.0038668762769576452
-39.840000000000003,-0.0041995944795410111
-39.829999999999998,-0.0041995944795411621
-39.82,-0.0041995944795411621
-39.810000000000002,-0.0045323126821246789
-39.799999999999997,-0.0041995944795411621
-39.789999999999999,-0.0041995944795411621
-39.780000000000001,-0.0045323126821246789
-39.770000000000003,-0.004199594479541313
-39.759999999999998,-0.0048650308847081949
-39.75,-0.0045323126821246789
-39.740000000000002,-0.0045323126821246789
-39.729999999999997,-0.0045323126821248299
-39.719999999999999,-0.0048650308847081949
-39.710000000000001,-0.0048650308847081949
-39.700000000000003,-0.0041995944795414648
-39.689999999999998,-0.0041995944795411621
-39.68,-0.0041995944795411621
-39.670000000000002,-0.0041995944795411621
-39.659999999999997,-0.0041995944795407084
-39.649999999999999,-0.0032014398717906123
-39.640000000000001,-0.0035341580743741287
-39.630000000000003,-0.0035341580743741287
-39.619999999999997,-0.0032014398717906123
-39.609999999999999,-0.0032014398717906123
-39.600000000000001,-0.0028687216692070954
-39.590000000000003,-0.0025360034666237299
-39.579999999999998,-0.0032014398717906123
-39.57,-0.0025360034666235785
-39.560000000000002,-0.0025360034666235785
-39.549999999999997,-0.0025360034666235785
-39.539999999999999,-0.0025360034666235785
-39.530000000000001,-0.0028687216692070954
-39.520000000000003,-0.0025360034666237299
-39.509999999999998,-0.0028687216692070954
-39.5,-0.0025360034666235785
-39.490000000000002,-0.0025360034666235785
-39.479999999999997,-0.0028687216692070954
-39.469999999999999,-0.0028687216692070954
-39.460000000000001,-0.0028687216692070954
-39.450000000000003,-0.0028687216692070954
-39.439999999999998,-0.0028687216692070954
-39.43,-0.0028687216692070954
-39.420000000000002,-0.0028687216692070954
-39.409999999999997,-0.0028687216692072468
-39.399999999999999,-0.0032014398717906123
-39.390000000000001,-0.0028687216692070954
-39.380000000000003,-0.0028687216692070954
-39.369999999999997,-0.0028687216692072468
-39.359999999999999,-0.0032014398717906123
-39.350000000000001,-0.0028687216692070954
-39.340000000000003,-0.0028687216692070954
-39.329999999999998,-0.0032014398717906123
-39.32,-0.0032014398717906123
-39.310000000000002,-0.0032014398717906123
-39.299999999999997,-0.0032014398717906123
-39.289999999999999,-0.0032014398717906123
-39.280000000000001,-0.0035341580743741287
-39.270000000000003,-0.0035341580743741287
-39.259999999999998,-0.0035341580743741287
-39.25,-0.0035341580743741287
-39.240000000000002,-0.0035341580743741287
-39.229999999999997,-0.0035341580743741287
-39.219999999999999,-0.0035341580743741287
-39.210000000000001,-0.0035341580743741287
-39.200000000000003,-0.0035341580743741287
-39.189999999999998,-0.0038668762769576452
-39.18,-0.0041995944795411621
-39.170000000000002,-0.0038668762769576452
-39.159999999999997,-0.0041995944795410111
-39.149999999999999,-0.0038668762769576452
-39.140000000000001,-0.0035341580743741287
-39.130000000000003,0.004118360585043274
-39.119999999999997,0.0041183605850429721
-39.109999999999999,-0.0041995944795411621
-39.100000000000001,0.015098061270302804
-39.090000000000003,0.014765343067719438
-39.079999999999998,-0.0041995944795411621
-39.07,0.023416016334890721
-39.060000000000002,0.023083298132307205
-39.049999999999997,-0.0041995944795373795
-39.039999999999999,0.0041183605850467547
-39.030000000000001,0.01443262486513577
-39.020000000000003,0.016761652283219328
-39.009999999999998,-0.0045323126821246789
-39,0.0017893331669621378
-38.990000000000002,0.0014566149643786212
-38.979999999999997,-0.004532312682124528
-38.969999999999999,-0.0041995944795411621
-38.960000000000001,-0.0048650308847081949
-38.950000000000003,-0.0041995944795414648
-38.939999999999998,-0.0045323126821246789
-38.93,-0.0041995944795411621
-38.920000000000002,-0.0041995944795411621
-38.909999999999997,-0.00053969425112217618
-38.899999999999999,0.00012574215404455454
-38.890000000000001,-0.022831813824218096
-38.880000000000003,-0.004532312682133003
-38.869999999999997,-0.004199594479541313
-38.859999999999999,-0.0045323126821246789
-38.850000000000001,0.0014566149643786212
-38.840000000000003,0.0021220513695453516
-38.829999999999998,-0.0041995944795411621
-38.82,0.0011238967617951045
-38.810000000000002,-0.0012051306562895121
-38.799999999999997,0.0044510787876264881
-38.789999999999999,-0.0038668762769576452
-38.780000000000001,0.0054492333953808213
-38.770000000000003,0.0054492333953808213
-38.759999999999998,-0.0041995944795411621
-38.75,-0.010521240328627978
-38.740000000000002,-0.0041995944795411621
-38.729999999999997,-0.011186676733791683
-38.719999999999999,-0.0038668762769576452
-38.710000000000001,-0.0012051306562895121
-38.700000000000003,-0.0038668762769564352
-38.689999999999998,-0.00087241245370599544
-38.68,-0.0038668762769576452
-38.670000000000002,-0.0038668762769576452
-38.659999999999997,-0.0038668762769576452
-38.649999999999999,-0.0038668762769576452
-38.640000000000001,-0.0035341580743741287
-38.630000000000003,-0.0038668762769574938
-38.619999999999997,-0.0035341580743741287
-38.609999999999999,-0.0035341580743741287
-38.600000000000001,-0.0038668762769576452
-38.590000000000003,-0.0038668762769576452
-38.579999999999998,-0.0038668762769576452
-38.57,-0.0035341580743741287
-38.560000000000002,-0.0038668762769576452
-38.549999999999997,-0.0038668762769576452
-38.539999999999999,-0.0038668762769576452
-38.530000000000001,-0.0041995944795411621
-38.520000000000003,-0.0038668762769577965
-38.509999999999998,-0.0038668762769576452
-38.5,-0.0041995944795411621
-38.490000000000002,-0.0041995944795411621
-38.479999999999997,-0.0045323126821243762
-38.469999999999999,-0.0038668762769576452
-38.460000000000001,-0.0041995944795411621
-38.450000000000003,-0.0041995944795411621
-38.439999999999998,-0.0038668762769576452
-38.43,-0.0045323126821246789
-38.420000000000002,-0.0041995944795411621
-38.409999999999997,-0.0041995944795411621
-38.399999999999999,-0.0041995944795411621
-38.390000000000001,-0.0041995944795411621
-38.380000000000003,-0.0038668762769577965
-38.369999999999997,-0.0038668762769577965
-38.359999999999999,-0.0041995944795411621
-38.350000000000001,-0.0038668762769576452
-38.340000000000003,-0.0035341580743742801
-38.329999999999998,-0.0038668762769576452
-38.32,-0.0035341580743741287
-38.310000000000002,-0.0035341580743741287
-38.299999999999997,-0.0032014398717907636
-38.289999999999999,-0.0035341580743741287
-38.280000000000001,-0.0035341580743741287
-38.270000000000003,-0.0032014398717907636
-38.259999999999998,-0.0035341580743741287
-38.25,-0.0032014398717906123
-38.240000000000002,-0.0035341580743741287
-38.229999999999997,-0.0032014398717906123
-38.219999999999999,-0.0032014398717906123
-38.210000000000001,-0.0035341580743741287
-38.200000000000003,-0.0032014398717907636
-38.189999999999998,-0.0032014398717906123
-38.18,-0.0032014398717906123
-38.170000000000002,-0.0028687216692070954
-38.159999999999997,-0.0032014398717906123
-38.149999999999999,-0.0032014398717906123
-38.140000000000001,-0.0032014398717906123
-38.130000000000003,-0.0035341580743739774
-38.119999999999997,-0.0032014398717907636
-38.109999999999999,-0.0035341580743741287
-38.100000000000001,-0.0032014398717906123
-38.090000000000003,-0.0032014398717906123
-38.079999999999998,-0.0032014398717906123
-38.07,-0.0032014398717906123
-38.060000000000002,-0.0035341580743741287
-38.049999999999997,-0.0032014398717904609
-38.039999999999999,-0.0028687216692070954
-38.030000000000001,-0.0035341580743741287
-38.020000000000003,-0.0028687216692073981
-38.009999999999998,-0.0035341580743741287
-38,-0.0032014398717906123
-37.990000000000002,-0.0032014398717906123
-37.979999999999997,-0.0038668762769574938
-37.969999999999999,-0.0035341580743741287
-37.960000000000001,-0.0035341580743741287
-37.950000000000003,-0.0038668762769574938
-37.939999999999998,-0.0035341580743741287
-37.93,-0.0035341580743741287
-37.920000000000002,-0.0035341580743741287
-37.909999999999997,-0.0038668762769574938
-37.899999999999999,-0.0035341580743741287
-37.890000000000001,-0.0035341580743741287
-37.880000000000003,-0.0038668762769574938
-37.869999999999997,-0.0035341580743742801
-37.859999999999999,-0.0038668762769576452
-37.850000000000001,-0.0035341580743741287
-37.840000000000003,-0.0038668762769574938
-37.829999999999998,-0.0035341580743741287
-37.82,-0.0035341580743741287
-37.810000000000002,-0.0038668762769576452
-37.799999999999997,-0.0038668762769574938
-37.789999999999999,-0.0035341580743741287
-37.780000000000001,-0.0038668762769576452
-37.770000000000003,-0.0035341580743742801
-37.759999999999998,-0.0035341580743741287
-37.75,-0.0035341580743741287
-37.740000000000002,-0.0035341580743741287
-37.729999999999997,-0.0041995944795410111
-37.719999999999999,-0.0038668762769576452
-37.710000000000001,-0.0038668762769576452
-37.700000000000003,-0.0038668762769576452
-37.689999999999998,-0.0041995944795411621
-37.68,-0.0041995944795411621
-37.670000000000002,-0.0038668762769576452
-37.659999999999997,-0.0041995944795410111
-37.649999999999999,-0.0038668762769576452
-37.640000000000001,-0.0041995944795411621
-37.630000000000003,-0.0041995944795411621
-37.619999999999997,-0.004199594479541313
-37.609999999999999,-0.0045323126821246789
-37.600000000000001,-0.0045323126821246789
-37.590000000000003,-0.004199594479541313
-37.579999999999998,-0.0045323126821246789
-37.57,-0.0041995944795411621
-37.560000000000002,-0.0045323126821246789
-37.549999999999997,-0.004199594479541313
-37.539999999999999,-0.0045323126821246789
-37.530000000000001,-0.0045323126821246789
-37.520000000000003,-0.004199594479541313
-37.509999999999998,-0.0045323126821246789
-37.5,-0.0041995944795411621
-37.490000000000002,-0.0045323126821246789
-37.479999999999997,-0.004532312682124528
-37.469999999999999,-0.0041995944795411621
-37.460000000000001,-0.0041995944795411621
-37.450000000000003,-0.004532312682124528
-37.439999999999998,-0.0041995944795411621
-37.43,-0.0045323126821246789
-37.420000000000002,-0.0045323126821246789
-37.409999999999997,-0.004532312682124528
-37.399999999999999,-0.0041995944795411621
-37.390000000000001,-0.0045323126821246789
-37.380000000000003,-0.004865030884708044
-37.369999999999997,-0.0045323126821248299
-37.359999999999999,-0.0048650308847081949
-37.350000000000001,-0.0045323126821246789
-37.340000000000003,-0.004865030884708044
-37.329999999999998,-0.0048650308847081949
-37.32,-0.0048650308847081949
-37.310000000000002,-0.0048650308847081949
-37.299999999999997,-0.0048650308847083459
-37.289999999999999,-0.0051977490872917118
-37.280000000000001,-0.0055304672898752287
-37.270000000000003,-0.0048650308847084977
-37.259999999999998,-0.0051977490872917118
-37.25,-0.0051977490872917118
-37.240000000000002,-0.0055304672898752287
-37.229999999999997,-0.0051977490872917118
-37.219999999999999,-0.0051977490872917118
-37.210000000000001,-0.0055304672898752287
-37.200000000000003,-0.0051977490872918627
-37.189999999999998,-0.0051977490872917118
-37.18,-0.0051977490872917118
-37.170000000000002,-0.0051977490872917118
-37.159999999999997,-0.0051977490872917118
-37.149999999999999,-0.0051977490872917118
-37.140000000000001,-0.0055304672898752287
-37.130000000000003,-0.0051977490872918627
-37.119999999999997,-0.0048650308847083459
-37.109999999999999,-0.0051977490872917118
-37.100000000000001,-0.0051977490872917118
-37.090000000000003,-0.0051977490872917118
-37.079999999999998,-0.0051977490872917118
-37.07,-0.0048650308847081949
-37.060000000000002,-0.0051977490872917118
-37.049999999999997,-0.0048650308847083459
-37.039999999999999,-0.0051977490872917118
-37.030000000000001,-0.0048650308847081949
-37.020000000000003,-0.0048650308847081949
-37.009999999999998,-0.0051977490872917118
-37,-0.0051977490872917118
-36.990000000000002,-0.0051977490872917118
-36.979999999999997,-0.0051977490872917118
-36.969999999999999,-0.0051977490872917118
-36.960000000000001,-0.0055304672898752287
-36.950000000000003,-0.0055304672898752287
-36.939999999999998,-0.0051977490872917118
-36.93,-0.0055304672898752287
-36.920000000000002,-0.0055304672898752287
-36.909999999999997,-0.0058631854924585947
-36.899999999999999,-0.0055304672898752287
-36.890000000000001,-0.0058631854924587456
-36.880000000000003,-0.0055304672898753796
-36.869999999999997,-0.0051977490872918627
-36.859999999999999,-0.0055304672898752287
-36.850000000000001,-0.0051977490872917118
-36.840000000000003,-0.0055304672898750778
-36.829999999999998,-0.0055304672898752287
-36.82,-0.0051977490872917118
-36.810000000000002,-0.0055304672898752287
-36.799999999999997,-0.0051977490872917118
-36.789999999999999,-0.0051977490872917118
-36.780000000000001,-0.0048650308847081949
-36.770000000000003,-0.0045323126821248299
-36.759999999999998,-0.0045323126821246789
-36.75,-0.0041995944795411621
-36.740000000000002,-0.0038668762769576452
-36.729999999999997,-0.0038668762769574938
-36.719999999999999,-0.0035341580743741287
-36.710000000000001,-0.0032014398717906123
-36.700000000000003,-0.0028687216692072468
-36.689999999999998,-0.0022032852640400621
-36.68,-0.0022032852640400621
-36.670000000000002,-0.0015378488588730288
-36.659999999999997,-0.0015378488588725749
-36.649999999999999,-0.00053969425112247878
-36.640000000000001,-0.00020697604853896212
-36.630000000000003,0.00012574215404440324
-36.619999999999997,0.00079117855921173922
-36.609999999999999,0.0011238967617951045
-36.600000000000001,0.0017893331669621378
-36.590000000000003,0.0024547695721288685
-36.579999999999998,0.0034529241798797209
-36.57,0.0037856423824632378
-36.560000000000002,0.0037856423824632378
-36.549999999999997,0.0047837969902140903
-36.539999999999999,0.0054492333953808213
-36.530000000000001,0.0061146698005478542
-36.520000000000003,0.0061146698005478542
-36.509999999999998,0.0061146698005478542
-36.5,0.006780106205714888
-36.490000000000002,0.0081109790160489546
-36.479999999999997,0.0094418518263843822
-36.469999999999999,0.012436315649634671
-36.460000000000001,0.013767188459968738
-36.450000000000003,0.016761652283219027
-36.439999999999998,0.018757961498721488
-36.43,0.021419707119389619
-36.420000000000002,0.023416016334890721
-36.409999999999997,0.02507960734780906
-36.399999999999999,0.026743198360725886
-36.390000000000001,0.027741352968476438
-36.380000000000003,0.02840678937364317
-36.369999999999997,0.029737662183977991
-36.359999999999999,0.030735816791728088
-36.350000000000001,0.032066689602062153
-36.340000000000003,0.033730280614978979
-36.329999999999998,0.035061153425313803
-36.32,0.036724744438231385
-36.310000000000002,0.038388335451148968
-36.299999999999997,0.039719208261483792
-36.289999999999999,0.041382799274400618
-36.280000000000001,0.042380953882151171
-36.270000000000003,0.043711826692484634
-36.259999999999998,0.045042699502819306
-36.25,0.046040854110569851
-36.240000000000002,0.047039008718320403
-36.229999999999997,0.048369881528655075
-36.219999999999999,0.049700754338988538
-36.210000000000001,0.050366190744155569
-36.200000000000003,0.051031627149322301
-36.189999999999998,0.050698908946739084
-36.18,0.050698908946739084
-36.170000000000002,0.050698908946739084
-36.159999999999997,0.050698908946739084
-36.149999999999999,0.050698908946739084
-36.140000000000001,0.050698908946739084
-36.130000000000003,0.051364345351905816
-36.119999999999997,0.052362499959656979
-36.109999999999999,0.053027936364823704
-36.100000000000001,0.054358809175157771
-36.090000000000003,0.054691527377741134
-36.079999999999998,0.055356963782908324
-36.07,0.056022400188075354
-36.060000000000002,0.056022400188075354
-36.049999999999997,0.056687836593242689
-36.039999999999999,0.057353272998409421
-36.030000000000001,0.058684145808743489
-36.020000000000003,0.060680455024243678
-36.009999999999998,0.063009482442329207
-36,0.064340355252663267
-35.990000000000002,0.065005791657830297
-35.979999999999997,0.063342200644911209
-35.969999999999999,0.060015018619077556
-35.960000000000001,0.056355118390658869
-35.950000000000003,0.053693372769991941
-35.939999999999998,0.052029781757073151
-35.93,0.050698908946739084
-35.920000000000002,0.050698908946739084
-35.909999999999997,0.050698908946739236
-35.899999999999999,0.051031627149322606
-35.890000000000001,0.052029781757073151
-35.880000000000003,0.052362499959656521
-35.869999999999997,0.054026090972574707
-35.859999999999999,0.055024245580324802
-35.850000000000001,0.055356963782908324
-35.840000000000003,0.055024245580324954
-35.829999999999998,0.053027936364823704
-35.82,0.051364345351906121
-35.810000000000002,0.050033472541572054
-35.799999999999997,0.050033472541572206
-35.789999999999999,0.050366190744155569
-35.780000000000001,0.050033472541572054
-35.770000000000003,0.051364345351905517
-35.759999999999998,0.052362499959656673
-35.75,0.053360654567407219
-35.740000000000002,0.054026090972574256
-35.729999999999997,0.054691527377741737
-35.719999999999999,0.055689681985491839
-35.710000000000001,0.055689681985491839
-35.700000000000003,0.055689681985491839
-35.689999999999998,0.055024245580324802
-35.68,0.055024245580324802
-35.670000000000002,0.055356963782908324
-35.659999999999997,0.055356963782908476
-35.649999999999999,0.055689681985491839
-35.640000000000001,0.055689681985491839
-35.630000000000003,0.056022400188075201
-35.619999999999997,0.057020554795825906
-35.609999999999999,0.057020554795825906
-35.600000000000001,0.057685991200992937
-35.590000000000003,0.057685991200992937
-35.579999999999998,0.058351427606159967
-35.57,0.058684145808743489
-35.560000000000002,0.058018709403576452
-35.549999999999997,0.057353272998408818
-35.539999999999999,0.056022400188075354
-35.530000000000001,0.054358809175157771
-35.520000000000003,0.05336065456740767
-35.509999999999998,0.052362499959656673
-35.5,0.052029781757073151
-35.490000000000002,0.051697063554489636
-35.479999999999997,0.052029781757073457
-35.469999999999999,0.052695218162240189
-35.460000000000001,0.053027936364823704
-35.450000000000003,0.053693372769990429
-35.439999999999998,0.054026090972574256
-35.43,0.054026090972574256
-35.420000000000002,0.054358809175157771
-35.409999999999997,0.054358809175158077
-35.399999999999999,0.055024245580324802
-35.390000000000001,0.055024245580324802
-35.380000000000003,0.054691527377741439
-35.369999999999997,0.054358809175157466
-35.359999999999999,0.053693372769990734
-35.350000000000001,0.052695218162240189
-35.340000000000003,0.052695218162240189
-35.329999999999998,0.053027936364823704
-35.32,0.053693372769990734
-35.310000000000002,0.054026090972574256
-35.299999999999997,0.054691527377741286
-35.289999999999999,0.054691527377741286
-35.280000000000001,0.054691527377741286
-35.270000000000003,0.054358809175157924
-35.259999999999998,0.053693372769990734
-35.25,0.053360654567407219
-35.240000000000002,0.053027936364823704
-35.229999999999997,0.053027936364823704
-35.219999999999999,0.053027936364823704
-35.210000000000001,0.053693372769990734
-35.200000000000003,0.054026090972574103
-35.189999999999998,0.054358809175157771
-35.18,0.054691527377741286
