PSET6 OpAmps/data/a_buffer.csv

#Digilent WaveForms Oscilloscope Acquisition
#Device Name: Discovery2
#Serial Number: SN:210321A18976
#Date Time: 2018-10-16 14:42:26.302
#Sample rate: 793651Hz
#Samples: 8192
#Trigger: Source: Channel 1 Type: Edge Condition: Rising Level: 0 V Hyst.: Auto HoldOff: 0 s
#Channel 1: Range: 500 mV/div Offset: 1.7 V
#Channel 2: Range: 500 mV/div Offset: 1.7 V

Time (s),Channel 1 (V),Channel 2 (V)
-0.00516096,-1.426653483326302,0.015741435440780105
-0.0051597000000000006,-1.426653483326302,0.015741435440780105
-0.0051584400000000002,-1.426653483326302,0.016075597909081418
-0.0051571799999999999,-1.426653483326302,0.015407272972479014
-0.0051559200000000005,-1.426653483326302,0.015407272972479014
-0.0051546600000000001,-1.426653483326302,0.015407272972479014
-0.0051534000000000007,-1.426653483326302,0.015741435440779952
-0.0051521400000000004,-1.426653483326302,0.015741435440780105
-0.00515088,-1.426653483326302,0.015073110504177922
-0.0051496200000000006,-1.426653483326302,0.015407272972478861
-0.0051483600000000003,-1.426653483326302,0.015407272972479014
-0.0051470999999999999,-1.426653483326302,0.015407272972479014
-0.0051458400000000005,-1.426653483326302,0.015407272972479014
-0.0051445800000000002,-1.426653483326302,0.015741435440780105
-0.0051433199999999998,-1.426653483326302,0.015741435440780105
-0.0051420600000000004,-1.426653483326302,0.015741435440780105
-0.0051408000000000001,-1.426653483326302,0.015407272972479014
-0.0051395400000000006,-1.426653483326302,0.015741435440779952
-0.0051382800000000003,-1.426653483326302,0.015407272972479014
-0.00513702,-1.426653483326302,0.015407272972479014
-0.0051357600000000005,-1.426653483326302,0.015407272972479014
-0.0051345000000000002,-1.426653483326302,0.01440478556757574
-0.0051332399999999999,-1.426653483326302,0.01440478556757574
-0.0051319800000000004,-1.426653483326302,0.01440478556757574
-0.0051307200000000001,-1.426653483326302,0.01440478556757574
-0.0051294600000000006,-1.426653483326302,0.015073110504177619
-0.0051282000000000003,-1.426653483326302,0.015073110504177922
-0.00512694,-1.426653483326302,0.015407272972478861
-0.0051256800000000005,-1.426653483326302,0.015073110504177922
-0.0051244200000000002,-1.426653483326302,0.015407272972479014
-0.0051231599999999999,-1.426653483326302,0.01507311050417777
-0.0051219000000000004,-1.426653483326302,0.014738948035876831
-0.0051206400000000001,-1.426653483326302,0.015407272972479014
-0.0051193800000000006,-1.426653483326302,0.015073110504178075
-0.0051181200000000003,-1.426653483326302,0.015073110504177922
-0.00511686,-1.426653483326302,0.015407272972479014
-0.0051156000000000005,-1.426653483326302,0.015073110504177922
-0.0051143400000000002,-1.426653483326302,0.015407272972479014
-0.0051130799999999999,-1.426653483326302,0.01540727297247871
-0.0051118200000000004,-1.426653483326302,0.014738948035876831
-0.0051105600000000001,-1.426653483326302,0.015073110504177922
-0.0051093000000000006,-1.426653483326302,0.015073110504177922
-0.0051080400000000003,-1.426653483326302,0.015741435440780105
-0.00510678,-1.426653483326302,0.015073110504177922
-0.0051055200000000005,-1.426653483326302,0.015073110504177922
-0.0051042600000000002,-1.426653483326302,0.015073110504177922
-0.0051029999999999999,-1.426653483326302,0.01507311050417777
-0.0051017400000000004,-1.426653483326302,0.014738948035876831
-0.0051004800000000001,-1.426653483326302,0.01440478556757574
-0.0050992200000000007,-1.426653483326302,0.015407272972478557
-0.0050979600000000003,-1.426653483326302,0.015407272972479014
-0.0050967,-1.426653483326302,0.015741435440780105
-0.0050954400000000006,-1.426653483326302,0.015073110504178226
-0.0050941800000000002,-1.426653483326302,0.015073110504177922
-0.0050929199999999999,-1.426653483326302,0.015407272972478861
-0.0050916600000000005,-1.426653483326302,0.015073110504177922
-0.0050904000000000001,-1.426653483326302,0.014738948035876831
-0.0050891400000000007,-1.426653483326302,0.014404785567575892
-0.0050878800000000004,-1.426653483326302,0.01440478556757574
-0.00508662,-1.426653483326302,0.014738948035876831
-0.0050853600000000006,-1.426653483326302,0.01507311050417777
-0.0050841000000000003,-1.426653483326302,0.014738948035876831
-0.0050828399999999999,-1.426653483326302,0.015407272972479014
-0.0050815800000000005,-1.426653483326302,0.015407272972479014
-0.0050803200000000001,-1.426653483326302,0.015407272972479014
-0.0050790600000000007,-1.426653483326302,0.015073110504178075
-0.0050778000000000004,-1.426653483326302,0.014738948035876831
-0.00507654,-1.426653483326302,0.014738948035876831
-0.0050752800000000006,-1.426653483326302,0.014738948035876831
-0.0050740200000000003,-1.426653483326302,0.015073110504177922
-0.0050727599999999999,-1.426653483326302,0.015073110504177922
-0.0050715000000000005,-1.426653483326302,0.015073110504177922
-0.0050702400000000002,-1.426653483326302,0.015073110504177922
-0.0050689799999999998,-1.426653483326302,0.015073110504178075
-0.0050677200000000004,-1.426653483326302,0.015407272972479014
-0.0050664600000000001,-1.426653483326302,0.015407272972479014
-0.0050652000000000006,-1.426653483326302,0.015407272972479014
-0.0050639400000000003,-1.426653483326302,0.015407272972479014
-0.00506268,-1.426653483326302,0.015407272972479014
-0.0050614200000000005,-1.426653483326302,0.015407272972479014
-0.0050601600000000002,-1.426653483326302,0.015073110504177922
-0.0050588999999999999,-1.426653483326302,0.015073110504177922
-0.0050576400000000004,-1.426653483326302,0.015073110504177922
-0.0050563800000000001,-1.426653483326302,0.014738948035876831
-0.0050551200000000006,-1.426653483326302,0.01507311050417777
-0.0050538600000000003,-1.426653483326302,0.015073110504177922
-0.0050526,-1.426653483326302,0.015073110504177922
-0.0050513400000000005,-1.426653483326302,0.015407272972479014
-0.0050500800000000002,-1.426653483326302,0.015073110504177922
-0.0050488199999999999,-1.426653483326302,0.015407272972478861
-0.0050475600000000004,-1.426653483326302,0.015073110504177922
-0.0050463000000000001,-1.426653483326302,0.015073110504177922
-0.0050450400000000006,-1.426653483326302,0.014738948035876984
-0.0050437800000000003,-1.426653483326302,0.015073110504177922
-0.00504252,-1.426653483326302,0.014738948035876831
-0.0050412600000000005,-1.426653483326302,0.014738948035876831
-0.0050400000000000002,-1.426653483326302,0.01440478556757574
-0.0050387399999999999,-1.426653483326302,0.01507311050417777
-0.0050374800000000004,-1.426653483326302,0.014738948035876831
-0.0050362200000000001,-1.426653483326302,0.014738948035876831
-0.0050349600000000007,-1.426653483326302,0.01507311050417777
-0.0050337000000000003,-1.426653483326302,0.015073110504177922
-0.00503244,-1.426653483326302,0.014738948035876831
-0.0050311800000000005,-1.426653483326302,0.01540727297247871
-0.0050299200000000002,-1.426653483326302,0.015407272972479014
-0.0050286599999999999,-1.426653483326302,0.015073110504177922
-0.0050274000000000004,-1.426653483326302,0.015073110504177922
-0.0050261400000000001,-1.426653483326302,0.015407272972479014
-0.0050248800000000007,-1.426653483326302,0.015073110504178075
-0.0050236200000000003,-1.426653483326302,0.014738948035876831
-0.00502236,-1.426653483326302,0.015073110504177922
-0.0050211000000000006,-1.426653483326302,0.014738948035876984
-0.0050198400000000002,-1.426653483326302,0.014738948035876831
-0.0050185799999999999,-1.426653483326302,0.014738948035876984
-0.0050173200000000005,-1.426653483326302,0.015073110504177922
-0.0050160600000000001,-1.426653483326302,0.015407272972479014
-0.0050148000000000007,-1.426653483326302,0.015073110504178075
-0.0050135400000000004,-1.426653483326302,0.015073110504177922
-0.00501228,-1.426653483326302,0.015073110504177922
-0.0050110200000000006,-1.426653483326302,0.014404785567576043
-0.0050097600000000003,-1.426653483326302,0.01440478556757574
-0.0050084999999999999,-1.426653483326302,0.014404785567575892
-0.0050072400000000005,-1.426653483326302,0.014738948035876831
-0.0050059800000000002,-1.426653483326302,0.01440478556757574
-0.0050047199999999998,-1.426653483326302,0.014738948035876984
-0.0050034600000000004,-1.426653483326302,0.015073110504177922
-0.0050022,-1.426653483326302,0.014738948035876831
-0.0050009400000000006,-1.426653483326302,0.014738948035876831
-0.0049996800000000003,-1.426653483326302,0.014738948035876831
-0.0049984199999999999,-1.426653483326302,0.015407272972478861
-0.0049971600000000005,-1.426653483326302,0.015073110504177922
-0.0049959000000000002,-1.426653483326302,0.015073110504177922
-0.0049946399999999998,-1.426653483326302,0.01507311050417777
-0.0049933800000000004,-1.426653483326302,0.014738948035876831
-0.0049921200000000001,-1.426653483326302,0.015073110504177922
-0.0049908600000000006,-1.426653483326302,0.015073110504177922
-0.0049896000000000003,-1.426653483326302,0.015407272972479014
-0.00498834,-1.426653483326302,0.014738948035876678
-0.0049870800000000005,-1.426653483326302,0.01440478556757574
-0.0049858200000000002,-1.426653483326302,0.015073110504177922
-0.0049845599999999999,-1.426653483326302,0.015407272972479166
-0.0049833000000000004,-1.426653483326302,0.015741435440780105
-0.0049820400000000001,-1.426653483326302,0.014738948035876831
-0.0049807800000000006,-1.426653483326302,0.01507311050417777
-0.0049795200000000003,-1.426653483326302,0.014738948035876831
-0.00497826,-1.426653483326302,0.01440478556757574
-0.0049770000000000005,-1.426653483326302,0.01440478556757574
-0.0049757400000000002,-1.426653483326302,0.014738948035876831
-0.0049744799999999999,-1.426653483326302,0.014070623099274426
-0.0049732200000000004,-1.426653483326302,0.014070623099274426
-0.0049719600000000001,-1.426653483326302,0.01440478556757574
-0.0049707000000000006,-1.426653483326302,0.01440478556757574
-0.0049694400000000003,-1.426653483326302,0.014738948035876831
-0.00496818,-1.426653483326302,0.015073110504177922
-0.0049669200000000005,-1.426653483326302,0.014738948035876831
-0.0049656600000000002,-1.426653483326302,0.01440478556757574
-0.0049643999999999999,-1.426653483326302,0.015073110504177922
-0.0049631400000000004,-1.426653483326302,0.015073110504177922
-0.0049618800000000001,-1.426653483326302,0.014738948035876831
-0.0049606200000000007,-1.426653483326302,0.014404785567575892
-0.0049593600000000003,-1.426653483326302,0.014738948035876831
-0.0049581,-1.426653483326302,0.014738948035876831
-0.0049568400000000006,-1.426653483326302,0.014738948035876831
-0.0049555800000000002,-1.426653483326302,0.014738948035876831
-0.0049543199999999999,-1.426653483326302,0.015073110504177922
-0.0049530600000000004,-1.426653483326302,0.015073110504177922
-0.0049518000000000001,-1.426653483326302,0.015073110504177922
-0.0049505400000000007,-1.426653483326302,0.014738948035876984
-0.0049492800000000003,-1.426653483326302,0.015073110504177922
-0.00494802,-1.426653483326302,0.015073110504177922
-0.0049467600000000006,-1.426653483326302,0.014738948035876984
-0.0049455000000000002,-1.426653483326302,0.014738948035876831
-0.0049442399999999999,-1.426653483326302,0.014738948035876831
-0.0049429800000000005,-1.426653483326302,0.014738948035876831
-0.0049417200000000001,-1.426653483326302,0.015073110504177922
-0.0049404600000000007,-1.426653483326302,0.014738948035876984
-0.0049392000000000004,-1.426653483326302,0.014738948035876831
-0.00493794,-1.426653483326302,0.015073110504177922
-0.0049366800000000006,-1.426653483326302,0.015073110504177922
-0.0049354200000000003,-1.426653483326302,0.014738948035876831
-0.0049341599999999999,-1.426653483326302,0.014738948035876678
-0.0049329000000000005,-1.426653483326302,0.01440478556757574
-0.0049316400000000002,-1.426653483326302,0.014738948035876831
-0.0049303799999999998,-1.426653483326302,0.01507311050417777
-0.0049291200000000004,-1.426653483326302,0.014738948035876831
-0.0049278600000000001,-1.426653483326302,0.014070623099274426
-0.0049266000000000006,-1.426653483326302,0.014070623099274426
-0.0049253400000000003,-1.426653483326302,0.01440478556757574
-0.00492408,-1.426653483326302,0.014738948035876678
-0.0049228200000000005,-1.426653483326302,0.01440478556757574
-0.0049215600000000002,-1.426653483326302,0.01440478556757574
-0.0049202999999999998,-1.426653483326302,0.014738948035876831
-0.0049190400000000004,-1.426653483326302,0.014738948035876831
-0.0049177800000000001,-1.426653483326302,0.015073110504177922
-0.0049165200000000006,-1.426653483326302,0.014738948035876984
-0.0049152600000000003,-1.426653483326302,0.01440478556757574
-0.004914,-1.426653483326302,0.014738948035876831
-0.0049127400000000005,-1.426653483326302,0.014070623099274426
-0.0049114800000000002,-1.426653483326302,0.014070623099274426
-0.0049102199999999999,-1.426653483326302,0.014738948035876831
-0.0049089600000000004,-1.426653483326302,0.014738948035876831
-0.0049077000000000001,-1.426653483326302,0.01440478556757574
-0.0049064400000000006,-1.426653483326302,0.015073110504177619
-0.0049051800000000003,-1.426653483326302,0.015073110504177922
-0.00490392,-1.426653483326302,0.015073110504177922
-0.0049026600000000005,-1.426653483326302,0.014738948035876831
-0.0049014000000000002,-1.426653483326302,0.01440478556757574
-0.0049001399999999999,-1.426653483326302,0.014738948035876984
-0.0048988800000000004,-1.426653483326302,0.015073110504177922
-0.0048976200000000001,-1.426653483326302,0.014738948035876831
-0.0048963600000000006,-1.426653483326302,0.014738948035876831
-0.0048951000000000003,-1.426653483326302,0.014738948035876831
-0.00489384,-1.426653483326302,0.014738948035876831
-0.0048925800000000005,-1.426653483326302,0.014738948035876831
-0.0048913200000000002,-1.426653483326302,0.014738948035876831
-0.0048900599999999999,-1.426653483326302,0.01440478556757574
-0.0048888000000000004,-1.426653483326302,0.01440478556757574
-0.0048875400000000001,-1.426653483326302,0.014070623099274426
-0.0048862800000000007,-1.426653483326302,0.014404785567575587
-0.0048850200000000003,-1.426653483326302,0.01440478556757574
-0.00488376,-1.426653483326302,0.01440478556757574
-0.0048825000000000006,-1.426653483326302,0.01440478556757574
-0.0048812400000000002,-1.426653483326302,0.01440478556757574
-0.0048799799999999999,-1.426653483326302,0.014070623099274579
-0.0048787200000000005,-1.426653483326302,0.01440478556757574
-0.0048774600000000001,-1.426653483326302,0.014070623099274426
-0.0048762000000000007,-1.426653483326302,0.014738948035876527
-0.0048749400000000003,-1.426653483326302,0.01440478556757574
-0.00487368,-1.426653483326302,0.014738948035876831
-0.0048724200000000006,-1.426653483326302,0.01507311050417777
-0.0048711600000000002,-1.426653483326302,0.014738948035876831
-0.0048698999999999999,-1.426653483326302,0.014738948035876984
-0.0048686400000000005,-1.426653483326302,0.015073110504177922
-0.0048673800000000001,-1.426653483326302,0.015407272972479014
-0.0048661199999999998,-1.426653483326302,0.015407272972478861
-0.0048648600000000004,-1.426653483326302,0.015073110504177922
-0.0048636,-1.426653483326302,0.015741435440780105
-0.0048623400000000006,-1.426653483326302,0.015073110504178226
-0.0048610800000000003,-1.426653483326302,0.015407272972479014
-0.0048598199999999999,-1.426653483326302,0.015741435440780105
-0.0048585600000000005,-1.426653483326302,0.015741435440780105
-0.0048573000000000002,-1.426653483326302,0.015073110504177922
-0.0048560399999999998,-1.426653483326302,0.015073110504177922
-0.0048547800000000004,-1.426653483326302,0.015073110504177922
-0.0048535200000000001,-1.426653483326302,0.015407272972479014
-0.0048522600000000006,-1.426653483326302,0.014738948035877135
-0.0048510000000000003,-1.426653483326302,0.015407272972479014
-0.00484974,-1.426653483326302,0.014738948035876678
-0.0048484800000000005,-1.426653483326302,0.01440478556757574
-0.0048472200000000002,-1.426653483326302,0.014070623099274426
-0.0048459599999999999,-1.426653483326302,0.01407062309927473
-0.0048447000000000004,-1.426653483326302,0.014738948035876831
-0.0048434400000000001,-1.426653483326302,0.015073110504177922
-0.0048421800000000006,-1.426653483326302,0.014738948035876984
-0.0048409200000000003,-1.426653483326302,0.015073110504177922
-0.00483966,-1.426653483326302,0.014738948035876831
-0.0048384000000000005,-1.426653483326302,0.015073110504177922
-0.0048371400000000002,-1.426653483326302,0.014738948035876831
-0.0048358799999999999,-1.426653483326302,0.014738948035876678
-0.0048346200000000004,-1.426653483326302,0.01440478556757574
-0.0048333600000000001,-1.426653483326302,0.015073110504177922
-0.0048321000000000006,-1.426653483326302,0.015073110504177922
-0.0048308400000000003,-1.426653483326302,0.015407272972479014
-0.00482958,-1.426653483326302,0.014738948035876831
-0.0048283200000000005,-1.426653483326302,0.015073110504177922
-0.0048270600000000002,-1.426653483326302,0.015073110504177922
-0.0048257999999999999,-1.426653483326302,0.015073110504178075
-0.0048245400000000004,-1.426653483326302,0.015407272972479014
-0.0048232800000000001,-1.426653483326302,0.015407272972479014
-0.0048220200000000006,-1.426653483326302,0.015407272972479014
-0.0048207600000000003,-1.426653483326302,0.014738948035876831
-0.0048195,-1.426653483326302,0.015073110504177922
-0.0048182400000000005,-1.426653483326302,0.015073110504177922
-0.0048169800000000002,-1.426653483326302,0.014738948035876831
-0.0048157199999999999,-1.426653483326302,0.014738948035877135
-0.0048144600000000004,-1.426653483326302,0.015407272972479014
-0.0048132000000000001,-1.426653483326302,0.015073110504177922
-0.0048119400000000007,-1.426653483326302,0.015407272972478861
-0.0048106800000000003,-1.426653483326302,0.014738948035876831
-0.00480942,-1.426653483326302,0.014738948035876831
-0.0048081600000000006,-1.426653483326302,0.014738948035876831
-0.0048069000000000002,-1.426653483326302,0.01440478556757574
-0.0048056399999999999,-1.426653483326302,0.01507311050417777
-0.0048043800000000005,-1.426653483326302,0.014738948035876831
-0.0048031200000000001,-1.426653483326302,0.014070623099274426
-0.0048018600000000007,-1.426653483326302,0.014404785567575587
-0.0048006000000000004,-1.426653483326302,0.014738948035876831
-0.00479934,-1.426653483326302,0.01440478556757574
-0.0047980800000000006,-1.426653483326302,0.015407272972478557
-0.0047968200000000003,-1.426653483326302,0.015073110504177922
-0.0047955599999999999,-1.426653483326302,0.014738948035876831
-0.0047943000000000005,-1.426653483326302,0.014738948035876831
-0.0047930400000000001,-1.426653483326302,0.014738948035876831
-0.0047917799999999998,-1.426653483326302,0.014738948035876984
-0.0047905200000000004,-1.426653483326302,0.015073110504177922
-0.00478926,-1.426653483326302,0.015073110504177922
-0.0047880000000000006,-1.426653483326302,0.015073110504177922
-0.0047867400000000003,-1.426653483326302,0.01440478556757574
-0.0047854799999999999,-1.426653483326302,0.014404785567576043
-0.0047842200000000005,-1.426653483326302,0.015073110504177922
-0.0047829600000000002,-1.426653483326302,0.015073110504177922
-0.0047816999999999998,-1.426653483326302,0.015073110504177922
-0.0047804400000000004,-1.426653483326302,0.015073110504177922
-0.0047791800000000001,-1.426653483326302,0.015073110504177922
-0.0047779200000000006,-1.426653483326302,0.015073110504177922
-0.0047766600000000003,-1.426653483326302,0.015073110504177922
-0.0047754,-1.426653483326302,0.01507311050417777
-0.0047741400000000005,-1.426653483326302,0.014738948035876831
-0.0047728800000000002,-1.426653483326302,0.015073110504177922
-0.0047716199999999999,-1.426653483326302,0.015073110504177922
-0.0047703600000000004,-1.426653483326302,0.015073110504177922
-0.0047691000000000001,-1.426653483326302,0.015073110504177922
-0.0047678400000000006,-1.426653483326302,0.015073110504177922
-0.0047665800000000003,-1.426653483326302,0.015073110504177922
-0.00476532,-1.426653483326302,0.015073110504177922
-0.0047640600000000005,-1.426653483326302,0.01440478556757574
-0.0047628000000000002,-1.426653483326302,0.014738948035876831
-0.0047615399999999999,-1.426653483326302,0.01440478556757574
