PSET6 OpAmps/data/b_buffer.csv

#Digilent WaveForms Oscilloscope Acquisition
#Device Name: Discovery2
#Serial Number: SN:210321A18976
#Date Time: 2018-10-16 14:46:38.441
#Sample rate: 917431Hz
#Samples: 8192
#Trigger: Source: Channel 1 Type: Edge Condition: Rising Level: 0 V Hyst.: Auto HoldOff: 0 s
#Channel 1: Range: 500 mV/div Offset: 1.7 V
#Channel 2: Range: 500 mV/div Offset: 1.7 V

Time (s),Channel 1 (V),Channel 2 (V)
-0.0051153699999999993,-2.5108393669093205,0.013912739591708467
-0.0051142800000000006,-2.5108393669093205,0.013912739591708467
-0.0051131900000000001,-2.511172182503782,0.013578577123407001
-0.0051120999999999996,-2.511172182503782,0.013244414655106215
-0.0051110099999999992,-2.5115049980982436,0.013578577123407458
-0.0051099200000000004,-2.5115049980982436,0.013912739591708467
-0.00510883,-2.510506551314859,0.013912739591708315
-0.0051077399999999995,-2.5105065513148586,0.013578577123407458
-0.0051066500000000008,-2.5101737357203975,0.013912739591708315
-0.0051055600000000003,-2.5101737357203975,0.013912739591708467
-0.0051044699999999998,-2.5101737357203975,0.014246902060009406
-0.0051033799999999994,-2.5101737357203975,0.013912739591708467
-0.0051022900000000006,-2.5101737357203975,0.013912739591708467
-0.0051012000000000002,-2.5098409201259355,0.013912739591708467
-0.0051001099999999997,-2.510506551314859,0.01391273959170862
-0.0050990199999999992,-2.5108393669093205,0.014246902060009559
-0.0050979300000000005,-2.5108393669093205,0.014246902060009559
-0.0050968400000000001,-2.511172182503782,0.013578577123407154
-0.0050957499999999996,-2.5111721825037825,0.013578577123407458
-0.0050946599999999991,-2.5118378136927046,0.013912739591708467
-0.0050935700000000004,-2.511172182503782,0.013912739591708467
-0.0050924799999999999,-2.511172182503782,0.013912739591708315
-0.0050913899999999995,-2.5111721825037812,0.013578577123407458
-0.0050903000000000007,-2.5101737357203979,0.013912739591708315
-0.0050892100000000003,-2.510506551314859,0.013912739591708467
-0.0050881199999999998,-2.5105065513148586,0.013912739591708315
-0.0050870299999999993,-2.509508104531474,0.013578577123407458
-0.0050859400000000006,-2.509508104531474,0.013912739591708315
-0.0050848500000000001,-2.509508104531474,0.014246902060009559
-0.0050837599999999997,-2.5098409201259355,0.013912739591708315
-0.0050826699999999992,-2.5095081045314749,0.013578577123407458
-0.0050815800000000005,-2.510506551314859,0.013912739591708467
-0.00508049,-2.5115049980982431,0.013912739591708315
-0.0050793999999999995,-2.5108393669093214,0.01357857712340685
-0.0050783099999999991,-2.5118378136927038,0.013244414655106975
-0.0050772200000000003,-2.5108393669093205,0.013912739591708467
-0.0050761299999999999,-2.5108393669093201,0.014581064528310803
-0.0050750399999999994,-2.5101737357203979,0.014915226996611134
-0.0050739500000000007,-2.510506551314859,0.014246902060009862
-0.0050728600000000002,-2.5101737357203975,0.014246902060009559
-0.0050717699999999998,-2.5101737357203975,0.014246902060009255
-0.0050706799999999993,-2.5101737357203979,0.013578577123407458
-0.0050695900000000006,-2.5108393669093205,0.013912739591708467
-0.0050685000000000001,-2.5101737357203975,0.013912739591708467
-0.0050674099999999996,-2.510506551314859,0.013912739591708467
-0.0050663199999999992,-2.5108393669093205,0.013912739591708467
-0.0050652300000000004,-2.5108393669093205,0.013912739591708467
-0.00506414,-2.511172182503782,0.013578577123407001
-0.0050630499999999995,-2.5111721825037825,0.01324441465510667
-0.0050619600000000008,-2.5118378136927046,0.013912739591708164
-0.0050608700000000003,-2.510506551314859,0.014246902060009559
-0.0050597799999999998,-2.5108393669093201,0.014246902060009559
-0.0050586899999999994,-2.5101737357203979,0.014246902060009559
-0.0050576000000000006,-2.510506551314859,0.014246902060009559
-0.0050565100000000002,-2.5101737357203975,0.014915226996611741
-0.0050554199999999997,-2.5101737357203975,0.014246902060009255
-0.0050543299999999992,-2.510506551314859,0.013578577123407458
-0.0050532400000000005,-2.510506551314859,0.013912739591708467
-0.00505215,-2.5101737357203979,0.013912739591708467
-0.0050510599999999996,-2.510839366909321,0.013912739591708467
-0.0050499699999999991,-2.5115049980982427,0.013912739591708467
-0.0050488800000000004,-2.510506551314859,0.013912739591708467
-0.0050477899999999999,-2.5108393669093205,0.013912739591708467
-0.0050466999999999995,-2.5111721825037816,0.013912739591708467
-0.0050456100000000007,-2.5105065513148594,0.013912739591708467
-0.0050445200000000003,-2.510506551314859,0.014246902060009559
-0.0050434299999999998,-2.5101737357203975,0.014246902060009406
-0.0050423399999999993,-2.509840920125936,0.013912739591708467
-0.0050412500000000006,-2.510506551314859,0.013912739591708467
-0.0050401600000000001,-2.5108393669093205,0.014246902060009559
-0.0050390699999999997,-2.510506551314859,0.01391273959170862
-0.0050379799999999992,-2.5105065513148586,0.014246902060009559
-0.0050368900000000005,-2.5098409201259355,0.014246902060009559
-0.0050358,-2.5101737357203979,0.013912739591708467
-0.0050347099999999995,-2.5108393669093205,0.013912739591708771
-0.0050336199999999991,-2.5108393669093214,0.014246902060010015
-0.0050325300000000003,-2.5115049980982436,0.01458106452831065
-0.0050314399999999999,-2.5115049980982431,0.013912739591708467
-0.0050303499999999994,-2.5108393669093201,0.013912739591708771
-0.0050292600000000007,-2.510506551314859,0.014246902060009406
-0.0050281700000000002,-2.510506551314859,0.013912739591708467
-0.0050270799999999997,-2.510506551314859,0.014246902060009559
-0.0050259899999999993,-2.5101737357203975,0.014246902060009255
-0.0050249000000000005,-2.5101737357203975,0.013912739591708467
-0.0050238100000000001,-2.509840920125936,0.01391273959170862
-0.0050227199999999996,-2.510506551314859,0.014246902060009559
-0.0050216299999999991,-2.5101737357203979,0.014246902060009862
-0.0050205400000000004,-2.5108393669093205,0.01458106452831065
-0.00501945,-2.5108393669093205,0.014246902060009559
-0.0050183599999999995,-2.5108393669093201,0.014246902060009255
-0.0050172700000000008,-2.5101737357203979,0.01391273959170862
-0.0050161800000000003,-2.5108393669093205,0.01458106452831065
-0.0050150899999999998,-2.5108393669093201,0.013912739591708467
-0.0050139999999999994,-2.5101737357203979,0.013912739591708467
-0.0050129100000000006,-2.510506551314859,0.013912739591708467
-0.0050118200000000002,-2.5101737357203975,0.013912739591708467
-0.0050107299999999997,-2.5098409201259355,0.013912739591708467
-0.0050096399999999992,-2.5098409201259355,0.013912739591708771
-0.0050085500000000005,-2.5098409201259355,0.014246902060009559
-0.00500746,-2.510506551314859,0.014581064528310803
-0.0050063699999999996,-2.510506551314859,0.014915226996611438
-0.0050052799999999991,-2.5105065513148594,0.014581064528309737
-0.0050041900000000004,-2.5108393669093205,0.013912739591708467
-0.0050030999999999999,-2.5108393669093205,0.01391273959170862
-0.0050020099999999994,-2.5111721825037816,0.014246902060009559
-0.0050009200000000007,-2.5105065513148594,0.014246902060009559
-0.0049998300000000002,-2.510506551314859,0.014246902060009559
-0.0049987399999999998,-2.510506551314859,0.014246902060009559
-0.0049976499999999993,-2.510173735720397,0.014246902060008951
-0.0049965600000000006,-2.5098409201259355,0.013578577123407154
-0.0049954700000000001,-2.509508104531474,0.013578577123407154
-0.0049943799999999997,-2.5101737357203975,0.014246902060009711
-0.0049932899999999992,-2.510173735720397,0.01458106452831065
-0.0049922000000000005,-2.5098409201259355,0.01458106452831065
-0.00499111,-2.510506551314859,0.013912739591708771
-0.0049900199999999995,-2.510506551314859,0.014581064528310043
-0.0049889299999999991,-2.5105065513148586,0.013912739591708467
-0.0049878400000000003,-2.5101737357203975,0.013912739591708467
-0.0049867499999999999,-2.510506551314859,0.013912739591708315
-0.0049856599999999994,-2.5108393669093201,0.013578577123407458
-0.0049845700000000007,-2.510506551314859,0.013912739591708315
-0.0049834800000000002,-2.5101737357203975,0.013912739591708467
-0.0049823899999999997,-2.510506551314859,0.013912739591708467
-0.0049812999999999993,-2.5101737357203979,0.013912739591708164
-0.0049802100000000005,-2.510506551314859,0.013578577123407154
-0.0049791200000000001,-2.510506551314859,0.014246902060009406
-0.0049780299999999996,-2.510506551314859,0.01391273959170862
-0.0049769399999999991,-2.5101737357203975,0.014246902060009862
-0.0049758500000000004,-2.5101737357203975,0.01458106452831065
-0.0049747599999999999,-2.510506551314859,0.014581064528310346
-0.0049736699999999995,-2.5101737357203975,0.013912739591708467
-0.0049725800000000007,-2.5101737357203975,0.013912739591708467
-0.0049714900000000003,-2.511172182503782,0.013244414655106063
-0.0049703999999999998,-2.509840920125936,0.013578577123407154
-0.0049693099999999994,-2.510839366909321,0.013578577123407458
-0.0049682200000000006,-2.511172182503782,0.013912739591708315
-0.0049671300000000002,-2.5108393669093205,0.013578577123407154
-0.0049660399999999997,-2.5101737357203975,0.014246902060009711
-0.0049649499999999992,-2.510173735720397,0.01458106452831065
-0.0049638600000000005,-2.5098409201259355,0.01458106452831065
-0.00496277,-2.5095081045314744,0.014915226996611589
-0.0049616799999999996,-2.510173735720397,0.01458106452831065
-0.0049605899999999991,-2.5098409201259364,0.014581064528309737
-0.0049595000000000004,-2.510506551314859,0.013912739591708467
-0.0049584099999999999,-2.510173735720397,0.013578577123407307
-0.0049573199999999994,-2.5095081045314744,0.013912739591708771
-0.0049562300000000007,-2.510173735720397,0.014246902060009406
-0.0049551400000000002,-2.510506551314859,0.013912739591708467
-0.0049540499999999998,-2.5108393669093205,0.013912739591708467
-0.0049529599999999993,-2.510839366909321,0.013912739591708467
-0.0049518700000000006,-2.5115049980982436,0.013912739591708467
-0.0049507800000000001,-2.5108393669093205,0.014246902060009559
-0.0049496899999999996,-2.5105065513148586,0.014246902060009559
-0.0049485999999999992,-2.5098409201259355,0.014246902060009255
-0.0049475100000000004,-2.5098409201259355,0.013912739591708467
-0.00494642,-2.5101737357203975,0.01391273959170862
-0.0049453299999999995,-2.5098409201259364,0.014246902060009255
-0.0049442399999999991,-2.5108393669093196,0.013912739591708924
-0.0049431500000000003,-2.5101737357203975,0.014246902060009559
-0.0049420599999999999,-2.510506551314859,0.014246902060009711
-0.0049409699999999994,-2.5108393669093205,0.014581064528310043
-0.0049398800000000007,-2.5108393669093205,0.013912739591708771
-0.0049387900000000002,-2.5121706292871666,0.013578577123407154
-0.0049376999999999997,-2.5121706292871666,0.013578577123407307
-0.0049366099999999993,-2.5121706292871653,0.013912739591708467
-0.0049355200000000005,-2.5108393669093205,0.013912739591708467
-0.0049344300000000001,-2.5098409201259355,0.01391273959170862
-0.0049333399999999996,-2.509840920125936,0.014246902060009255
-0.0049322499999999991,-2.510173735720397,0.013912739591708164
-0.0049311600000000004,-2.509508104531474,0.013578577123407154
-0.0049300699999999999,-2.509840920125936,0.013912739591708771
-0.0049289799999999995,-2.5108393669093201,0.014581064528310346
-0.0049278900000000007,-2.510506551314859,0.014246902060009711
-0.0049268000000000003,-2.5108393669093205,0.013912739591708467
-0.0049257099999999998,-2.5101737357203975,0.014581064528310803
-0.0049246199999999993,-2.5101737357203979,0.014915226996611438
-0.0049235300000000006,-2.510506551314859,0.014581064528310803
-0.0049224400000000001,-2.511172182503782,0.014246902060009559
-0.0049213499999999997,-2.5108393669093201,0.01391273959170862
-0.0049202599999999992,-2.5095081045314744,0.014246902060009559
-0.0049191700000000005,-2.5098409201259355,0.014246902060009559
-0.00491808,-2.5098409201259355,0.014246902060009559
-0.0049169899999999996,-2.5098409201259355,0.014246902060009862
-0.0049158999999999991,-2.5098409201259364,0.01458106452831065
-0.0049148100000000004,-2.510506551314859,0.01458106452831065
-0.0049137199999999999,-2.511172182503782,0.014246902060009406
-0.0049126299999999994,-2.5108393669093205,0.013912739591708771
-0.0049115400000000007,-2.5108393669093205,0.014246902060009406
-0.0049104500000000002,-2.511172182503782,0.01458106452831065
-0.0049093599999999998,-2.511172182503782,0.014246902060009559
-0.0049082699999999993,-2.5108393669093201,0.014246902060009559
-0.0049071800000000006,-2.510506551314859,0.014246902060009559
-0.0049060900000000001,-2.510506551314859,0.014246902060009559
-0.0049049999999999996,-2.5101737357203975,0.014246902060009559
-0.0049039099999999992,-2.5101737357203979,0.014246902060009255
-0.0049028200000000004,-2.510506551314859,0.013912739591708467
-0.00490173,-2.5105065513148586,0.013912739591708467
-0.0049006399999999995,-2.509840920125936,0.013912739591708771
-0.0048995500000000008,-2.5101737357203975,0.014246902060009406
-0.0048984600000000003,-2.510506551314859,0.013912739591708467
-0.0048973699999999998,-2.5098409201259351,0.013912739591708467
-0.0048962799999999994,-2.5091752889370134,0.013912739591708771
-0.0048951900000000007,-2.510173735720397,0.014246902060009406
-0.0048941000000000002,-2.5108393669093205,0.013912739591708467
-0.0048930099999999997,-2.510839366909321,0.013578577123407154
-0.0048919199999999993,-2.511504998098244,0.013578577123407154
-0.0048908300000000005,-2.5118378136927051,0.013578577123407154
-0.0048897400000000001,-2.5111721825037816,0.013578577123407307
-0.0048886499999999996,-2.509840920125936,0.013912739591708771
-0.0048875599999999991,-2.5105065513148586,0.014246902060009255
-0.0048864700000000004,-2.5101737357203975,0.013912739591708467
-0.0048853799999999999,-2.5095081045314744,0.014581064528310497
-0.0048842899999999995,-2.5101737357203975,0.014246902060009559
-0.0048832000000000007,-2.5101737357203975,0.014246902060009559
-0.0048821100000000003,-2.5101737357203975,0.01458106452831065
-0.0048810199999999998,-2.509508104531474,0.014915226996611438
-0.0048799299999999993,-2.509508104531474,0.014246902060009255
-0.0048788400000000006,-2.509508104531474,0.01391273959170862
-0.0048777500000000001,-2.510506551314859,0.013912739591708467
-0.0048766599999999997,-2.5105065513148594,0.014246902060009406
-0.0048755699999999992,-2.5115049980982431,0.013912739591708164
-0.0048744800000000005,-2.511172182503782,0.013578577123407154
-0.00487339,-2.510506551314859,0.01391273959170862
-0.0048722999999999995,-2.5108393669093205,0.014246902060009559
-0.0048712099999999991,-2.5108393669093205,0.014246902060008646
-0.0048701200000000004,-2.5108393669093205,0.013578577123407154
-0.0048690299999999999,-2.5105065513148586,0.014246902060009559
-0.0048679399999999994,-2.5098409201259351,0.014246902060009559
-0.0048668500000000007,-2.509508104531474,0.014246902060009559
-0.0048657600000000002,-2.509508104531474,0.013912739591708467
-0.0048646699999999998,-2.5101737357203979,0.013912739591708467
-0.0048635799999999993,-2.5115049980982427,0.013912739591708467
-0.0048624900000000006,-2.510506551314859,0.013912739591708467
-0.0048614000000000001,-2.5118378136927046,0.013578577123407154
-0.0048603099999999996,-2.511172182503782,0.013578577123407307
-0.0048592199999999992,-2.5108393669093201,0.013912739591708467
-0.0048581300000000004,-2.510506551314859,0.013912739591708467
-0.00485704,-2.5095081045314744,0.01391273959170862
-0.0048559499999999995,-2.510173735720397,0.014246902060009255
-0.0048548600000000008,-2.5095081045314744,0.01391273959170862
-0.0048537700000000003,-2.5098409201259355,0.014246902060009559
-0.0048526799999999998,-2.5091752889370125,0.013912739591708467
-0.0048515899999999994,-2.5088424733425518,0.013912739591708467
-0.0048505000000000006,-2.5098409201259351,0.013912739591708467
-0.0048494100000000002,-2.5101737357203975,0.013912739591708467
-0.0048483199999999997,-2.5108393669093205,0.013912739591708315
-0.0048472299999999992,-2.510839366909321,0.013578577123407458
-0.0048461400000000005,-2.5115049980982436,0.013912739591708467
-0.0048450500000000001,-2.5115049980982436,0.013912739591708315
-0.0048439599999999996,-2.5111721825037816,0.013578577123407154
-0.0048428699999999991,-2.5105065513148594,0.013578577123407154
-0.0048417800000000004,-2.5108393669093205,0.013578577123407154
-0.0048406899999999999,-2.5101737357203975,0.013578577123407154
-0.0048395999999999995,-2.510173735720397,0.013578577123407458
-0.0048385100000000007,-2.5098409201259355,0.013912739591708315
-0.0048374200000000003,-2.5101737357203975,0.013912739591708467
-0.0048363299999999998,-2.5101737357203975,0.013912739591708467
-0.0048352399999999993,-2.510173735720397,0.013912739591708771
-0.0048341500000000006,-2.5098409201259355,0.014246902060009559
-0.0048330600000000001,-2.5108393669093205,0.013912739591708467
-0.0048319699999999997,-2.5101737357203979,0.014246902060009406
-0.0048308799999999992,-2.5108393669093205,0.013912739591708164
-0.0048297900000000005,-2.5108393669093205,0.013578577123407154
-0.0048287,-2.509840920125936,0.013912739591708164
-0.0048276099999999995,-2.5108393669093201,0.013244414655106063
-0.0048265199999999991,-2.510506551314859,0.013244414655106519
-0.0048254300000000003,-2.510506551314859,0.013578577123407154
-0.0048243399999999999,-2.510506551314859,0.013912739591708771
-0.0048232499999999994,-2.510173735720397,0.01458106452831065
-0.0048221600000000007,-2.5098409201259355,0.01458106452831065
-0.0048210700000000002,-2.5098409201259355,0.013912739591708467
-0.0048199799999999998,-2.509840920125936,0.01391273959170862
-0.0048188899999999993,-2.5105065513148599,0.014246902060009559
-0.0048178000000000006,-2.5115049980982436,0.014246902060009559
-0.0048167100000000001,-2.5108393669093205,0.013912739591708467
-0.0048156199999999996,-2.511172182503782,0.013912739591708467
-0.0048145299999999992,-2.5111721825037816,0.013912739591709074
-0.0048134400000000004,-2.510506551314859,0.01458106452831065
-0.00481235,-2.510173735720397,0.014581064528310497
-0.0048112599999999995,-2.5095081045314735,0.014246902060009862
-0.0048101700000000008,-2.5091752889370125,0.014581064528310497
-0.0048090800000000003,-2.509508104531474,0.013244414655106063
-0.0048079899999999998,-2.5101737357203975,0.013244414655106366
-0.0048068999999999994,-2.5098409201259351,0.013912739591708467
-0.0048058100000000006,-2.509508104531474,0.013912739591708467
-0.0048047200000000002,-2.509508104531474,0.014246902060009559
-0.0048036299999999997,-2.5091752889370129,0.014246902060009559
-0.0048025399999999992,-2.509840920125936,0.014246902060009559
-0.0048014500000000005,-2.5101737357203975,0.014246902060009559
-0.00480036,-2.509840920125936,0.013912739591708467
-0.0047992699999999996,-2.5111721825037816,0.013912739591708771
-0.0047981799999999991,-2.5108393669093196,0.014246902060009559
-0.0047970900000000004,-2.5101737357203975,0.014246902060009559
-0.0047959999999999999,-2.509508104531474,0.013912739591708467
-0.0047949099999999995,-2.5098409201259355,0.013912739591708467
-0.0047938200000000007,-2.5098409201259355,0.013912739591708467
-0.0047927300000000003,-2.5091752889370125,0.014246902060009559
-0.0047916399999999998,-2.510173735720397,0.01391273959170862
-0.0047905499999999993,-2.5095081045314744,0.014246902060009255
-0.0047894600000000006,-2.5098409201259355,0.013912739591708467
-0.0047883700000000001,-2.510506551314859,0.013912739591708467
-0.0047872799999999997,-2.5101737357203975,0.013912739591708924
-0.0047861899999999992,-2.5101737357203975,0.014915226996611134
-0.0047851000000000005,-2.5101737357203975,0.014246902060009559
-0.00478401,-2.5108393669093205,0.013578577123407154
-0.0047829199999999995,-2.5108393669093201,0.013578577123407458
-0.0047818299999999991,-2.5101737357203988,0.013912739591708011
-0.0047807400000000003,-2.511172182503782,0.013578577123407154
-0.0047796499999999999,-2.5118378136927046,0.013578577123407154
-0.0047785599999999994,-2.5105065513148594,0.013578577123407458
-0.0047774700000000007,-2.5108393669093205,0.013912739591708315
