PSET6 OpAmps/data/follower_single.csv

#Digilent WaveForms Oscilloscope Acquisition
#Device Name: Discovery2
#Serial Number: SN:210321A18976
#Date Time: 2018-10-16 14:19:11.337
#Sample rate: 800000Hz
#Samples: 8192
#Trigger: Source: Channel 1 Type: Edge Condition: Rising Level: 0 V Hyst.: Auto HoldOff: 0 s
#Channel 1: Range: 500 mV/div Offset: -2.5 V
#Channel 2: Range: 500 mV/div Offset: -2.5 V

Time (s),Channel 1 (V),Channel 2 (V)
-0.0051200000000000004,3.2508704723120818,3.2680799745244533
-0.00511875,3.2508704723120818,3.2674116495878511
-0.0051174999999999997,3.2508704723120818,3.2687482994610555
-0.0051162500000000001,3.2508704723120818,3.2687482994610555
-0.0051149999999999998,3.2508704723120818,3.2694166243976577
-0.0051137500000000002,3.2545301969374432,3.2707532742708625
-0.0051124999999999999,3.2545301969374432,3.2704191118025614
-0.0051112500000000003,3.2545301969374432,3.2710874367391631
-0.00511,3.2545301969374432,3.2710874367391636
-0.0051087499999999996,3.2545301969374432,3.2717557616757658
-0.0051075000000000001,3.2545301969374432,3.2720899241440669
-0.0051062499999999997,3.2508704723120818,3.2724240866123684
-0.0051050000000000002,3.2508704723120818,3.2730924115489706
-0.0051037499999999998,3.2581899215628041,3.2737607364855728
-0.0051025000000000003,3.2545301969374432,3.2740948989538738
-0.0051012499999999999,3.2581899215628041,3.2754315488270782
-0.0051000000000000004,3.2618496461881632,3.2754315488270782
-0.00509875,3.261849646188165,3.2757657112953797
-0.0050974999999999996,3.2618496461881668,3.2764340362319824
-0.0050962500000000001,3.2655093708135259,3.2771023611685841
-0.0050949999999999997,3.2655093708135241,3.276768198700283
-0.0050937500000000002,3.261849646188165,3.276768198700283
-0.0050924999999999998,3.261849646188165,3.2781048485734874
-0.0050912500000000003,3.261849646188165,3.2787731735100896
-0.0050899999999999999,3.2655093708135259,3.2794414984466922
-0.0050887500000000004,3.2618496461881668,3.2797756609149933
-0.0050875,3.261849646188165,3.2811123107881977
-0.0050862499999999996,3.2655093708135241,3.2811123107881977
-0.0050850000000000001,3.261849646188165,3.2811123107881977
-0.0050837499999999997,3.261849646188165,3.2821147981931009
-0.0050825000000000002,3.2581899215628041,3.2831172855980046
-0.0050812499999999998,3.261849646188165,3.2831172855980046
-0.0050800000000000003,3.261849646188165,3.2827831231297036
-0.0050787499999999999,3.2655093708135259,3.2831172855980046
-0.0050775000000000004,3.2655093708135259,3.2844539354712086
-0.00507625,3.2655093708135259,3.284453935471209
-0.0050749999999999997,3.2655093708135277,3.2847880979395105
-0.0050737500000000001,3.2691690954388868,3.2857905853444134
-0.0050724999999999998,3.2691690954388868,3.2857905853444134
-0.0050712500000000002,3.2655093708135259,3.286458910281016
-0.0050699999999999999,3.2691690954388868,3.2871272352176182
-0.0050687500000000003,3.2764885446896059,3.288129722622521
-0.0050675,3.2728288200642481,3.2877955601542204
-0.0050662499999999996,3.2728288200642499,3.2891322100274252
-0.0050650000000000001,3.276488544689609,3.2891322100274252
-0.0050637499999999997,3.2728288200642481,3.2898005349640274
-0.0050625000000000002,3.2728288200642481,3.2898005349640274
-0.0050612499999999998,3.276488544689609,3.2901346974323284
-0.0050600000000000003,3.276488544689609,3.2904688599006295
-0.0050587499999999999,3.276488544689609,3.2911371848372317
-0.0050575000000000004,3.2801482693149682,3.2914713473055333
-0.00505625,3.2728288200642481,3.2924738347104365
-0.0050549999999999996,3.2728288200642464,3.2918055097738348
-0.0050537500000000001,3.2691690954388868,3.2934763221153398
-0.0050524999999999997,3.2728288200642464,3.2928079971787381
-0.0050512500000000002,3.2691690954388868,3.2938104845836409
-0.0050499999999999998,3.276488544689609,3.2951471344568457
-0.0050487500000000003,3.276488544689609,3.2954812969251468
-0.0050474999999999999,3.2801482693149699,3.2971521092666523
-0.0050462500000000004,3.2874677185656886,3.2971521092666523
-0.005045,3.2838079939403308,3.298154596671556
-0.0050437499999999996,3.2764885446896121,3.2974862717349533
-0.0050425000000000001,3.2838079939403308,3.2971521092666523
-0.0050412499999999997,3.2838079939403308,3.298154596671556
-0.0050400000000000002,3.2838079939403308,3.2984887591398566
-0.0050387499999999998,3.2874677185656918,3.2994912465447603
-0.0050375000000000003,3.2874677185656918,3.2998254090130614
-0.0050362499999999999,3.2874677185656918,3.2998254090130614
-0.0050350000000000004,3.2874677185656918,3.3001595714813625
-0.00503375,3.2874677185656918,3.3004937339496636
-0.0050324999999999996,3.2838079939403291,3.3014962213545669
-0.0050312500000000001,3.2801482693149699,3.3018303838228684
-0.0050299999999999997,3.2838079939403308,3.3031670336960728
-0.0050287500000000002,3.2874677185656918,3.3035011961643739
-0.0050274999999999999,3.2874677185656918,3.3045036835692772
-0.0050262500000000003,3.2874677185656918,3.3041695211009761
-0.005025,3.2838079939403308,3.303835358632675
-0.0050237499999999996,3.2874677185656918,3.3055061709741809
-0.0050225000000000001,3.2874677185656918,3.3051720085058798
-0.0050212499999999997,3.2874677185656918,3.3061744959107835
-0.0050200000000000002,3.2874677185656918,3.3068428208473852
-0.0050187499999999998,3.2911274431910527,3.3068428208473852
-0.0050175000000000003,3.2911274431910527,3.3075111457839874
-0.0050162499999999999,3.2947871678164136,3.3081794707205896
-0.0050150000000000004,3.2911274431910544,3.3088477956571918
-0.00501375,3.2947871678164136,3.3098502830620955
-0.0050124999999999996,3.2911274431910544,3.3091819581254938
-0.0050112500000000001,3.2947871678164136,3.3101844455303966
-0.0050099999999999997,3.2947871678164118,3.3115210954036014
-0.0050087500000000002,3.2911274431910527,3.3118552578719025
-0.0050074999999999998,3.2911274431910527,3.3115210954036014
-0.0050062500000000003,3.2874677185656918,3.3101844455303966
-0.0050049999999999999,3.2874677185656918,3.3118552578719025
-0.0050037500000000004,3.2947871678164105,3.3125235828085042
-0.0050025,3.2947871678164136,3.3131919077451069
-0.0050012499999999996,3.2947871678164136,3.3131919077451073
-0.0050000000000000001,3.2947871678164136,3.3145285576183117
-0.0049987499999999997,3.2984468924417749,3.3148627200866128
-0.0049975000000000002,3.2984468924417749,3.3151968825549138
-0.0049962499999999998,3.3021066170671358,3.3151968825549138
-0.0049950000000000003,3.3021066170671358,3.3158652074915156
-0.0049937499999999999,3.2984468924417749,3.3168676948964193
-0.0049925000000000004,3.2984468924417749,3.3175360198330215
-0.00499125,3.3021066170671358,3.3175360198330219
-0.0049899999999999996,3.3057663416924967,3.3175360198330224
-0.0049887500000000001,3.3057663416924967,3.3185385072379252
-0.0049874999999999997,3.3021066170671358,3.3182043447696241
-0.0049862500000000002,3.2984468924417749,3.3188726697062263
-0.0049849999999999998,3.2984468924417749,3.3202093195794307
-0.0049837500000000003,3.2984468924417749,3.3202093195794307
-0.0049824999999999999,3.2984468924417749,3.3205434820477322
-0.0049812499999999996,3.2911274431910558,3.3212118069843344
-0.0049800000000000001,3.2984468924417749,3.3212118069843344
-0.0049787499999999997,3.2984468924417749,3.3228826193258394
-0.0049775000000000002,3.2984468924417749,3.3222142943892377
-0.0049762499999999998,3.3021066170671358,3.323550944262442
-0.0049750000000000003,3.3021066170671358,3.3232167817941409
-0.0049737499999999999,3.3021066170671358,3.323550944262442
-0.0049725000000000004,3.3094260663178545,3.3242192691990442
-0.00497125,3.3094260663178576,3.3248875941356468
-0.0049699999999999996,3.3057663416924985,3.325555919072249
-0.0049687500000000001,3.3094260663178576,3.325555919072249
-0.0049674999999999997,3.3130857909432168,3.3265584064771523
-0.0049662500000000002,3.3094260663178576,3.3265584064771523
-0.0049649999999999998,3.3094260663178576,3.3265584064771523
-0.0049637500000000003,3.3094260663178576,3.3275608938820556
-0.0049624999999999999,3.3094260663178576,3.3275608938820556
-0.0049612500000000004,3.3130857909432168,3.3285633812869588
-0.00496,3.3130857909432185,3.3295658686918626
-0.0049587499999999996,3.3130857909432168,3.3299000311601632
-0.0049575000000000001,3.3094260663178576,3.3288975437552604
-0.0049562499999999997,3.3130857909432185,3.3288975437552604
-0.0049550000000000002,3.3130857909432185,3.3309025185650674
-0.0049537499999999998,3.3130857909432185,3.3309025185650674
-0.0049525000000000003,3.3130857909432185,3.3312366810333685
-0.0049512499999999999,3.3130857909432185,3.3319050059699706
-0.0049500000000000004,3.3094260663178594,3.3319050059699706
-0.00494875,3.3130857909432185,3.3332416558431754
-0.0049474999999999996,3.3204052401939403,3.3329074933748739
-0.0049462500000000001,3.3204052401939403,3.3329074933748739
-0.0049449999999999997,3.3130857909432185,3.3342441432480787
-0.0049437500000000002,3.3167455155685794,3.3342441432480787
-0.0049424999999999998,3.3130857909432185,3.3355807931212831
-0.0049412500000000003,3.3094260663178594,3.3362491180578848
-0.0049399999999999999,3.3130857909432185,3.3365832805261864
-0.0049387500000000004,3.3204052401939372,3.3365832805261864
-0.0049375,3.3204052401939403,3.3369174429944879
-0.0049362499999999997,3.3204052401939386,3.3379199303993912
-0.0049350000000000002,3.3167455155685794,3.3375857679310901
-0.0049337499999999998,3.3204052401939403,3.3382540928676923
-0.0049325000000000003,3.3204052401939403,3.3389224178042944
-0.0049312499999999999,3.3204052401939403,3.3395907427408966
-0.0049300000000000004,3.3167455155685812,3.3395907427408966
-0.00492875,3.3130857909432185,3.3392565802725955
-0.0049274999999999996,3.3240649648193017,3.3409273926141014
-0.0049262500000000001,3.3240649648193017,3.3412615550824025
-0.0049249999999999997,3.3240649648193017,3.3412615550824025
-0.0049237500000000002,3.3240649648193017,3.3415957175507036
-0.0049224999999999998,3.3240649648193017,3.3422640424873058
-0.0049212500000000003,3.3240649648193017,3.3422640424873058
-0.0049199999999999999,3.3240649648193017,3.3422640424873058
-0.0049187500000000004,3.3240649648193017,3.3436006923605102
-0.0049175,3.3240649648193017,3.3439348548288117
-0.0049162499999999996,3.3240649648193017,3.3442690172971128
-0.0049150000000000001,3.3240649648193017,3.3446031797654139
-0.0049137499999999997,3.3240649648193017,3.3446031797654143
-0.0049125000000000002,3.3240649648193017,3.3459398296386182
-0.0049112499999999998,3.3313844140700235,3.3466081545752209
-0.0049100000000000003,3.3313844140700235,3.3466081545752209
-0.0049087499999999999,3.3313844140700235,3.346942317043522
-0.0049075000000000004,3.3277246894446644,3.3479448044484248
-0.00490625,3.3277246894446626,3.3479448044484252
-0.0049049999999999996,3.3350441386953844,3.3482789669167263
-0.0049037500000000001,3.3350441386953844,3.3486131293850274
-0.0049024999999999997,3.3350441386953844,3.3492814543216296
-0.0049012500000000002,3.3313844140700235,3.3492814543216296
-0.0048999999999999998,3.3350441386953844,3.3502839417265333
-0.0048987500000000003,3.3313844140700253,3.3506181041948344
-0.0048974999999999999,3.3350441386953844,3.3512864291314366
-0.0048962500000000004,3.3387038633207435,3.3512864291314366
-0.004895,3.3350441386953844,3.3522889165363399
-0.0048937499999999997,3.3350441386953844,3.3529572414729421
-0.0048925000000000001,3.3350441386953844,3.3526230790046414
-0.0048912499999999998,3.3350441386953844,3.3542938913461469
-0.0048900000000000002,3.3350441386953844,3.3536255664095447
-0.0048887499999999999,3.3423635879461067,3.3542938913461469
-0.0048875000000000004,3.3350441386953875,3.3542938913461469
-0.00488625,3.3387038633207453,3.3539597288778458
-0.0048849999999999996,3.3350441386953862,3.3552963787510501
-0.0048837500000000001,3.3387038633207453,3.3552963787510501
-0.0048824999999999997,3.3387038633207453,3.3559647036876528
-0.0048812500000000002,3.3387038633207453,3.3573013535608571
-0.0048799999999999998,3.3387038633207453,3.3573013535608571
-0.0048787500000000003,3.3387038633207453,3.3576355160291582
-0.0048774999999999999,3.3387038633207453,3.3579696784974593
-0.0048762500000000004,3.3387038633207453,3.358638003434061
-0.004875,3.3387038633207453,3.3583038409657604
-0.0048737499999999996,3.3423635879461067,3.3596404908389648
-0.0048725000000000001,3.3423635879461067,3.3596404908389648
-0.0048712499999999997,3.3423635879461084,3.3599746533072667
-0.0048700000000000002,3.3460233125714671,3.3606429782438685
-0.0048687499999999998,3.3460233125714671,3.3599746533072663
-0.0048675000000000003,3.3423635879461084,3.3609771407121691
-0.0048662499999999999,3.3460233125714671,3.3606429782438685
-0.0048650000000000004,3.3387038633207484,3.3616454656487713
-0.00486375,3.3350441386953844,3.3619796281170728
-0.0048624999999999996,3.3387038633207471,3.3623137905853748
-0.0048612500000000001,3.3423635879461067,3.3636504404585787
-0.0048599999999999997,3.3423635879461067,3.3636504404585787
-0.0048587500000000002,3.3496830371968285,3.3643187653951809
-0.0048574999999999998,3.3496830371968285,3.364652927863482
-0.0048562500000000003,3.3460233125714689,3.364652927863482
-0.0048549999999999999,3.3460233125714671,3.3659895777366868
-0.0048537500000000004,3.3423635879461084,3.3653212528000847
-0.0048525,3.3423635879461067,3.3659895777366868
-0.0048512499999999997,3.3496830371968302,3.3659895777366868
-0.0048500000000000001,3.3533427618221894,3.3659895777366868
-0.0048487499999999998,3.3460233125714671,3.366657902673289
-0.0048475000000000002,3.3533427618221894,3.3673262276098912
-0.0048462499999999999,3.3496830371968285,3.3676603900781923
-0.0048450000000000003,3.3496830371968285,3.3679945525464934
-0.00484375,3.3496830371968285,3.3686628774830956
-0.0048424999999999996,3.3533427618221894,3.3693312024196977
-0.0048412500000000001,3.3533427618221894,3.3696653648879993
-0.0048399999999999997,3.3570024864475485,3.3699995273563004
-0.0048387500000000002,3.3533427618221894,3.3703336898246015
-0.0048374999999999998,3.3533427618221894,3.3710020147612036
-0.0048362500000000003,3.3460233125714671,3.3713361772295047
-0.0048349999999999999,3.3496830371968285,3.3713361772295047
-0.0048337500000000004,3.3496830371968285,3.3713361772295047
-0.0048325,3.3533427618221894,3.3720045021661074
-0.0048312499999999996,3.3533427618221894,3.3723386646344085
-0.0048300000000000001,3.3533427618221894,3.3730069895710106
-0.0048287499999999997,3.3533427618221894,3.3730069895710111
-0.0048275000000000002,3.3533427618221894,3.3736753145076128
-0.0048262499999999998,3.3570024864475503,3.3736753145076128
-0.0048250000000000003,3.3533427618221912,3.3750119643808172
-0.0048237499999999999,3.3570024864475503,3.3750119643808176
-0.0048225000000000004,3.364321935698269,3.3760144517857205
-0.00482125,3.3643219356982721,3.3760144517857209
-0.0048199999999999996,3.3643219356982721,3.3766827767223226
-0.0048187500000000001,3.3643219356982721,3.3760144517857209
-0.0048174999999999997,3.3606622110729112,3.376348614254022
-0.0048162500000000002,3.3643219356982721,3.3773511016589253
-0.0048149999999999998,3.3643219356982721,3.3776852641272264
-0.0048137500000000003,3.360662211072913,3.3783535890638281
-0.0048124999999999999,3.3606622110729112,3.3790219140004312
-0.0048112500000000004,3.3606622110729112,3.3796902389370329
-0.00481,3.3570024864475503,3.3803585638736355
-0.0048087499999999997,3.3570024864475521,3.3800244014053344
-0.0048075000000000001,3.3606622110729112,3.3800244014053344
-0.0048062499999999998,3.3679816603236334,3.3810268888102377
-0.0048050000000000002,3.3606622110729112,3.3813610512785388
-0.0048037499999999999,3.3606622110729112,3.3816952137468403
-0.0048025000000000003,3.3606622110729112,3.3816952137468403
-0.00480125,3.3606622110729112,3.3810268888102377
-0.0047999999999999996,3.3643219356982739,3.3816952137468408
-0.0047987500000000001,3.3679816603236334,3.3823635386834425
-0.0047974999999999997,3.3716413849489943,3.3830318636200447
-0.0047962500000000002,3.3716413849489943,3.3830318636200447
-0.0047949999999999998,3.3679816603236334,3.3837001885566469
-0.0047937500000000003,3.3643219356982721,3.3843685134932491
-0.0047924999999999999,3.3679816603236334,3.3843685134932491
-0.0047912500000000004,3.3679816603236334,3.3853710008981523
-0.00479,3.3679816603236334,3.386039325834755
-0.0047887499999999996,3.3679816603236334,3.3867076507713572
-0.0047875000000000001,3.3679816603236334,3.3867076507713572
-0.0047862499999999997,3.3643219356982739,3.3880443006445611
-0.0047850000000000002,3.3679816603236334,3.3873759757079593
-0.0047837499999999998,3.3679816603236334,3.3880443006445615
-0.0047825000000000003,3.3716413849489926,3.3887126255811637
-0.0047812499999999999,3.3716413849489943,3.3883784631128631
-0.0047800000000000004,3.3716413849489943,3.3893809505177659
-0.00477875,3.3716413849489943,3.3883784631128631
-0.0047774999999999996,3.3679816603236352,3.3887126255811646
-0.0047762500000000001,3.3716413849489943,3.3900492754543685
-0.0047749999999999997,3.3716413849489943,3.3903834379226696
-0.0047737500000000002,3.3789608341997162,3.3910517628592718
-0.0047724999999999998,3.3753011095743553,3.3907176003909707
-0.0047712500000000003,3.3789608341997144,3.3917200877958735
-0.0047699999999999999,3.3789608341997162,3.3920542502641755
-0.0047687500000000004,3.3789608341997162,3.3923884127324766
-0.0047675,3.3789608341997162,3.3927225752007777
-0.0047662499999999997,3.382620558825074,3.3927225752007777
-0.0047650000000000001,3.3753011095743553,3.3927225752007777
-0.0047637499999999998,3.3753011095743553,3.393725062605681
-0.0047625000000000002,3.3789608341997162,3.3947275500105842
-0.0047612499999999999,3.3753011095743553,3.3940592250739821
-0.0047600000000000003,3.382620558825074,3.3953958749471864
-0.00475875,3.3716413849489943,3.3950617124788858
-0.0047574999999999996,3.3753011095743553,3.3950617124788862
-0.0047562500000000001,3.3753011095743553,3.396064199883789
-0.0047549999999999997,3.3753011095743553,3.3960641998837895
-0.0047537500000000002,3.3753011095743553,3.3974008497569934
-0.0047524999999999998,3.3716413849489943,3.3974008497569934
-0.0047512500000000003,3.3716413849489943,3.3967325248203912
-0.0047499999999999999,3.3826205588250771,3.398069174693596
-0.0047487500000000004,3.3789608341997179,3.398069174693596
-0.0047475,3.3826205588250771,3.3984033371618971
-0.0047462499999999996,3.3716413849489961,3.3984033371618971
-0.0047450000000000001,3.3753011095743553,3.3987374996301982
-0.0047437499999999997,3.3789608341997162,3.3994058245668004
-0.0047425000000000002,3.3789608341997162,3.3997399870351015
-0.0047412499999999998,3.386280283450438,3.4000741495034026
-0.0047400000000000003,3.386280283450438,3.4007424744400043
-0.0047387499999999999,3.3826205588250771,3.4004083119717037
-0.0047375000000000004,3.3899400080757958,3.4010766369083059
-0.00473625,3.3899400080757989,3.4017449618449085
-0.0047349999999999996,3.3826205588250753,3.4024132867815107
-0.0047337500000000001,3.3789608341997162,3.4027474492498118
-0.0047324999999999997,3.386280283450438,3.403749936654715
-0.0047312500000000002,3.3935997327011602,3.4034157741864139
-0.0047299999999999998,3.386280283450438,3.403749936654715
-0.0047287500000000003,3.3899400080757971,3.4040840991230166
-0.0047274999999999999,3.3826205588250771,3.403749936654715
-0.0047262500000000004,3.3826205588250771,3.4044182615913168
-0.004725,3.386280283450438,3.4050865865279198
-0.0047237499999999997,3.3862802834504397,3.4060890739328227
-0.0047225000000000001,3.3899400080757989,3.4054207489962209
-0.0047212499999999998,3.3899400080757989,3.4064232364011242
-0.0047200000000000002,3.3899400080757989,3.4064232364011242
-0.0047187499999999999,3.386280283450438,3.4064232364011242
-0.0047175000000000003,3.3899400080757971,3.4070915613377259
-0.00471625,3.3899400080757989,3.4074257238060275
-0.0047149999999999996,3.3899400080757958,3.4080940487426301
-0.0047137500000000001,3.3826205588250771,3.4084282112109312
-0.0047124999999999997,3.3862802834504397,3.407759886274329
-0.0047112500000000002,3.3899400080757989,3.407759886274329
-0.0047099999999999998,3.3899400080757989,3.4094306986158345
