PSET6 OpAmps/data/follower_lagging.csv

#Digilent WaveForms Oscilloscope Acquisition
#Device Name: Discovery2
#Serial Number: SN:210321A18976
#Date Time: 2018-10-16 14:20:40.911
#Sample rate: 1e+08Hz
#Samples: 8192
#Trigger: Source: Channel 1 Type: Edge Condition: Rising Level: 0 V Hyst.: Auto HoldOff: 0 s
#Channel 1: Range: 500 mV/div Offset: -2.5 V
#Channel 2: Range: 500 mV/div Offset: -2.5 V

Time (s),Channel 1 (V),Channel 2 (V)
-4.0960000000000001e-05,3.437516428205492,1.9798836592235682
-4.0949999999999999e-05,3.4704539498337406,1.9862327461212899
-4.0939999999999998e-05,3.4594747759576774,1.9942526453605205
-4.0930000000000003e-05,3.5033914714619692,2.000935894726537
-4.0920000000000001e-05,3.4924122975859064,2.0096241189023694
-4.091e-05,3.4887525729605455,2.0183123430781991
-4.0899999999999998e-05,3.4924122975859064,2.0263322423174266
-4.0890000000000003e-05,3.4924122975859064,2.037025441303058
-4.0880000000000002e-05,3.4631345005830187,2.0457136654788926
-4.087e-05,3.4704539498337406,2.0557385395279266
-4.0859999999999998e-05,3.4228775297040479,2.066765900981864
-4.0849999999999997e-05,3.4045789065772345,2.0757882876260001
-4.0840000000000002e-05,3.386280283450438,2.0878181364848358
-4.083e-05,3.3460233125714671,2.0995138228753754
-4.0819999999999999e-05,3.3387038633207453,2.1108753467976142
-4.0809999999999997e-05,3.2911274431910345,2.124241845529665
-4.0800000000000002e-05,3.2508704723121,2.1359375319201943
-4.0790000000000001e-05,3.1996343275570283,2.1503065180571483
-4.0779999999999999e-05,3.1557176320526965,2.1656779915990008
-4.0769999999999998e-05,3.1008217626722638,2.1783761653944507
-4.0760000000000003e-05,3.0605647917933294,2.192745151531386
-4.0750000000000001e-05,3.0093286470382576,2.2081166250732451
-4.074e-05,2.9544327776578432,2.2238222610833986
-4.0729999999999998e-05,2.8922174590267069,2.2385254096886489
-4.0720000000000003e-05,2.8519604881477543,2.2528943958255909
-4.0710000000000002e-05,2.7860854448912384,2.2679317068991489
-4.07e-05,2.7202104016347408,2.2846398303142057
-4.0689999999999998e-05,2.6653145322543264,2.3013479537292625
-4.0679999999999997e-05,2.5921200397470936,2.3147144524613168
-4.0670000000000002e-05,2.5628422427442192,2.3337617131544728
-4.066e-05,2.4786685763609166,2.3481306992914219
-4.0649999999999999e-05,2.4274324316058631,2.365841310111382
-4.0639999999999997e-05,2.3505782144732494,2.3842202458679504
-4.0630000000000002e-05,2.2773837219660966,2.3969184196633821
-4.0620000000000001e-05,2.2151684033349266,2.4162998428248539
-4.0609999999999999e-05,2.1749114324559562,2.4320054788350074
-4.0599999999999998e-05,2.1053766645740728,2.4480452773134687
-4.0590000000000003e-05,2.0504807951937076,2.462414263450404
-4.0580000000000001e-05,1.9992446504386292,2.4771174120556609
-4.057e-05,1.9553279549342975,2.4901497483194053
-4.0559999999999998e-05,1.8857931870524391,2.5021795971782463
-4.0550000000000003e-05,1.8748140131763611,2.5088628465442659
-4.0540000000000001e-05,1.8052792452944977,2.5158802583785929
-4.053e-05,1.7467236512887221,2.5168827457834961
-4.0519999999999998e-05,1.7211055789111953,2.516548583315195
-4.0509999999999997e-05,1.680848608032208,2.5101994964174712
-4.0500000000000002e-05,1.6442513617786148,2.5051870593929566
-4.049e-05,1.6076541155250053,2.4985038100269339
-4.0479999999999999e-05,1.5893554923982003,2.4898155858511042
-4.0469999999999997e-05,1.5527582461445839,2.4801248742703659
-4.0460000000000002e-05,1.5381193476431467,2.4687633503481323
-4.0450000000000001e-05,1.5234804491417027,2.4584043138307972
-4.0439999999999999e-05,1.5051818260148979,2.446040302503655
-4.0429999999999997e-05,1.5051818260149012,2.4326738037716042
-4.0420000000000003e-05,1.5125012752656166,2.4213122798493765
-4.0410000000000001e-05,1.5015221013895368,2.4059408063075187
-4.0399999999999999e-05,1.5271401737670636,2.3949134448535809
-4.0389999999999998e-05,1.5051818260148979,2.3815469461215355
-4.0380000000000003e-05,1.5088415506402573,2.3701854221993024
-4.0370000000000001e-05,1.5381193476431467,2.3558164360623479
-4.036e-05,1.5527582461445906,2.3427840997986036
-4.0349999999999998e-05,1.5783763185221173,2.3307542509397625
-4.0339999999999997e-05,1.6003346662742981,2.3137119650563993
-4.0330000000000002e-05,1.633272187902532,2.3020162786658647
-4.032e-05,1.6515708110293368,2.2893181048704214
-4.0309999999999999e-05,1.6954875065336685,2.2739466313285694
-4.0299999999999997e-05,1.7357444774126558,2.2599118076599156
-4.0290000000000002e-05,1.7723417236662491,2.2472136338644781
-4.0280000000000001e-05,1.8235778684213027,2.2321763227909273
-4.0269999999999999e-05,1.882133462427078,2.2188098240588818
-4.0259999999999997e-05,1.9187307086807146,2.2034383505170227
-4.0250000000000003e-05,1.9772863026864367,2.1890693643800869
-4.0240000000000001e-05,2.0321821720668778,2.1733637283699268
-4.0229999999999999e-05,2.0797585921965709,2.1606655545744835
-4.0219999999999998e-05,2.1456336354530681,2.1432891062228245
-4.0210000000000003e-05,2.193210055582739,2.1292542825541831
-4.0200000000000001e-05,2.2554253742138974,2.1148852964172278
-4.019e-05,2.3286198667211169,2.1015187976851823
-4.0179999999999998e-05,2.3835157361015313,2.0881522989531369
-4.0170000000000003e-05,2.4567102286087175,2.0734491503478933
-4.0160000000000002e-05,2.4933074748623607,2.0597484891475402
-4.015e-05,2.5738214166203019,2.0467161528837958
-4.0139999999999999e-05,2.6250575613753555,2.0330154916834493
-4.0129999999999997e-05,2.6872728800065171,2.0199831554197001
-4.0120000000000002e-05,2.7421687493869067,2.0096241189023694
-4.0110000000000001e-05,2.8153632418941261,1.9995992448533353
-4.0099999999999999e-05,2.8812382851506237,1.9922476705507104
-4.0089999999999997e-05,2.9324744299057039,1.9815544715650715
-4.0080000000000003e-05,2.9910300239114265,1.9758737096039574
-4.0070000000000001e-05,3.0459258932918676,1.9678538103647274
-4.0059999999999999e-05,3.1044814872976429,1.964512185681716
-4.0049999999999998e-05,3.1447384581766302,1.9621730484036071
-4.0040000000000003e-05,3.1813357044302073,1.9594997486572001
-4.0030000000000001e-05,3.225252399934555,1.9598339111255001
-4.002e-05,3.2874677185656918,1.9588314237205966
-4.0009999999999998e-05,3.3094260663178576,1.9611705609987045
-4.0000000000000003e-05,3.3533427618221694,1.9638438607451125
-3.9990000000000002e-05,3.3753011095743553,1.9668513229598239
-3.998e-05,3.4082386312026038,1.969190460237932
-3.9969999999999998e-05,3.4411761528308524,1.974202897262449
-3.9959999999999997e-05,3.4375164282055035,1.980217821691872
-3.9950000000000002e-05,3.4631345005830187,1.9862327461212899
-3.994e-05,3.4741136744591015,1.9959234577020228
-3.9929999999999999e-05,3.4850928483351842,2.0012700571948412
-3.9919999999999997e-05,3.4960720222112642,2.0109607687755786
-3.9910000000000002e-05,3.4887525729605486,2.0206514803563027
-3.9900000000000001e-05,3.4960720222112673,2.030008029468739
-3.9889999999999999e-05,3.4777733990844624,2.0400329035177731
-3.9879999999999998e-05,3.4704539498337357,2.0507261025034147
-3.9870000000000003e-05,3.4594747759576623,2.0627559513622451
-3.9860000000000001e-05,3.4411761528308524,2.0704416881331764
-3.985e-05,3.4265372543294088,2.0828056994603186
-3.9839999999999998e-05,3.3789608341997162,2.0945013858508585
-3.9830000000000003e-05,3.375301109574357,2.1068653971779949
-3.9820000000000002e-05,3.3130857909432185,2.1195635709734439
-3.981e-05,3.2838079939403308,2.1312592573639835
-3.9799999999999998e-05,3.2508704723120818,2.1442915936277278
-3.9789999999999997e-05,3.2032940521823696,2.155987280018274
-3.9780000000000002e-05,3.1593773566780579,2.1693537787503132
-3.977e-05,3.119120385799087,2.1813836276091543
-3.9759999999999999e-05,3.0715439656693944,2.1944159638728986
-3.9749999999999997e-05,3.0020091977875225,2.210789924819661
-3.9740000000000002e-05,2.9727314007846615,2.2251589109565963
-3.9730000000000001e-05,2.9178355314042337,2.2375229222837452
-3.9719999999999999e-05,2.8446410388970143,2.2525602333572965
-3.9709999999999998e-05,2.7787659956404882,2.2669292194942532
-3.9700000000000003e-05,2.7165506770094083,2.2843056678458966
-3.9690000000000001e-05,2.6579950830036045,2.3016821161975636
-3.968e-05,2.6104186628739119,2.3160511023345127
-3.9669999999999998e-05,2.5262449964906093,2.3314225758763651
-3.9660000000000003e-05,2.4823283009862975,2.3471282118865116
-3.9650000000000002e-05,2.4164532577297804,2.3635021728332744
-3.964e-05,2.3615573883493655,2.3792078088434274
-3.9629999999999998e-05,2.2956823450928683,2.3959159322584846
-3.9619999999999997e-05,2.2261475772109867,2.4132923806101512
-3.9610000000000002e-05,2.1749114324559562,2.4300005040252004
-3.96e-05,2.1163558384501804,2.4453719775670528
-3.9589999999999999e-05,2.0687794183204877,2.4617459385138085
-3.9579999999999997e-05,1.9919252011878941,2.4761149246507643
-3.9570000000000002e-05,1.9626474041850328,2.4904839107876997
-3.9560000000000001e-05,1.8967723609285221,2.5021795971782463
-3.9549999999999999e-05,1.8455362161734685,2.5101994964174734
-3.9539999999999998e-05,1.8125986945451895,2.5172169082517972
-3.9530000000000003e-05,1.7467236512887521,2.5175510707200988
-3.9520000000000001e-05,1.7174458542858342,2.518553558125002
-3.9509999999999999e-05,1.6698694341561415,2.5145436085053885
-3.9499999999999998e-05,1.62595273865181,2.5098653339491723
-3.9490000000000003e-05,1.614973564775732,2.5028479221148516
-3.9480000000000001e-05,1.5966749416489221,2.4938255354707177
-3.947e-05,1.5527582461445906,2.4848031488265869
-3.9459999999999998e-05,1.5454387968938685,2.4687633503481323
-3.9449999999999997e-05,1.5234804491416911,2.4587384762990929
-3.9440000000000002e-05,1.4978623767641759,2.4467086274402572
-3.943e-05,1.5198207245163418,2.4330079662399107
-3.9419999999999999e-05,1.483223478262732,2.4213122798493711
-3.9409999999999997e-05,1.5015221013895301,2.409616593458825
-3.9400000000000002e-05,1.4868832028880929,2.3959159322584846
-3.9390000000000001e-05,1.4978623767641759,2.3828835959947403
-3.9379999999999999e-05,1.5125012752656199,2.3685146098577912
-3.9369999999999997e-05,1.5417790722685027,2.3554822735940406
-3.9360000000000003e-05,1.5307998983924296,2.3417816123937065
-3.9350000000000001e-05,1.5747165938967562,2.328749276129956
-3.9339999999999999e-05,1.5820360431474785,2.3153827773979105
-3.9329999999999998e-05,1.62595273865181,2.3020162786658647
-3.9320000000000003e-05,1.6479110864039659,2.2879814549972233
-3.9310000000000001e-05,1.6735291587815027,2.2736124688602684
-3.93e-05,1.7320847527872782,2.2592434827233192
-3.9289999999999998e-05,1.7796611729169709,2.2462111464595749
-3.9279999999999997e-05,1.8052792452945225,2.2328446477275223
-3.9270000000000002e-05,1.8601751146749121,2.2171390117173759
-3.926e-05,1.9040918101792439,2.2041066754536316
-3.9249999999999999e-05,1.9699668534357415,2.1907401767215862
-3.9239999999999997e-05,2.0175432735654626,2.1730295659016203
-3.9230000000000002e-05,2.0797585921965709,2.1613338795110861
-3.9220000000000001e-05,2.1383141862023463,2.1459624059692337
-3.9209999999999999e-05,2.2151684033349266,2.1302567699590802
-3.9199999999999997e-05,2.2517656495885747,2.1148852964172211
-3.9190000000000003e-05,2.3359393159718005,2.1001821478119846
-3.9180000000000001e-05,2.3761962868508095,2.0868156490799326
-3.9169999999999999e-05,2.4457310547326681,2.0717783380063812
-3.9159999999999998e-05,2.4859880256116389,2.0574093518694321
-3.9150000000000003e-05,2.5811408658709811,2.0457136654788979
-3.9140000000000001e-05,2.6323770106260778,2.0310105168736423
-3.913e-05,2.6909326046318531,2.0206514803563072
-3.9119999999999998e-05,2.7494881986376289,2.0096241189023694
-3.9110000000000003e-05,2.8007243433926594,1.999933407321641
-3.9100000000000002e-05,2.870259111274541,1.9895743708043012
-3.909e-05,2.9288147052803164,1.9822227965016763
-3.9079999999999999e-05,2.9690716761592872,1.9748712221990512
-3.9069999999999997e-05,3.0312869947904439,1.9685221353013287
-3.9060000000000002e-05,3.0752036902947553,1.9658488355549206
-3.9050000000000001e-05,3.1227801104244479,1.9621730484036082
-3.9039999999999999e-05,3.1703565305541406,1.959499748657199
-3.9029999999999997e-05,3.2289121245599328,1.9605022360621021
-3.9020000000000002e-05,3.2655093708135094,1.9601680735938014
-3.9010000000000001e-05,3.3021066170671358,1.9625072108719093
-3.8999999999999999e-05,3.3423635879461067,1.9648463481500171
-3.8989999999999998e-05,3.3606622110729263,1.9681879728330303
-3.8980000000000003e-05,3.3935997327011451,1.9721979224526405
-3.8970000000000001e-05,3.437516428205492,1.9778786844137615
-3.896e-05,3.4484956020815747,1.9832252839065796
-3.8949999999999998e-05,3.4631345005830187,1.9892402083360001
-3.8940000000000003e-05,3.4814331237098148,1.9972601075752239
-3.8930000000000002e-05,3.4960720222112673,2.0029408695363466
-3.892e-05,3.4777733990844624,2.0119632561804774
-3.8909999999999998e-05,3.4850928483351842,2.0189806680148012
-3.8899999999999997e-05,3.4997317468366118,2.026666404785733
-3.8890000000000002e-05,3.4631345005830187,2.0380279287079661
-3.888e-05,3.4667942252083797,2.045379503010591
-3.8869999999999999e-05,3.4521553267069356,2.0564068644645288
-3.8859999999999997e-05,3.4301969789547631,2.0671000634501695
-3.8850000000000002e-05,3.4155580804533323,2.0771249374991947
-3.8840000000000001e-05,3.3716413849489943,2.0888206238897391
-3.8829999999999999e-05,3.3496830371968285,2.100182147811978
-3.8819999999999998e-05,3.2984468924417718,2.1115436717342226
-3.8810000000000003e-05,3.2911274431910558,2.1252443329345567
-3.8800000000000001e-05,3.225252399934555,2.1356033694518985
-3.879e-05,3.2032940521823896,2.1486357057156429
-3.8779999999999998e-05,3.1630370813034188,2.1630046918525916
-3.8770000000000003e-05,3.1154606611737479,2.1760370281163302
-3.8760000000000002e-05,3.0642245164186726,2.190071851784984
-3.875e-05,3.0020091977875358,2.2061116502634386
-3.8739999999999998e-05,2.9690716761592872,2.219478148995484
-3.8729999999999997e-05,2.8958771836520447,2.2338471351324398
-3.8720000000000002e-05,2.8446410388970143,2.2498869336108873
-3.871e-05,2.7970646187673216,2.2649242446844386
-3.8699999999999999e-05,2.731189575510824,2.2819665305677965
-3.8689999999999997e-05,2.6616548076289406,2.2960013542364535
-3.8680000000000002e-05,2.6067589382485759,2.3150486149296006
-3.8670000000000001e-05,2.5518630688681361,2.3300859260031603
-3.8659999999999999e-05,2.464029677859473,2.3461257244816149
-3.8649999999999998e-05,2.4164532577297537,2.3651729851747878
-3.8640000000000003e-05,2.3578976637240312,2.3825494335264308
-3.8630000000000001e-05,2.288362895842146,2.3989233944731949
-3.862e-05,2.2298073018363707,2.414629030483348
-3.8609999999999998e-05,2.1566128093291512,2.4320054788350074
-3.8600000000000003e-05,2.1236752877009173,2.4473769523768527
-3.8590000000000002e-05,2.0504807951936828,2.4634167508553144
-3.858e-05,1.9919252011879074,2.4787882243971664
-3.8569999999999998e-05,1.9443487810582147,2.4898155858511042
-3.8559999999999997e-05,1.8931126363031412,2.502179597178249
-3.8550000000000002e-05,1.8491959407988294,2.5078603591393653
-3.854e-05,1.8016195206691368,2.5148777709736896
-3.8529999999999999e-05,1.7467236512887221,2.5168827457834961
-3.8519999999999997e-05,1.7101264050350957,2.5158802583785915
-3.8510000000000002e-05,1.6735291587815193,2.5125386336955828
-3.8500000000000001e-05,1.6405916371532538,2.506523709266161
-3.8489999999999999e-05,1.6149735647757271,2.4998404599001383
-3.8479999999999997e-05,1.5820360431474785,2.4894814233827987
-3.8470000000000003e-05,1.5820360431474785,2.4801248742703756
-3.8460000000000001e-05,1.5490985215192294,2.4664242130700247
-3.8449999999999999e-05,1.5271401737670636,2.455731014084388
-3.8439999999999998e-05,1.5088415506402588,2.4443694901621495
-3.8430000000000003e-05,1.4905429275134623,2.4300005040252071
-3.8420000000000001e-05,1.5015221013895368,2.4179706551663598
-3.841e-05,1.5051818260148979,2.4036016690294106
-3.8399999999999998e-05,1.494202652138815,2.3929084700437744
-3.8389999999999997e-05,1.490542927513459,2.3805444587166265
-3.8380000000000002e-05,1.5015221013895368,2.3675121224528879
-3.837e-05,1.5417790722685076,2.3528089738476377
-3.8359999999999999e-05,1.5637374200206735,2.3397766375838933
-3.8349999999999997e-05,1.5600776953953359,2.3294176010665515
-3.8340000000000002e-05,1.6113138401503662,2.3150486149296094
-3.8330000000000001e-05,1.6296124632771711,2.3003454663243592
-3.8319999999999999e-05,1.6552305356546979,2.287647292528916
-3.8309999999999997e-05,1.6918277819083207,2.2732783063919615
-3.8300000000000003e-05,1.721105578911182,2.2605801325965298
-3.8290000000000001e-05,1.7723417236662491,2.2448744965863705
-3.8279999999999999e-05,1.8162584191705806,2.2331788101958305
-3.8269999999999998e-05,1.8638348393002733,2.2191439865271829
-3.8260000000000003e-05,1.9150709840553035,2.2057774877951433
-3.8250000000000001e-05,1.9699668534357415,2.1904060142532851
-3.824e-05,2.0358418966922391,2.1753687031797337
-3.8229999999999998e-05,2.0834183168219318,2.1606655545744835
-3.8220000000000003e-05,2.1309947369516027,2.1442915936277354
-3.8210000000000002e-05,2.1785711570813171,2.1289201200858754
-3.82e-05,2.2554253742138974,2.1152194588855289
-3.8189999999999999e-05,2.3103212435943119,2.100182147811978
-3.8179999999999997e-05,2.3835157361015531,2.0861473241433237
-3.8170000000000002e-05,2.431092156231224,2.0721125004746823
-3.8160000000000001e-05,2.5152658226145266,2.0550702145913244
-3.8149999999999999e-05,2.5848005904963851,2.0443770156056877
-3.8139999999999997e-05,2.6360367352514653,2.0306763544053363
-3.8130000000000003e-05,2.6945923292571874,2.0199831554197099
-3.8120000000000001e-05,2.7641270971390726,2.010292443838972
-3.8109999999999999e-05,2.8153632418941261,1.9995992448533353
-3.8099999999999998e-05,2.8885577344013456,1.9895743708043012
-3.8090000000000003e-05,2.9434536037817356,1.9818886340333788
-3.8080000000000001e-05,2.994689748536814,1.9745370597307501
-3.807e-05,3.0422661686665067,1.9708612725794374
-3.8059999999999998e-05,3.0935023134215602,1.9658488355549206
-3.8050000000000003e-05,3.1410787335512311,1.9641780232134154
-3.8040000000000002e-05,3.1923148783063064,1.9611705609987045
-3.803e-05,3.2142732260584723,1.9598339111255001
-3.8019999999999999e-05,3.2838079939403308,1.9605022360621023
-3.8009999999999997e-05,3.298446892441798,1.9611705609987056
-3.8000000000000002e-05,3.3496830371968285,1.9638438607451136
-3.799e-05,3.3679816603236334,1.9651805106183182
-3.7979999999999999e-05,3.4045789065772429,1.9695246227062331
-3.7969999999999997e-05,3.4155580804533372,1.975205384667355
-3.7960000000000002e-05,3.4411761528308409,1.9805519841601682
-3.7950000000000001e-05,3.4521553267069356,1.986566908589591
-3.7939999999999999e-05,3.4741136744591015,1.9949209702971196
-3.7929999999999998e-05,3.4960720222112642,2.000601732258243
-3.7920000000000003e-05,3.4887525729605486,2.0092899564340643
-3.7910000000000001e-05,3.4960720222112673,2.0193148304831023
-3.79e-05,3.5070511960873505,2.0259980798491251
-3.7889999999999998e-05,3.4814331237098233,2.0370254413030628
-3.7880000000000003e-05,3.4631345005830272,2.0460478279471896
-3.7870000000000002e-05,3.4521553267069356,2.0567410269328299
-3.786e-05,3.419217805078687,2.0677683883867672
-3.7849999999999998e-05,3.4082386312026038,2.076790775030898
-3.7839999999999997e-05,3.3753011095743584,2.0891547863580455
-3.7830000000000002e-05,3.3826205588250771,2.1008504727485802
-3.782e-05,3.3240649648193017,2.1142169714806256
-3.7809999999999999e-05,3.3021066170671358,2.129588445022478
-3.7799999999999997e-05,3.2472107476867098,2.14028164400812
-3.7790000000000002e-05,3.2215926753092057,2.1533139802718528
-3.7780000000000001e-05,3.1557176320526965,2.168685453813711
-3.7769999999999999e-05,3.1154606611737261,2.1813836276091543
-3.7759999999999998e-05,3.0752036902947268,2.1970892636193136
-3.7750000000000003e-05,3.0129883716636474,2.2101215998830464
-3.7740000000000001e-05,2.9690716761592872,2.2248247484883019
-3.773e-05,2.9068563575281505,2.2401962220301543
-3.7719999999999998e-05,2.837321589646292,2.2538968832305009
-3.7710000000000003e-05,2.7970646187673398,2.2696025192406473
-3.7700000000000002e-05,2.7165506770093799,2.2859764801874101
