PSET6 OpAmps/data/nonfollower.csv

#Digilent WaveForms Oscilloscope Acquisition
#Device Name: Discovery2
#Serial Number: SN:210321A18976
#Date Time: 2018-10-16 14:33:08.326
#Sample rate: 793651Hz
#Samples: 8192
#Trigger: Source: Channel 1 Type: Edge Condition: Rising Level: 0 V Hyst.: Auto HoldOff: 0 s
#Channel 1: Range: 500 mV/div Offset: -1.3 V
#Channel 2: Range: 500 mV/div Offset: -1.3 V

Time (s),Channel 1 (V),Channel 2 (V)
-0.0051606450000000002,-0.8379923970964207,2.786750554816332
-0.0051593850000000007,-0.83333297877396084,2.786750554816332
-0.0051581250000000004,-0.83000482282934296,2.786750554816332
-0.0051568650000000001,-0.82601103569580203,2.786750554816332
-0.0051556050000000006,-0.82135161737334206,2.786750554816332
-0.0051543450000000003,-0.81635938345641845,2.786750554816332
-0.0051530850000000008,-0.81236559632288141,2.786750554816332
-0.0051518250000000005,-0.80737336240595603,2.786750554816332
-0.0051505650000000002,-0.8033795752724171,2.786750554816332
-0.0051493050000000007,-0.79905297254441865,2.786750554816332
-0.0051480450000000004,-0.79406073862749305,2.786750554816332
-0.0051467850000000001,-0.78940132030502941,2.786750554816332
-0.0051455250000000006,-0.78574034876595378,2.786750554816332
-0.0051442650000000003,-0.78141374603795333,2.786750554816332
-0.005143005,-0.77642151212102772,2.786750554816332
-0.0051417450000000005,-0.77209490939302927,2.786750554816332
-0.0051404850000000002,-0.76710267547610567,2.786750554816332
-0.0051392250000000007,-0.76177762596472287,2.786750554816332
-0.0051379650000000004,-0.75711820764225846,2.786750554816332
-0.0051367050000000001,-0.75312442050871697,2.786750554816332
-0.0051354450000000006,-0.74746655540287288,2.786750554816332
-0.0051341850000000003,-0.74180869029702612,2.786750554816332
-0.005132925,-0.73714927197456181,2.786750554816332
-0.0051316650000000005,-0.73215703805764043,2.786750554816332
-0.0051304050000000002,-0.72716480414071683,2.786750554816332
-0.0051291450000000008,-0.72150693903487262,2.786750554816332
-0.0051278850000000004,-0.71618188952348494,2.786750554816332
-0.0051266250000000001,-0.7108568400120977,2.786750554816332
-0.0051253650000000006,-0.70619742168963773,2.786750554816332
-0.0051241050000000003,-0.69954110980040629,2.786750554816332
-0.005122845,-0.69388324469455753,2.786750554816332
-0.0051215850000000005,-0.68955664196655908,2.786750554816332
-0.0051203250000000002,-0.68290033007732764,2.786750554816332
-0.0051190650000000008,-0.67657683378256062,2.786750554816332
-0.0051178050000000004,-0.67191741546009576,2.786750554816332
-0.0051165450000000001,-0.66659236594871052,2.786750554816332
-0.0051152850000000007,-0.65993605405947908,2.786750554816332
-0.0051140250000000003,-0.6539453733591708,2.786750554816332
-0.005112765,-0.64795469265885997,2.786750554816332
-0.0051115050000000006,-0.64262964314747728,2.786750554816332
-0.0051102450000000002,-0.636638962447169,2.786750554816332
-0.0051089850000000008,-0.63098109734132479,2.786750554816332
-0.0051077250000000005,-0.62499041664101385,2.786750554816332
-0.0051064650000000001,-0.61766847356285925,2.786750554816332
-0.0051052050000000007,-0.61234342405147413,2.786750554816332
-0.0051039450000000004,-0.60535429656778106,2.786750554816332
-0.005102685,-0.59803235348962436,2.786750554816332
-0.0051014250000000006,-0.59337293516716438,2.786750554816332
-0.0051001650000000003,-0.58638380768347143,2.786750554816332
-0.0050989050000000008,-0.57972749579424299,2.786750554816332
-0.0050976450000000005,-0.57406963068839323,2.786750554816332
-0.0050963850000000002,-0.56774613439362331,2.786750554816332
-0.0050951250000000007,-0.56009137572101053,2.786750554816332
-0.0050938650000000004,-0.55443351061516033,2.786750554816332
-0.005092605,-0.5477771987259259,2.786750554816332
-0.0050913450000000006,-0.54112088683669746,2.786750554816332
-0.0050900850000000003,-0.5354630217308507,2.786750554816332
-0.0050888250000000008,-0.52814107865269944,2.786750554816332
-0.0050875650000000005,-0.52148476676346467,2.786750554816332
-0.0050863050000000002,-0.51516127046869475,2.786750554816332
-0.0050850450000000007,-0.5081721429850049,2.786750554816332
-0.0050837850000000004,-0.50118301550130862,2.786750554816332
-0.0050825250000000001,-0.49485951920653587,2.786750554816332
-0.0050812650000000006,-0.4885360229117689,2.786750554816332
-0.0050800050000000003,-0.48121407983361425,2.786750554816332
-0.0050787450000000008,-0.47322650556654011,2.786750554816332
-0.0050774850000000005,-0.46723582486622817,2.786750554816332
-0.0050762250000000002,-0.459581066193612,2.786750554816332
-0.0050749650000000007,-0.45259193870992215,2.786750554816332
-0.0050737050000000004,-0.44560281122622591,2.786750554816332
-0.0050724450000000001,-0.4386136837425294,2.786750554816332
-0.0050711850000000006,-0.43095892506991673,2.786750554816332
-0.0050699250000000003,-0.42496824436960839,2.786750554816332
-0.005068665,-0.41731348569698862,2.786750554816332
-0.0050674050000000005,-0.40932591142991448,2.786750554816332
-0.0050661450000000002,-0.40333523072960614,2.786750554816332
-0.0050648850000000007,-0.39601328765145488,2.786750554816332
-0.0050636250000000004,-0.38835852897883533,2.786750554816332
-0.0050623650000000001,-0.38170221708960039,2.786750554816332
-0.0050611050000000006,-0.37404745841698767,2.786750554816332
-0.0050598450000000003,-0.3663926997443715,2.786750554816332
-0.005058585,-0.35907075666621358,2.786750554816332
-0.0050573250000000005,-0.35174881358806231,2.786750554816332
-0.0050560650000000002,-0.34376123932098451,2.786750554816332
-0.0050548050000000008,-0.33643929624283325,2.786750554816332
-0.0050535450000000004,-0.33011579994806001,2.786750554816332
-0.0050522850000000001,-0.32212822568098226,2.786750554816332
-0.0050510250000000007,-0.31414065141390451,2.786750554816332
-0.0050497650000000003,-0.3071515239302115,2.786750554816332
-0.005048505,-0.29949676525759195,2.786750554816332
-0.0050472450000000006,-0.29217482217944069,2.786750554816332
-0.0050459850000000002,-0.28485287910128609,2.786750554816332
-0.0050447250000000008,-0.2768653048342119,2.786750554816332
-0.0050434650000000004,-0.26887773056713055,2.786750554816332
-0.0050422050000000001,-0.26188860308343753,2.786750554816332
-0.0050409450000000007,-0.25390102881635979,2.786750554816332
-0.0050396850000000003,-0.24524782336035889,2.786750554816332
-0.005038425,-0.23925714266004677,2.786750554816332
-0.0050371650000000006,-0.23093675279851122,2.786750554816332
-0.0050359050000000002,-0.22294917853143348,2.786750554816332
-0.0050346450000000008,-0.21596005104774357,2.786750554816332
-0.0050333850000000005,-0.20863810796958582,2.786750554816332
-0.0050321250000000001,-0.19998490251358492,2.786750554816332
-0.0050308650000000007,-0.19166451265204937,2.786750554816332
-0.0050296050000000004,-0.18467538516835258,2.786750554816332
-0.005028345,-0.17668781090127131,2.786750554816332
-0.0050270850000000006,-0.16903305222865861,2.786750554816332
-0.0050258250000000003,-0.16171110915050402,2.786750554816332
-0.0050245650000000008,-0.15272508810004562,2.786750554816332
-0.0050233050000000005,-0.14540314502188689,2.786750554816332
-0.0050220450000000002,-0.13874683313265546,2.786750554816332
-0.0050207850000000007,-0.1300936276766585,2.786750554816332
-0.0050195250000000004,-0.12177323781511522,2.786750554816332
-0.0050182650000000001,-0.11511692592587996,2.786750554816332
-0.0050170050000000006,-0.10679653606434442,2.786750554816332
-0.0050157450000000003,-0.098476146202805093,2.786750554816332
-0.0050144850000000008,-0.091154203124653818,2.786750554816332
-0.0050132250000000005,-0.083499444452034305,2.786750554816332
-0.0050119650000000002,-0.075179054590494968,2.786750554816332
-0.0050107050000000007,-0.067524295917882268,2.786750554816332
-0.0050094450000000004,-0.059203906056339455,2.786750554816332
-0.0050081850000000001,-0.051216331789258364,2.786750554816332
-0.0050069250000000006,-0.043894388711107089,2.786750554816332
-0.0050056650000000003,-0.035906814444029329,2.786750554816332
-0.005004405,-0.027586424582486366,2.786750554816332
-0.0050031450000000005,-0.019598850315412242,2.786750554816332
-0.0050018850000000002,-0.012276907237257632,2.786750554816332
-0.0050006250000000007,-0.0036237017812606621,2.786750554816332
-0.0049993650000000004,0.0043638724858210279,2.786750554816332
-0.0049981050000000001,0.012684262347364143,2.786750554816332
-0.0049968450000000006,0.021004652208899688,2.786750554816332
-0.0049955850000000003,0.028659410881515874,2.786750554816332
-0.004994325,0.034982907176289393,2.786750554816332
-0.0049930650000000005,0.042970481443363517,2.786750554816332
-0.0049918050000000002,0.051956502493825996,2.786750554816332
-0.0049905450000000007,0.058945629977515859,2.786750554816332
-0.0049892850000000004,0.067266019839058361,2.786750554816332
-0.0049880250000000001,0.075586409700600876,2.786750554816332
-0.0049867650000000006,0.082575537184290726,2.786750554816332
-0.0049855050000000003,0.090563111451368486,2.786750554816332
-0.004984245,0.099216316907372717,2.786750554816332
-0.0049829850000000005,0.10653825998552401,2.786750554816332
-0.0049817250000000002,0.11419301865814019,2.786750554816332
-0.0049804650000000008,0.12251340851967572,2.786750554816332
-0.0049792050000000004,0.13083379838121884,2.786750554816332
-0.0049779450000000001,0.13715729467598875,2.786750554816332
-0.0049766850000000007,0.14647613132091281,2.786750554816332
-0.0049754250000000003,0.15413088999352897,2.786750554816332
-0.004974165,0.16211846426061036,2.786750554816332
-0.0049729050000000006,0.17010603852768447,2.786750554816332
-0.0049716450000000002,0.17809361279476227,2.786750554816332
-0.0049703850000000008,0.18541555587291353,2.786750554816332
-0.0049691250000000005,0.19373594573445618,2.786750554816332
-0.0049678650000000001,0.20172352000153393,2.786750554816332
-0.0049666050000000007,0.20771420070184227,2.786750554816332
-0.0049653450000000003,0.21636740615784317,2.786750554816332
-0.004964085,0.22335653364153951,2.786750554816332
-0.0049628250000000006,0.23067847671969083,2.786750554816332
-0.0049615650000000002,0.23966449777015331,2.786750554816332
-0.0049603050000000008,0.24698644084830457,2.786750554816332
-0.0049590450000000005,0.25430838392646254,2.786750554816332
-0.0049577850000000001,0.26163032700461714,2.786750554816332
-0.0049565250000000007,0.27061634805507551,2.786750554816332
-0.0049552650000000004,0.27793829113323421,2.786750554816332
-0.004954005,0.28492741861693122,2.786750554816332
-0.0049527450000000006,0.29358062407292818,2.786750554816332
-0.0049514850000000003,0.30090256715108277,2.786750554816332
-0.0049502250000000008,0.30822451022923403,2.786750554816332
-0.0049489650000000005,0.31621208449631516,2.786750554816332
-0.0049477050000000002,0.32320121198000817,2.786750554816332
-0.0049464450000000007,0.33052315505815943,2.786750554816332
-0.0049451850000000004,0.33851072932524057,2.786750554816332
-0.0049439250000000001,0.34616548799786007,2.786750554816332
-0.0049426650000000006,0.35348743107601133,2.786750554816332
-0.0049414050000000003,0.3611421897486275,2.786750554816332
-0.0049401450000000008,0.36879694842124022,2.786750554816332
-0.0049388850000000005,0.37512044471601358,2.786750554816332
-0.0049376250000000002,0.3827752033886298,2.786750554816332
-0.0049363650000000007,0.39109559325016535,2.786750554816332
-0.0049351050000000004,0.39708627395047741,2.786750554816332
-0.0049338450000000001,0.40507384821755876,2.786750554816332
-0.0049325850000000006,0.41306142248463296,2.786750554816332
-0.0049313250000000003,0.41905210318494124,2.786750554816332
-0.004930065,0.42637404626309922,2.786750554816332
-0.0049288050000000005,0.43369598934125048,2.786750554816332
-0.0049275450000000002,0.44101793241940507,2.786750554816332
-0.0049262850000000007,0.44800705990309497,2.786750554816332
-0.0049250250000000004,0.45499618738679115,2.786750554816332
-0.0049237650000000001,0.46231813046494885,2.786750554816332
-0.0049225050000000006,0.46897444235417723,2.786750554816332
-0.0049212450000000003,0.47629638543233183,2.786750554816332
-0.004919985,0.48328551291602778,2.786750554816332
-0.0049187250000000005,0.48960900921079475,2.786750554816332
-0.0049174650000000002,0.49726376788341098,2.786750554816332
-0.0049162050000000007,0.50392007977263942,2.786750554816332
-0.0049149450000000004,0.5099107604729507,2.786750554816332
-0.0049136850000000001,0.51789833474002844,2.786750554816332
-0.0049124250000000006,0.52388901544033684,2.786750554816332
-0.0049111650000000003,0.53054532732956827,2.786750554816332
-0.004909905,0.53786727040772619,2.786750554816332
-0.0049086450000000005,0.54518921348587746,2.786750554816332
-0.0049073850000000002,0.55051426299726269,2.786750554816332
-0.0049061250000000008,0.55783620607541395,2.786750554816332
-0.0049048650000000004,0.56515814915357188,2.786750554816332
-0.0049036050000000001,0.57081601425941864,2.786750554816332
-0.0049023450000000007,0.5764738793652654,2.786750554816332
-0.0049010850000000003,0.58446145363234314,2.786750554816332
-0.004899825,0.59111776552157713,2.786750554816332
-0.0048985650000000006,0.59677563062742134,2.786750554816332
-0.0048973050000000002,0.60343194251665278,2.786750554816332
-0.0048960450000000008,0.61008825440588133,2.786750554816332
-0.0048947850000000005,0.61574611951173097,2.786750554816332
-0.0048935250000000001,0.62173680021203936,2.786750554816332
-0.0048922650000000007,0.62806029650680639,2.786750554816332
-0.0048910050000000004,0.63371816161265593,2.786750554816332
-0.004889745,0.64137292028527471,2.786750554816332
-0.0048884850000000006,0.64703078539111891,2.786750554816332
-0.0048872250000000002,0.65169020371358088,2.786750554816332
-0.0048859650000000008,0.65834651560280943,2.786750554816332
-0.0048847050000000005,0.66533564308650539,2.786750554816332
-0.0048834450000000001,0.67099350819235215,2.786750554816332
-0.0048821850000000007,0.67631855770373495,2.786750554816332
-0.0048809250000000004,0.68230923840404567,2.786750554816332
-0.004879665,0.68863273469881781,2.786750554816332
-0.0048784050000000006,0.69362496861573919,2.786750554816332
-0.0048771450000000003,0.69994846491050899,2.786750554816332
-0.0048758850000000008,0.70527351442189179,2.786750554816332
-0.0048746250000000005,0.71192982631112567,2.786750554816332
-0.0048733650000000002,0.71758769141697243,2.786750554816332
-0.0048721050000000007,0.72257992533389381,2.786750554816332
-0.0048708450000000004,0.72757215925081964,2.786750554816332
-0.0048695850000000001,0.7335628399511307,2.786750554816332
-0.0048683250000000006,0.7395535206514362,2.786750554816332
-0.0048670650000000003,0.74388012337943665,2.786750554816332
-0.004865805,0.74987080407974727,2.786750554816332
-0.0048645450000000005,0.75486303799666865,2.786750554816332
-0.0048632850000000002,0.7591896407246691,2.786750554816332
-0.0048620250000000007,0.76551313701943613,2.786750554816332
-0.0048607650000000004,0.77083818653082414,2.786750554816332
-0.0048595050000000001,0.77549760485328856,2.786750554816332
-0.0048582450000000006,0.78082265436467135,2.786750554816332
-0.0048569850000000003,0.78581488828159496,2.786750554816332
-0.004855725,0.78980867541513633,2.786750554816332
-0.0048544650000000005,0.79546654052098054,2.786750554816332
-0.0048532050000000002,0.80012595884344262,2.786750554816332
-0.0048519450000000007,0.805118192760364,2.786750554816332
-0.0048506850000000004,0.81011042667728972,2.786750554816332
-0.0048494250000000001,0.81543547618867707,2.786750554816332
-0.0048481650000000006,0.82009489451113693,2.786750554816332
-0.0048469050000000003,0.82408868164467586,2.786750554816332
-0.004845645,0.82841528437267831,2.786750554816332
-0.0048443850000000005,0.83274188710067676,2.786750554816332
-0.0048431250000000002,0.83706848982867721,2.786750554816332
-0.0048418650000000008,0.84172790815113707,2.786750554816332
-0.0048406050000000004,0.84638732647360126,2.786750554816332
-0.0048393450000000001,0.84971548241821704,2.786750554816332
-0.0048380850000000006,0.85437490074067901,2.786750554816332
-0.0048368250000000003,0.85969995025206414,2.786750554816332
-0.004835565,0.86269529060222039,2.786750554816332
-0.0048343050000000005,0.86702189333021884,2.786750554816332
-0.0048330450000000002,0.87201412724714233,2.786750554816332
-0.0048317850000000008,0.87534228319175655,2.786750554816332
-0.0048305250000000004,0.87933607032529704,2.786750554816332
-0.0048292650000000001,0.88366267305329749,2.786750554816332
-0.0048280050000000007,0.88599238221452847,2.786750554816332
-0.0048267450000000003,0.88998616934806729,2.786750554816332
-0.004825485,0.89497840326499245,2.786750554816332
-0.0048242250000000006,0.89830655920960667,2.786750554816332
-0.0048229650000000002,0.90196753074868397,2.786750554816332
-0.0048217050000000008,0.90496287109883677,2.786750554816332
-0.0048204450000000005,0.90895665823237703,2.786750554816332
-0.0048191850000000001,0.9122848141769927,2.786750554816332
-0.0048179250000000007,0.91528015452714562,2.786750554816332
-0.0048166650000000004,0.91894112606622425,2.786750554816332
-0.004815405,0.92093801963299526,2.786750554816332
-0.0048141450000000006,0.92459899117207101,2.786750554816332
-0.0048128850000000003,0.9282599627111483,2.786750554816332
-0.0048116250000000008,0.93092248746683959,2.786750554816332
-0.0048103650000000005,0.93358501222253343,2.786750554816332
-0.0048091050000000002,0.93658035257268757,2.786750554816332
-0.0048078450000000007,0.93924287732837897,2.786750554816332
-0.0048065850000000004,0.94290384886745748,2.786750554816332
-0.004805325,0.94523355802868958,2.786750554816332
-0.0048040650000000006,0.94756326718991946,2.786750554816332
-0.0048028050000000003,0.95055860754007371,2.786750554816332
-0.0048015450000000008,0.95322113229576499,2.786750554816332
-0.0048002850000000005,0.95555084145699731,2.786750554816332
-0.0047990250000000002,0.95754773502376667,2.786750554816332
-0.0047977650000000007,0.9612087065628423,2.786750554816332
-0.0047965050000000004,0.96320560012961343,2.786750554816332
-0.0047952450000000001,0.96553530929084574,2.786750554816332
-0.0047939850000000006,0.96853064964099866,2.786750554816332
-0.0047927250000000003,0.9701947276133065,2.786750554816332
-0.004791465,0.97185880558561544,2.786750554816332
-0.0047902050000000005,0.97418851474684531,2.786750554816332
-0.0047889450000000002,0.97651822390807641,2.786750554816332
-0.0047876850000000007,0.97818230188038346,2.786750554816332
-0.0047864250000000004,0.97984637985269207,2.786750554816332
-0.0047851650000000001,0.98184327341946243,2.786750554816332
-0.0047839050000000006,0.983840166986231,2.786750554816332
-0.0047826450000000003,0.98517142936407731,2.786750554816332
-0.004781385,0.98750113852530885,2.786750554816332
-0.0047801250000000005,0.98883240090315461,2.786750554816332
-0.0047788650000000002,0.99016366328100092,2.786750554816332
-0.0047776050000000007,0.99182774125330797,2.786750554816332
-0.0047763450000000004,0.99315900363115506,2.786750554816332
-0.0047750850000000001,0.99415745041454018,2.786750554816332
-0.0047738250000000006,0.99515589719792452,2.786750554816332
-0.0047725650000000003,0.99815123754807866,2.786750554816332
-0.004771305,0.99815123754807911,2.786750554816332
-0.0047700450000000005,0.99914968433146334,2.786750554816332
-0.0047687850000000002,1.0008137623037712,2.786750554816332
-0.0047675250000000008,1.0011465778982325,2.786750554816332
-0.0047662650000000004,1.0021450246816175,2.786750554816332
-0.0047650050000000001,1.0031434714650023,2.786750554816332
-0.0047637450000000007,1.0031434714650023,2.786750554816332
-0.0047624850000000003,1.0041419182483871,2.786750554816332
-0.004761225,1.0051403650317714,2.786750554816332
-0.0047599650000000005,1.0048075494373101,2.786750554816332
-0.0047587050000000002,1.0061388118151564,2.786750554816332
-0.0047574450000000008,1.0071372585985408,2.786750554816332
-0.0047561850000000004,1.0074700741930027,2.786750554816332
-0.0047549250000000001,1.0074700741930027,2.786750554816332
-0.0047536650000000007,1.0074700741930027,2.786750554816332
-0.0047524050000000003,1.0084685209763875,2.786750554816332
