PSET6 OpAmps/data/time_difference_cutoff.csv

#Digilent WaveForms Oscilloscope Acquisition
#Device Name: Discovery2
#Serial Number: SN:210321A18976
#Date Time: 2018-10-16 14:30:19.166
#Sample rate: 793651Hz
#Samples: 8192
#Trigger: Source: Channel 1 Type: Edge Condition: Rising Level: 0 V Hyst.: Auto HoldOff: 0 s
#Channel 1: Range: 500 mV/div Offset: 0 V
#Channel 2: Range: 500 mV/div Offset: -50 mV

Time (s),Channel 1 (V),Channel 2 (V)
-0.005260626,-0.95347940837458667,-0.0008327557517568418
-0.0052593660000000006,-0.95347940837458667,-0.00049859328345585392
-0.0052581060000000002,-0.95281377718566351,-0.00016443081515456204
-0.0052568459999999999,-0.95281377718566362,-0.00049859328345554991
-0.0052555860000000005,-0.95314659278012503,-0.00016443081515456204
-0.0052543260000000001,-0.95281377718566351,-0.00049859328345570192
-0.0052530660000000007,-0.95281377718566351,-0.00049859328345570192
-0.0052518060000000004,-0.95314659278012503,-0.00049859328345570192
-0.005250546,-0.95347940837458667,-0.00049859328345570192
-0.0052492860000000006,-0.95281377718566385,-0.00083275575175668979
-0.0052480260000000003,-0.95281377718566351,-0.00049859328345570192
-0.0052467659999999999,-0.9528137771856634,-0.00016443081515456204
-0.0052455060000000005,-0.95248096159120188,-0.00016443081515456204
-0.0052442460000000002,-0.95214814599674036,-0.00049859328345570192
-0.0052429859999999998,-0.95214814599674047,-0.00049859328345554991
-0.0052417260000000004,-0.95248096159120188,-0.00016443081515456204
-0.005240466,-0.95248096159120188,-0.00016443081515456204
-0.0052392060000000006,-0.95248096159120188,-0.0008327557517565379
-0.0052379460000000003,-0.95248096159120188,-0.0008327557517568418
-0.0052366859999999999,-0.95281377718566351,-0.0008327557517568418
-0.0052354260000000005,-0.95281377718566351,-0.0008327557517568418
-0.0052341660000000002,-0.95214814599674036,-0.00016443081515456204
-0.0052329059999999998,-0.95248096159120188,-0.00016443081515471399
-0.0052316460000000004,-0.95248096159120188,-0.00049859328345570192
-0.0052303860000000001,-0.95214814599674036,-0.00049859328345570192
-0.0052291260000000006,-0.95214814599674036,-0.00049859328345570192
-0.0052278660000000003,-0.95181533040227873,-0.00049859328345570192
-0.005226606,-0.95214814599674025,-0.00049859328345570192
-0.0052253460000000005,-0.95181533040227873,-0.00049859328345570192
-0.0052240860000000002,-0.9514825148078172,-0.00049859328345570192
-0.0052228259999999999,-0.94981843683550904,-0.00049859328345585392
-0.0052215660000000004,-0.94915280564658622,-0.0008327557517568418
-0.0052203060000000001,-0.94815435886320143,-0.00016443081515456204
-0.0052190460000000006,-0.9471559120798172,-0.00016443081515456204
-0.0052177860000000003,-0.94582464970197044,-0.00049859328345570192
-0.005216526,-0.94416057172966261,-0.0008327557517568418
-0.0052152660000000005,-0.9428293093518163,-0.0008327557517568418
-0.0052140060000000002,-0.94049960019058532,-0.0008327557517568418
-0.0052127459999999999,-0.9401667845961228,-0.00049859328345570192
-0.0052114860000000004,-0.93816989102935433,-0.00049859328345570192
-0.0052102260000000001,-0.93717144424596954,-0.0008327557517568418
-0.0052089660000000006,-0.93584018186812379,-0.00049859328345585392
-0.0052077060000000003,-0.93351047270689225,-0.00016443081515456204
-0.005206446,-0.93217921032904594,-0.00049859328345570192
-0.0052051860000000005,-0.93084794795119963,-0.0008327557517568418
-0.0052039260000000002,-0.9291838699788918,-0.0008327557517568418
-0.0052026659999999999,-0.9278526076010446,-0.00083275575175638589
-0.0052014060000000004,-0.92585571403427602,0.0001697316531465709
-0.0052001460000000001,-0.92385882046750667,-0.00016443081515456204
-0.0051988860000000007,-0.92152911130627668,-0.00049859328345554991
-0.0051976260000000003,-0.91886658655058306,-0.00049859328345570192
-0.005196366,-0.91753532417273675,-0.00016443081515456204
-0.0051951060000000005,-0.91487279941704536,0.00016973165314641895
-0.0051938460000000002,-0.91254309025581315,-0.00016443081515456204
-0.0051925859999999999,-0.9105461966890428,-0.00049859328345585392
-0.0051913260000000004,-0.90854930312227422,-0.0008327557517568418
-0.0051900660000000001,-0.90588677836658171,-0.00016443081515456204
-0.0051888060000000007,-0.90289143801642879,-0.00049859328345554991
-0.0051875460000000003,-0.90056172885519647,-0.00016443081515456204
-0.005186286,-0.89856483528842701,-0.00049859328345570192
-0.0051850260000000006,-0.89590231053273572,-0.00049859328345570192
-0.0051837660000000002,-0.89323978577704188,-0.00049859328345570192
-0.0051825059999999999,-0.889911629832425,0.0001697316531465709
-0.0051812460000000005,-0.88758192067119512,0.0001697316531465709
-0.0051799860000000001,-0.88525221150996414,-0.00016443081515456204
-0.0051787260000000007,-0.88192405556534992,-0.00049859328345554991
-0.0051774660000000004,-0.87892871521519422,-0.00016443081515456204
-0.005176206,-0.87693182164842476,-0.00016443081515456204
-0.0051749460000000006,-0.87393648129827195,-0.00049859328345554991
-0.0051736860000000003,-0.8699426941647318,-0.00016443081515456204
-0.0051724259999999999,-0.86761298500349904,0.00016973165314641895
-0.0051711660000000005,-0.86395201346442341,-0.00016443081515456204
-0.0051699060000000002,-0.86095667311426927,-0.00016443081515456204
-0.0051686459999999998,-0.85796133276411335,-0.00016443081515471399
-0.0051673860000000004,-0.85396754563057631,-0.00049859328345570192
-0.0051661260000000001,-0.84964094290257586,-0.00049859328345570192
-0.0051648660000000006,-0.84564715576903871,-0.00049859328345570192
-0.0051636060000000003,-0.84265181541888279,-0.00049859328345570192
-0.0051623459999999999,-0.83932365947426535,-0.00016443081515456204
-0.0051610860000000005,-0.83566268793518972,-0.00016443081515456204
-0.0051598260000000002,-0.8316689008016509,0.0001697316531465709
-0.0051585659999999998,-0.82700948247918715,0.0001697316531465709
-0.0051573060000000004,-0.82334851094011152,0.0001697316531465709
-0.0051560460000000001,-0.81902190821211107,0.0001697316531465709
-0.0051547860000000006,-0.81536093667303544,0.0001697316531465709
-0.0051535260000000003,-0.81136714953949485,-0.00049859328345570192
-0.005152266,-0.80637491562257124,-0.00016443081515456204
-0.0051510060000000005,-0.80271394408349395,-0.00016443081515456204
-0.0051497460000000002,-0.79872015694995513,-0.00049859328345570192
-0.0051484859999999999,-0.79472636981641398,-0.00049859328345554991
-0.0051472260000000004,-0.7897341358994926,-0.00016443081515456204
-0.0051459660000000001,-0.78507471757703062,-0.00016443081515456204
-0.0051447060000000006,-0.78074811484903217,-0.00016443081515456204
-0.0051434460000000003,-0.77608869652656809,0.0001697316531465709
-0.005142186,-0.77176209379856764,-0.00049859328345570192
-0.0051409260000000005,-0.76743549107056719,-0.00049859328345570192
-0.0051396660000000002,-0.76144481037025891,-0.0008327557517568418
-0.0051384059999999999,-0.75711820764225668,-0.00016443081515471399
-0.0051371460000000004,-0.75312442050871953,-0.00049859328345570192
-0.0051358860000000001,-0.74713373980841125,-0.00049859328345570192
-0.0051346260000000006,-0.74180869029702856,-0.00016443081515471399
-0.0051333660000000003,-0.73848053435241034,-0.00049859328345570192
-0.005132106,-0.73248985365210206,-0.00016443081515456204
-0.0051308460000000005,-0.72716480414071927,-0.00016443081515456204
-0.0051295860000000002,-0.72283820141271637,-0.00049859328345570192
-0.0051283259999999999,-0.71718033630686717,-0.00016443081515471399
-0.0051270660000000004,-0.71185528679548449,-0.00049859328345570192
-0.0051258060000000001,-0.70653023728409936,-0.00049859328345570192
-0.0051245460000000007,-0.70120518777271656,-0.00049859328345570192
-0.0051232860000000003,-0.69488169147794421,-0.00049859328345570192
-0.005122026,-0.68988945756102071,-0.00049859328345570192
-0.0051207660000000006,-0.68489722364409933,-0.00016443081515471399
-0.0051195060000000002,-0.67824091175486556,-0.00016443081515456204
-0.0051182459999999999,-0.67191741546009331,-0.00016443081515471399
-0.0051169860000000005,-0.66659236594871052,-0.00049859328345570192
-0.0051157260000000001,-0.66160013203178691,-0.00049859328345570192
-0.0051144660000000007,-0.65660789811486553,-0.00083275575175668979
-0.0051132060000000003,-0.64961877063117035,-0.00016443081515456204
-0.005111946,-0.64362808993086196,-0.00016443081515456204
-0.0051106860000000006,-0.63763740923055645,-0.00049859328345554991
-0.0051094260000000002,-0.63264517531363007,-0.00016443081515456204
-0.0051081659999999999,-0.62598886342439564,-0.00016443081515456204
-0.0051069060000000005,-0.6193325515351672,-0.00016443081515456204
-0.0051056460000000001,-0.61434031761824359,-0.00016443081515456204
-0.0051043859999999998,-0.60768400572900882,-0.00049859328345539802
-0.0051031260000000004,-0.60069487824531909,0.0001697316531465709
-0.005101866,-0.59570264432839548,-0.00016443081515456204
-0.0051006060000000006,-0.58838070125024422,-0.00016443081515456204
-0.0050993460000000003,-0.58139157376654782,-0.00016443081515456204
-0.0050980859999999999,-0.57573370866069817,-0.00016443081515456204
-0.0050968260000000005,-0.56941021236593115,-0.00016443081515456204
-0.0050955660000000002,-0.56275390047669971,-0.00016443081515456204
-0.0050943059999999998,-0.55709603537084995,-0.00049859328345570192
-0.0050930460000000004,-0.55043972348162151,-0.00049859328345570192
-0.0050917860000000001,-0.54311778040346692,0.0001697316531465709
-0.0050905260000000006,-0.53646146851423837,-0.00016443081515441009
-0.0050892660000000003,-0.53013797221946557,-0.00049859328345570192
-0.005088006,-0.52348166033023102,-0.00049859328345570192
-0.0050867460000000005,-0.51682534844100259,-0.00049859328345570192
-0.0050854860000000002,-0.51050185214623267,-0.00049859328345570192
-0.0050842259999999998,-0.50317990906807475,-0.0008327557517565379
-0.0050829660000000004,-0.49585796598992349,-0.00016443081515456204
-0.0050817060000000001,-0.49119854766746146,0.0001697316531465709
-0.0050804460000000006,-0.48321097340038732,0.0001697316531465709
-0.0050791860000000003,-0.47555621472776755,-0.00016443081515456204
-0.005077926,-0.46956553402745921,0.0001697316531465709
-0.0050766660000000005,-0.46191077535484304,-0.00016443081515456204
-0.0050754060000000002,-0.45558727906007312,0.0001697316531465709
-0.0050741459999999999,-0.44959659835976118,-0.00049859328345570192
-0.0050728860000000004,-0.44160902409268704,-0.00049859328345570192
-0.0050716260000000001,-0.43428708101453245,0.0001697316531465709
-0.0050703660000000006,-0.42729795353084254,-0.00016443081515441009
-0.0050691060000000003,-0.42030882604714637,-0.00016443081515456204
-0.005067846,-0.41232125178006862,0.0001697316531465709
-0.0050665860000000005,-0.40533212429637555,-0.00049859328345570192
-0.0050653260000000002,-0.39900862800160569,-0.00049859328345570192
-0.0050640659999999999,-0.39135386932898603,-0.00016443081515456204
-0.0050628060000000004,-0.3836991106563733,-0.00016443081515456204
-0.0050615460000000001,-0.37737561436160344,-0.00049859328345570192
-0.0050602860000000006,-0.3693880400945293,-0.00016443081515471399
-0.0050590260000000003,-0.36140046582744789,0.0001697316531465709
-0.005057766,-0.35507696953267803,-0.00016443081515456204
-0.0050565060000000005,-0.34775502645452672,0.00016973165314641895
-0.0050552460000000002,-0.33976745218744564,0.0001697316531465709
-0.0050539859999999999,-0.33277832470374913,-0.00016443081515471399
-0.0050527260000000004,-0.32512356603113646,-0.00049859328345570192
-0.0050514660000000001,-0.31780162295298181,-0.00016443081515456204
-0.0050502060000000007,-0.31081249546929196,-0.00016443081515456204
-0.0050489460000000003,-0.3021592900132879,0.0001697316531465709
-0.005047686,-0.29450453134067167,0.0001697316531465709
-0.0050464260000000006,-0.28751540385698182,-0.00016443081515441009
-0.0050451660000000002,-0.28019346077882407,-0.00016443081515456204
-0.0050439059999999999,-0.27187307091728141,0.00016973165314626698
-0.0050426460000000005,-0.2645511278391301,-0.00049859328345570192
-0.0050413860000000001,-0.25689636916651393,-0.00016443081515456204
-0.0050401260000000007,-0.24857597930497838,-0.00016443081515456204
-0.0050388660000000004,-0.24191966741574317,0.0001697316531465709
-0.005037606,-0.2349305399320501,-0.00016443081515456204
-0.0050363460000000006,-0.2259445188815917,-0.00016443081515456204
-0.0050350860000000002,-0.21828976020897145,-0.00016443081515456204
-0.0050338259999999999,-0.21196626391419746,-0.00016443081515425811
-0.0050325660000000005,-0.20298024286373906,0.00050389412144771079
-0.0050313060000000001,-0.19532548419112289,0.00050389412144771079
-0.0050300459999999998,-0.18866917230188751,0.0001697316531465709
-0.0050287860000000004,-0.18001596684589055,0.0001697316531465709
-0.005027526,-0.17169557698435117,0.00050389412144771079
-0.0050262660000000006,-0.16503926509512276,0.00050389412144771079
-0.0050250060000000003,-0.15738450642250357,0.0011722190580499836
-0.0050237459999999999,-0.14806566977757632,0.00083805658974885067
-0.0050224860000000005,-0.14107654229388644,0.00083805658974885067
-0.0050212260000000002,-0.1330889680268087,0.00083805658974885067
-0.0050199659999999998,-0.12476857816526635,0.00083805658974869866
-0.0050187060000000004,-0.11811226627603791,0.00050389412144771079
-0.0050174460000000001,-0.11012469200896015,0.0011722190580499836
-0.0050161860000000006,-0.10047303976957891,0.0011722190580499836
-0.0050149260000000003,-0.092818281096958347,0.0018405439946522634
-0.005013666,-0.086161969207726882,0.0018405439946522634
-0.0050124060000000005,-0.0785072105351107,0.0018405439946522634
-0.0050111460000000002,-0.07051963626803294,0.0018405439946522634
-0.0050098859999999999,-0.062864877595412677,0.0021747064629535481
-0.0050086260000000004,-0.053878856544954286,0.0025088689312545362
-0.0050073660000000001,-0.045891282277876526,0.0028430313995556691
-0.0050061060000000006,-0.038902154794186669,0.0035113563361576449
-0.0050048460000000003,-0.030914580527105731,0.0035113563361579489
-0.005003586,-0.022594190665566401,0.0041796812727602217
-0.0050023260000000005,-0.01627069437079651,0.0045138437410613616
-0.0050010660000000002,-0.0072846733203340338,0.0048480062093624945
-0.0049998059999999999,0.001368532135670199,0.0055163311459650779
-0.0049985460000000004,0.0086904752138214792,0.0061846560825670471
-0.0049972860000000001,0.017010865075360811,0.006518818550868187
-0.0049960260000000006,0.025331254936896357,0.0078554684240721255
-0.0049947660000000003,0.03265319801505475,0.0088579558289761454
-0.004993506,0.040307956687670933,0.010194605702180698
-0.0049922460000000005,0.048628346549206482,0.011531255575384643
-0.0049909860000000002,0.056615920816288023,0.015207042726697761
-0.0049897259999999999,0.064603495083369572,0.021221967156125225
-0.0049884660000000004,0.072923884944905107,0.036593440697970561
-0.0049872060000000001,0.079913012428598149,0.076692936894107056
-0.0049859460000000006,0.088233402290133683,0.086717810943136631
-0.0049846860000000003,0.096553792151676809,0.09674268499217531
-0.004983426,0.10387573522983141,0.10342593435819805
-0.0049821660000000005,0.1111976783079827,0.11111167112912072
-0.0049809060000000002,0.11918525257506378,0.1197998953049538
-0.0049796459999999999,0.12783845803106789,0.12748563207588329
-0.0049783860000000004,0.13482758551475771,0.13483720637850499
-0.0049771260000000001,0.14381360656522019,0.14352543055433456
-0.0049758660000000007,0.15146836523783294,0.15154532979355823
-0.0049746060000000003,0.15812467712706785,0.15856274162788575
-0.004973346,0.16677788258306875,0.1669168033354142
-0.0049720860000000006,0.17543108803906571,0.17527086504293882
-0.0049708260000000002,0.18208739992830114,0.18262243934556766
-0.0049695659999999999,0.18974215860092125,0.18963985117989565
-0.0049683060000000005,0.19839536405691821,0.19866223782402226
-0.0049670460000000001,0.20538449154061122,0.20567964965834612
-0.0049657859999999998,0.21337206580769297,0.21369954889757753
-0.0049645260000000004,0.22202527126368993,0.22272193554170414
-0.004963266,0.2296800299363061,0.23040767231263032
-0.0049620060000000006,0.23700197301445736,0.23675675921034903
-0.0049607460000000003,0.24565517847046159,0.24544498338618148
-0.0049594859999999999,0.25264430595415782,0.25246239522050873
-0.0049582260000000005,0.25963343343784767,0.25981396952313041
-0.0049569660000000001,0.2672881921104639,0.26783386876235771
-0.0049557059999999998,0.27461013518862226,0.27618793046988932
-0.0049544460000000004,0.28293052505015781,0.28320534230421002
-0.004953186,0.29058528372277398,0.29089107907513623
-0.0049519260000000006,0.29824004239538671,0.2982426533777579
-0.0049506660000000003,0.30522916987908322,0.30559422768038624
-0.0049494059999999999,0.31221829736278034,0.31294580198301503
-0.0049481460000000005,0.32120431841323871,0.32129986369053976
-0.0049468860000000002,0.3278606303024702,0.32865143799316476
-0.0049456259999999998,0.33518257338062873,0.33533468735919142
-0.0049443660000000004,0.34383577883662569,0.34402291153501707
-0.0049431060000000001,0.35049209072585719,0.35104032336934099
-0.0049418460000000006,0.35814684939846986,0.35872606014026359
-0.0049405860000000003,0.36646723926001268,0.36674595937949439
-0.004939326,0.37312355114924417,0.3734292087455171
-0.0049380660000000005,0.38044549422739876,0.38011245811153993
-0.0049368060000000002,0.38810025290001493,0.38779819488246603
-0.0049355459999999999,0.3954221959781723,0.39648641905829807
-0.0049342860000000004,0.40141287667847786,0.40183301855111386
-0.0049330260000000001,0.41006608213447876,0.41085540519524455
-0.0049317660000000006,0.41772084080709149,0.41854114196616726
-0.0049305060000000003,0.42371152150740327,0.42455606639559118
-0.004929246,0.43070064899109634,0.43190764069821619
-0.0049279860000000005,0.43868822325817408,0.43992753993744349
-0.0049267260000000002,0.44501171955294394,0.44627662683516511
-0.0049254659999999999,0.45266647822556322,0.45329403866949208
-0.0049242060000000004,0.4593227901147916,0.45997728803551174
-0.0049229460000000001,0.46564628640956152,0.46666053740153457
-0.0049216860000000006,0.47296822948771278,0.47367794923585521
-0.0049204260000000003,0.48062298816033228,0.48169784847508568
-0.004919166,0.48694648445510219,0.4880469353728073
-0.0049179060000000005,0.49426842753325345,0.49506434720712805
-0.0049166460000000002,0.50192318620587295,0.50241592150975622
-0.0049153859999999999,0.50824668250064575,0.50876500840748085
-0.0049141260000000004,0.51457017879541278,0.51544825777350056
-0.0049128660000000001,0.52255775306249053,0.52346815701272786
-0.0049116060000000007,0.52854843376279603,0.53015140637874769
-0.0049103460000000003,0.53520474565203036,0.53583216833987002
-0.004909086,0.54252668873018495,0.54351790511079612
-0.0049078260000000005,0.54951581621387469,0.54986699200851485
-0.0049065660000000002,0.55517368131972467,0.55588191643793827
-0.0049053059999999999,0.56249562439788225,0.56289932827226541
-0.0049040460000000004,0.5691519362871108,0.569916740106586
-0.0049027860000000001,0.57514261698741909,0.57593166453600653
-0.0049015260000000007,0.58246456006557035,0.5832832388386282
-0.0049002660000000003,0.58845524076588207,0.58963232573635316
-0.004899006,0.59477873706065187,0.59564725016577358
-0.0048977460000000006,0.60076941776095749,0.60199633706349231
-0.0048964860000000002,0.60709291405573007,0.60801126149291573
-0.0048952259999999999,0.61374922594496462,0.61436034839064069
-0.0048939660000000005,0.62040553783419305,0.62171192269326236
-0.0048927060000000001,0.62706184972342449,0.62839517205928508
-0.0048914459999999998,0.63338534601819685,0.63407593402040718
-0.0048901860000000004,0.63871039552957953,0.64009085844982494
-0.004888926,0.64603233860773424,0.64677410781584765
-0.0048876660000000006,0.65202301930803974,0.65312319471356639
-0.0048864060000000003,0.65768088441388928,0.65846979420638752
-0.0048851459999999999,0.66400438070866208,0.66448471863581093
-0.0048838860000000005,0.67066069259789063,0.67116796800183065
-0.0048826260000000002,0.67565292651481423,0.67584624255804659
-0.0048813659999999998,0.68131079162066355,0.6821953294557711
