SourceMeterLab/data/rc_1.csv

#Digilent WaveForms Oscilloscope Acquisition
#Device Name: Discovery2
#Serial Number: SN:210321A18976
#Date Time: 2018-10-19 14:35:27.298
#Sample rate: 4000Hz
#Samples: 8192
#Trigger: Source: Channel 1 Type: Edge Condition: Rising Level: 0 V Hyst.: Auto HoldOff: 0 s
#Channel 1: Range: 500 mV/div Offset: -2.45 V
#Channel 2: Range: 500 mV/div Offset: -2.45 V

Time (s),Channel 1 (V),Channel 2 (V)
-1.024,4.5284775689901924,1.8275651631878111
-1.0237499999999999,4.5284775689901924,1.8228868886315934
-1.0235000000000001,4.5284775689901924,1.8185427765436826
-1.02325,4.5284775689901924,1.8138645019874646
-1.0229999999999999,4.5284775689901924,1.8091862274312465
-1.02275,4.5284775689901924,1.8045079528750327
-1.0225,4.5284775689901924,1.8001638407871181
-1.0222500000000001,4.5284775689901924,1.7954855662309042
-1.022,4.5284775689901924,1.7911414541429873
-1.0217499999999999,4.5284775689901906,1.7864631795867691
-1.0215000000000001,4.5248178443648328,1.7817849050305576
-1.02125,4.5284775689901924,1.7774407929426408
-1.0209999999999999,4.5284775689901924,1.7727625183864224
-1.02075,4.5284775689901924,1.7680842438302089
-1.0205,4.5284775689901924,1.763405969273993
-1.0202500000000001,4.5284775689901924,1.7587276947177792
-1.02,4.5284775689901924,1.7543835826298622
-1.0197499999999999,4.5284775689901924,1.749705308073644
-1.0195000000000001,4.5284775689901924,1.7450270335174327
-1.01925,4.5284775689901924,1.7403487589612143
-1.0189999999999999,4.5284775689901924,1.7360046468732975
-1.01875,4.5284775689901924,1.7313263723170838
-1.0185,4.5284775689901924,1.7266480977608678
-1.0182500000000001,4.5284775689901924,1.7219698232046541
-1.018,4.5284775689901924,1.7172915486484359
-1.0177499999999999,4.5284775689901924,1.7129474365605191
-1.0175000000000001,4.5284775689901924,1.7082691620043073
-1.01725,4.5284775689901924,1.7039250499163905
-1.0169999999999999,4.5284775689901924,1.6992467753601723
-1.01675,4.5284775689901924,1.6945685008039586
-1.0165,4.5284775689901924,1.6898902262477427
-1.0162500000000001,4.5284775689901924,1.6855461141598298
-1.016,4.5284775689901924,1.6805336771353108
-1.0157499999999999,4.5284775689901924,1.6761895650473937
-1.0155000000000001,4.5284775689901924,1.6715112904911824
-1.01525,4.5284775689901924,1.6671671784032653
-1.0149999999999999,4.5284775689901924,1.6624889038470472
-1.01475,4.5284775689901924,1.6578106292908334
-1.0145,4.5284775689901924,1.6534665172029186
-1.0142500000000001,4.5284775689901924,1.6487882426467051
-1.014,4.5284775689901924,1.6441099680904867
-1.0137499999999999,4.5284775689901924,1.6394316935342688
-1.0135000000000001,4.5284775689901924,1.634753418978057
-1.01325,4.5284775689901924,1.6304093068901402
-1.0129999999999999,4.5284775689901924,1.625731032333922
-1.01275,4.5284775689901924,1.6210527577777083
-1.0125,4.5284775689901924,1.6167086456897937
-1.0122500000000001,4.5284775689901924,1.6120303711335797
-1.012,4.5284775689901924,1.6073520965773618
-1.0117499999999999,4.5284775689901924,1.6030079844894447
-1.0115000000000001,4.5284775689901924,1.5983297099332332
-1.01125,4.5284775689901924,1.593651435377015
-1.0109999999999999,4.5284775689901906,1.589307323289098
-1.01075,4.524817844364831,1.5846290487328845
-1.0105,4.5284775689901924,1.5799507741766683
-1.0102500000000001,4.5284775689901924,1.5756066620887557
-1.01,4.524817844364831,1.5709283875325377
-1.0097499999999999,4.5248178443648328,1.5662501129763198
-1.0095000000000001,4.5284775689901906,1.5619060008884091
-1.00925,4.5284775689901924,1.557227726332191
-1.0089999999999999,4.5284775689901924,1.552549451775973
-1.00875,4.5284775689901924,1.5478711772197591
-1.0085,4.5284775689901924,1.5435270651318445
-1.0082500000000001,4.5284775689901924,1.5388487905756307
-1.008,4.524817844364831,1.5341705160194126
-1.0077499999999999,4.5248178443648328,1.5298264039314957
-1.0075000000000001,4.5284775689901906,1.525148129375284
-1.00725,4.5284775689901924,1.520469854819066
-1.0069999999999999,4.5284775689901924,1.516125742731149
-1.00675,4.5284775689901924,1.5114474681749352
-1.0065,4.5284775689901924,1.5067691936187193
-1.0062500000000001,4.5284775689901924,1.5024250815308064
-1.006,4.5284775689901924,1.4977468069745887
-1.0057499999999999,4.5248178443648328,1.4934026948866714
-1.0055000000000001,4.5284775689901906,1.4887244203304602
-1.00525,4.5284775689901924,1.484046145774242
-1.0049999999999999,4.5248178443648328,1.479367871218024
-1.00475,4.5284775689901924,1.4750237591301112
-1.0044999999999999,4.5284775689901924,1.4703454845738952
-1.0042500000000001,4.5248178443648328,1.4656672100176817
-1.004,4.5284775689901924,1.4613230979297644
-1.0037499999999999,4.5284775689901906,1.4566448233735467
-1.0035000000000001,4.5248178443648328,1.4523007112856359
-1.00325,4.524817844364831,1.4476224367294179
-1.0029999999999999,4.5284775689901924,1.4432783246415009
-1.00275,4.5284775689901924,1.4386000500852874
-1.0024999999999999,4.5284775689901924,1.4339217755290714
-1.0022500000000001,4.5284775689901924,1.4295776634411586
-1.002,4.5284775689901924,1.4248993888849406
-1.0017499999999999,4.5248178443648328,1.4202211143287227
-1.0015000000000001,4.5284775689901924,1.4158770022408098
-1.00125,4.5284775689901924,1.4115328901528952
-1.0009999999999999,4.5284775689901924,1.406854615596677
-1.00075,4.5284775689901924,1.4021763410404633
-1.0004999999999999,4.524817844364831,1.3974980664842473
-1.0002500000000001,4.5284775689901906,1.3928197919280336
-1,4.5284775689901924,1.3884756798401166
-0.99975000000000003,4.5284775689901924,1.3837974052839006
-0.99950000000000006,4.5284775689901924,1.3791191307276849
-0.99924999999999997,4.5284775689901924,1.37477501863977
-0.999,4.5284775689901924,1.3700967440835541
-0.99875000000000003,4.5284775689901924,1.3654184695273381
-0.99850000000000005,4.5284775689901924,1.3610743574394233
-0.99824999999999997,4.5284775689901924,1.3563960828832073
-0.998,4.524817844364831,1.3517178083269914
-0.99775000000000003,4.5284775689901924,1.3473736962390768
-0.99750000000000005,4.5284775689901924,1.3426954216828608
-0.99724999999999997,4.5284775689901924,1.3380171471266449
-0.997,4.5284775689901924,1.3333388725704289
-0.99675000000000002,4.5284775689901924,1.3289947604825141
-0.99650000000000005,4.524817844364831,1.3243164859262981
-0.99624999999999997,4.524817844364831,1.3199723738383835
-0.996,4.524817844364831,1.3152940992821676
-0.99575000000000002,4.524817844364831,1.3106158247259516
-0.99550000000000005,4.524817844364831,1.3059375501697357
-0.99524999999999997,4.524817844364831,1.3015934380818208
-0.995,4.5284775689901924,1.2969151635256049
-0.99475000000000002,4.5284775689901924,1.2922368889693889
-0.99450000000000005,4.5284775689901924,1.2878927768814743
-0.99424999999999997,4.5284775689901924,1.2832145023252584
-0.99399999999999999,4.5284775689901924,1.2788703902373435
-0.99375000000000002,4.5284775689901924,1.2741921156811276
-0.99350000000000005,4.524817844364831,1.2698480035932129
-0.99324999999999997,4.5284775689901924,1.265169729036997
-0.99299999999999999,4.524817844364831,1.2608256169490821
-0.99275000000000002,4.524817844364831,1.2561473423928662
-0.99250000000000005,4.5284775689901924,1.2514690678366502
-0.99224999999999997,4.524817844364831,1.2471249557487354
-0.99199999999999999,4.5284775689901924,1.2424466811925194
-0.99175000000000002,4.5284775689901924,1.2377684066363037
-0.99150000000000005,4.5284775689901924,1.2334242945483889
-0.99124999999999996,4.5284775689901924,1.2287460199921729
-0.99099999999999999,4.524817844364831,1.224067745435957
-0.99075000000000002,4.5284775689901924,1.2197236333480421
-0.99050000000000005,4.5284775689901924,1.2150453587918262
-0.99024999999999996,4.5284775689901924,1.2103670842356102
-0.98999999999999999,4.524817844364831,1.2060229721476956
-0.98975000000000002,4.524817844364831,1.2013446975914797
-0.98950000000000005,4.5284775689901924,1.1966664230352637
-0.98924999999999996,4.5284775689901924,1.1923223109473489
-0.98899999999999999,4.524817844364831,1.1876440363911329
-0.98875000000000002,4.5284775689901924,1.1832999243032183
-0.98850000000000005,4.524817844364831,1.1789558122153034
-0.98824999999999996,4.5284775689901924,1.1742775376590875
-0.98799999999999999,4.5284775689901924,1.1695992631028715
-0.98775000000000002,4.5284775689901924,1.1649209885466556
-0.98750000000000004,4.5284775689901924,1.160576876458741
-0.98724999999999996,4.5284775689901924,1.1562327643708261
-0.98699999999999999,4.5284775689901924,1.1512203273463091
-0.98675000000000002,4.5284775689901924,1.1465420527900931
-0.98650000000000004,4.5284775689901924,1.1421979407021783
-0.98624999999999996,4.5284775689901924,1.1375196661459623
-0.98599999999999999,4.5284775689901924,1.1331755540580475
-0.98575000000000002,4.5284775689901924,1.1284972795018318
-0.98550000000000004,4.5284775689901924,1.1238190049456158
-0.98524999999999996,4.524817844364831,1.119474892857701
-0.98499999999999999,4.5284775689901924,1.1151307807697861
-0.98475000000000001,4.5284775689901924,1.1104525062135702
-0.98450000000000004,4.5284775689901924,1.1057742316573542
-0.98424999999999996,4.5284775689901924,1.1014301195694396
-0.98399999999999999,4.5284775689901924,1.0967518450132236
-0.98375000000000001,4.5284775689901924,1.0924077329253088
-0.98350000000000004,4.5284775689901924,1.0877294583690928
-0.98324999999999996,4.5284775689901924,1.0830511838128769
-0.98299999999999998,4.5284775689901924,1.0787070717249623
-0.98275000000000001,4.5284775689901924,1.0740287971687463
-0.98250000000000004,4.5284775689901924,1.0696846850808315
-0.98224999999999996,4.5284775689901924,1.0650064105246155
-0.98199999999999998,4.5284775689901924,1.0603281359683996
-0.98175000000000001,4.5284775689901924,1.0559840238804847
-0.98150000000000004,4.5284775689901924,1.0513057493242688
-0.98124999999999996,4.5284775689901924,1.0466274747680531
-0.98099999999999998,4.5284775689901924,1.0419492002118371
-0.98075000000000001,4.5284775689901924,1.0372709256556212
-0.98050000000000004,4.5284775689901924,1.0329268135677063
-0.98024999999999995,4.5284775689901924,1.0282485390114904
-0.97999999999999998,4.5284775689901924,1.0239044269235755
-0.97975000000000001,4.5284775689901924,1.0192261523673598
-0.97950000000000004,4.5284775689901924,1.014882040279445
-0.97924999999999995,4.5284775689901924,1.010203765723229
-0.97899999999999998,4.5284775689901924,1.0058596536353142
-0.97875000000000001,4.5284775689901924,1.0011813790790982
-0.97850000000000004,4.5284775689901924,0.99650310452288227
-0.97824999999999995,4.5284775689901924,0.99215899243496763
-0.97799999999999998,4.5284775689901924,0.98748071787875169
-0.97775000000000001,4.5284775689901924,0.98280244332253575
-0.97750000000000004,4.5284775689901924,0.97845833123462089
-0.97724999999999995,4.5284775689901924,0.97378005667840495
-0.97699999999999998,4.5284775689901924,0.969101782122189
-0.97675000000000001,4.5284775689901924,0.96475767003427437
-0.97650000000000003,4.5284775689901924,0.96007939547805843
-0.97624999999999995,4.5284775689901924,0.95540112092184248
-0.97599999999999998,4.524817844364831,0.95105700883392763
-0.97575000000000001,4.524817844364831,0.94637873427771169
-0.97550000000000003,4.5284775689901924,0.94170045972149574
-0.97524999999999995,4.524817844364831,0.93735634763358111
-0.97499999999999998,4.5284775689901924,0.93267807307736517
-0.97475000000000001,4.5284775689901924,0.92833396098945031
-0.97450000000000003,4.524817844364831,0.92365568643323437
-0.97424999999999995,4.5284775689901924,0.91897741187701842
-0.97399999999999998,4.5284775689901924,0.91463329978910357
-0.97375,4.5284775689901924,0.90995502523288785
-0.97350000000000003,4.5284775689901924,0.905610913144973
-0.97324999999999995,4.524817844364831,0.90093263858875705
-0.97299999999999998,4.524817844364831,0.8965885265008422
-0.97275,4.524817844364831,0.89191025194462625
-0.97250000000000003,4.5284775689901924,0.88756613985671162
-0.97224999999999995,4.524817844364831,0.88288786530049568
-0.97199999999999998,4.524817844364831,0.87820959074427973
-0.97175,4.5284775689901924,0.87353131618806379
-0.97150000000000003,4.5284775689901924,0.86918720410014894
-0.97124999999999995,4.524817844364831,0.86450892954393299
-0.97099999999999997,4.5284775689901924,0.85983065498771705
-0.97075,4.524817844364831,0.85548654289980242
-0.97050000000000003,4.524817844364831,0.85080826834358647
-0.97024999999999995,4.524817844364831,0.84646415625567162
-0.96999999999999997,4.5284775689901924,0.84212004416775676
-0.96975,4.5284775689901924,0.83744176961154082
-0.96950000000000003,4.524817844364831,0.83276349505532488
-0.96924999999999994,4.5284775689901924,0.82808522049910915
-0.96899999999999997,4.5284775689901924,0.8237411084111943
-0.96875,4.5284775689901924,0.81939699632327945
-0.96850000000000003,4.5284775689901924,0.81505288423536459
-0.96825000000000006,4.5284775689901924,0.81037460967914887
-0.96799999999999997,4.5284775689901924,0.80603049759123402
-0.96775,4.5284775689901924,0.80135222303501807
-0.96750000000000003,4.5284775689901924,0.79667394847880213
-0.96725000000000005,4.5284775689901924,0.79199567392258619
-0.96699999999999997,4.5284775689901924,0.78765156183467133
-0.96675,4.5284775689901924,0.78297328727845539
-0.96650000000000003,4.5284775689901924,0.77862917519054076
-0.96625000000000005,4.5284775689901924,0.77395090063432481
-0.96599999999999997,4.5284775689901924,0.76960678854640996
-0.96575,4.5284775689901924,0.76492851399019401
-0.96550000000000002,4.5284775689901924,0.76025023943397807
-0.96525000000000005,4.5284775689901924,0.75590612734606344
-0.96499999999999997,4.5284775689901924,0.75156201525814859
-0.96475,4.5284775689901924,0.74688374070193264
-0.96450000000000002,4.5284775689901924,0.7422054661457167
-0.96425000000000005,4.5284775689901924,0.73786135405780184
-0.96399999999999997,4.5284775689901924,0.7331830795015859
-0.96375,4.5284775689901924,0.72883896741367127
-0.96350000000000002,4.5284775689901924,0.72416069285745532
-0.96325000000000005,4.524817844364831,0.71948241830123938
-0.96299999999999997,4.5284775689901924,0.71513830621332453
-0.96274999999999999,4.5284775689901924,0.71046003165710858
-0.96250000000000002,4.5284775689901924,0.70611591956919395
-0.96225000000000005,4.5284775689901924,0.70143764501297801
-0.96199999999999997,4.5284775689901924,0.69675937045676206
-0.96174999999999999,4.5284775689901924,0.69241525836884721
-0.96150000000000002,4.5284775689901924,0.68773698381263126
-0.96125000000000005,4.5284775689901924,0.68339287172471641
-0.96099999999999997,4.5284775689901924,0.67871459716850069
-0.96074999999999999,4.5284775689901924,0.67437048508058584
-0.96050000000000002,4.5284775689901924,0.66969221052436989
-0.96025000000000005,4.5284775689901924,0.66501393596815395
-0.95999999999999996,4.5284775689901924,0.66066982388023909
-0.95974999999999999,4.5284775689901924,0.65599154932402315
-0.95950000000000002,4.5284775689901924,0.65131327476780743
-0.95925000000000005,4.5284775689901924,0.64696916267989257
-0.95899999999999996,4.5284775689901924,0.64229088812367663
-0.95874999999999999,4.524817844364831,0.63794677603576178
-0.95850000000000002,4.5284775689901924,0.63326850147954583
-0.95825000000000005,4.5284775689901924,0.6289243893916312
-0.95799999999999996,4.5284775689901924,0.62424611483541526
-0.95774999999999999,4.5284775689901924,0.61956784027919931
-0.95750000000000002,4.5284775689901924,0.61522372819128446
-0.95725000000000005,4.5284775689901924,0.61054545363506851
-0.95699999999999996,4.5284775689901924,0.60620134154715366
-0.95674999999999999,4.524817844364831,0.60152306699093794
-0.95650000000000002,4.5284775689901924,0.59717895490302308
-0.95625000000000004,4.524817844364831,0.59250068034680714
-0.95599999999999996,4.5284775689901924,0.58815656825889229
-0.95574999999999999,4.5284775689901924,0.58381245617097743
-0.95550000000000002,4.5284775689901924,0.57913418161476171
-0.95525000000000004,4.5284775689901924,0.57445590705854577
-0.95499999999999996,4.5284775689901924,0.56977763250232982
-0.95474999999999999,4.5284775689901924,0.56543352041441497
-0.95450000000000002,4.5284775689901924,0.56108940832650012
-0.95425000000000004,4.524817844364831,0.55641113377028417
-0.95399999999999996,4.5284775689901924,0.55173285921406845
-0.95374999999999999,4.5284775689901924,0.54705458465785251
-0.95350000000000001,4.5284775689901924,0.54271047256993765
-0.95325000000000004,4.5284775689901924,0.53803219801372171
-0.95299999999999996,4.5284775689901924,0.53335392345750576
-0.95274999999999999,4.5284775689901924,0.52900981136959091
-0.95250000000000001,4.5284775689901924,0.52433153681337497
-0.95225000000000004,4.5284775689901924,0.51998742472546033
-0.95199999999999996,4.5284775689901924,0.51530915016924439
-0.95174999999999998,4.5284775689901924,0.51096503808132954
-0.95150000000000001,4.5284775689901924,0.50628676352511359
-0.95125000000000004,4.5284775689901924,0.50194265143719896
-0.95099999999999996,4.5284775689901924,0.49759853934928411
-0.95074999999999998,4.5284775689901924,0.49292026479306816
-0.95050000000000001,4.5284775689901924,0.48824199023685222
-0.95025000000000004,4.5284775689901924,0.48356371568063627
-0.94999999999999996,4.5284775689901924,0.47955376606102273
-0.94974999999999998,4.5284775689901924,0.47487549150480679
-0.94950000000000001,4.5284775689901924,0.47019721694859085
-0.94925000000000004,4.5284775689901924,0.46585310486067599
-0.94899999999999995,4.5284775689901924,0.46117483030446005
-0.94874999999999998,4.5284775689901924,0.4568307182165452
-0.94850000000000001,4.5284775689901924,0.45215244366032947
-0.94825000000000004,4.5284775689901924,0.44747416910411353
-0.94799999999999995,4.5284775689901924,0.44279589454789736
-0.94774999999999998,4.5284775689901924,0.43845178245998273
-0.94750000000000001,4.5284775689901924,0.4341076703720681
-0.94725000000000004,4.5284775689901924,0.42976355828415302
-0.94699999999999995,4.5284775689901924,0.4250852837279373
-0.94674999999999998,4.5284775689901924,0.42040700917172114
-0.94650000000000001,4.5284775689901924,0.4160628970838065
-0.94625000000000004,4.524817844364831,0.41171878499589187
-0.94599999999999995,4.524817844364831,0.40704051043967571
-0.94574999999999998,4.5284775689901924,0.40236223588345998
-0.94550000000000001,4.5284775689901924,0.39801812379554491
-0.94525000000000003,4.5284775689901924,0.39367401170763028
-0.94499999999999995,4.5284775689901924,0.38899573715141456
-0.94474999999999998,4.5284775689901924,0.38431746259519839
-0.94450000000000001,4.5284775689901924,0.37963918803898267
-0.94425000000000003,4.5284775689901924,0.37529507595106759
-0.94399999999999995,4.524817844364831,0.37095096386315296
-0.94374999999999998,4.5284775689901924,0.36627268930693724
-0.94350000000000001,4.5284775689901924,0.36159441475072107
-0.94325000000000003,4.5284775689901924,0.35691614019450535
-0.94299999999999995,4.5284775689901924,0.35257202810659027
-0.94274999999999998,4.5284775689901924,0.34822791601867564
-0.9425,4.5284775689901924,0.34354964146245948
-0.94225000000000003,4.5284775689901924,0.33920552937454485
-0.94199999999999995,4.5284775689901924,0.33452725481832912
-0.94174999999999998,4.5284775689901924,0.33051730519871514
-0.9415,4.5284775689901924,0.32583903064249942
-0.94125000000000003,4.5284775689901924,0.32116075608628325
-0.94099999999999995,4.5284775689901924,0.31648248153006753
-0.94074999999999998,4.5284775689901924,0.31180420697385181
-0.9405,4.5284775689901924,0.30746009488593673
-0.94025000000000003,4.5284775689901924,0.30278182032972101
-0.93999999999999995,4.5284775689901924,0.29843770824180593
-0.93974999999999997,4.5284775689901924,0.2940935961538913
-0.9395,4.524817844364831,0.28941532159767558
-0.93925000000000003,4.5284775689901924,0.28473704704145941
-0.93899999999999995,4.5284775689901924,0.28005877248524369
-0.93874999999999997,4.5284775689901924,0.27538049792902752
-0.9385,4.5284775689901924,0.27103638584111289
-0.93825000000000003,4.5284775689901924,0.26669227375319826
-0.93799999999999994,4.5284775689901924,0.26201399919698209
-0.93774999999999997,4.5284775689901924,0.25800404957736855
