Pulse Oximeter/presallenkey.csv

#Digilent WaveForms Oscilloscope Acquisition
#Device Name: Discovery2
#Serial Number: SN:210321A18976
#Date Time: 2018-11-02 16:06:25.362
#Sample rate: 800Hz
#Samples: 8000
#Trigger: Source: Channel 1 Type: Edge Condition: Rising Level: 0 V Hyst.: Auto HoldOff: 0 s
#Channel 1: Range: 600 mV/div Offset: 0 V

Time (s),Channel 1 (V)
-5,0.036497509315094559
-4.9987500000000002,0.032837784689733585
-4.9974999999999996,0.025518335439011639
-4.9962499999999999,0.025518335439011639
-4.9950000000000001,0.021858610813650668
-4.9937500000000004,0.018198886188291359
-4.9924999999999997,0.014539161562928721
-4.99125,0.010879436937567748
-4.9900000000000002,0.0072197123122067748
-4.9887499999999996,0.0035599876868424732
-4.9874999999999998,-0.0037594615638761445
-4.9862500000000001,-0.0074191861892371177
-4.9850000000000003,-0.014738635439955735
-4.9837499999999997,-0.018398360065321702
-4.9824999999999999,-0.022058084690681011
-4.9812500000000002,-0.029377533941402956
-4.9800000000000004,-0.033037258566762262
-4.9787499999999998,-0.036696983192124902
-4.9775,-0.040356707817485876
-4.9762500000000003,-0.040356707817485876
-4.9749999999999996,-0.040356707817485876
-4.9737499999999999,-0.040356707817485876
-4.9725000000000001,-0.040356707817485876
-4.9712500000000004,-0.044016432442845185
-4.9699999999999998,-0.044016432442846851
-4.96875,-0.047676157068207825
-4.9675000000000002,-0.047676157068207825
-4.9662499999999996,-0.051335881693568793
-4.9649999999999999,-0.051335881693568793
-4.9637500000000001,-0.054995606318929767
-4.9625000000000004,-0.058655330944289076
-4.9612499999999997,-0.062315055569651716
-4.96,-0.062315055569651716
-4.9587500000000002,-0.065974780195012683
-4.9574999999999996,-0.069634504820373658
-4.9562499999999998,-0.069634504820373658
-4.9550000000000001,-0.065974780195012683
-4.9537500000000003,-0.065974780195012683
-4.9524999999999997,-0.065974780195012683
-4.9512499999999999,-0.065974780195012683
-4.9500000000000002,-0.062315055569651716
-4.9487500000000004,-0.058655330944292407
-4.9474999999999998,-0.051335881693568793
-4.94625,-0.047676157068207825
-4.9450000000000003,-0.044016432442846851
-4.9437499999999996,-0.040356707817484211
-4.9424999999999999,-0.036696983192124902
-4.9412500000000001,-0.029377533941402956
-4.9400000000000004,-0.025717809316043647
-4.9387499999999998,-0.018398360065320037
-4.9375,-0.014738635439959064
-4.9362500000000002,-0.011078910814598091
-4.9349999999999996,-0.011078910814598091
-4.9337499999999999,-0.011078910814598091
-4.9325000000000001,-0.0074191861892371177
-4.9312500000000004,-0.0074191861892371177
-4.9299999999999997,-0.0074191861892371177
-4.92875,-0.0074191861892371177
-4.9275000000000002,-0.0037594615638761445
-4.9262499999999996,-9.9736938515171403e-05
-4.9249999999999998,-9.9736938515171403e-05
-4.9237500000000001,0.0035599876868458017
-4.9225000000000003,0.0072197123122051104
-4.9212499999999997,0.0072197123122067748
-4.9199999999999999,0.0072197123122067748
-4.9187500000000002,0.0072197123122067748
-4.9175000000000004,0.010879436937566085
-4.9162499999999998,0.010879436937567748
-4.915,0.0072197123122067748
-4.9137500000000003,0.0035599876868458017
-4.9124999999999996,0.0035599876868441377
-4.9112499999999999,-9.9736938515171403e-05
-4.9100000000000001,-0.0037594615638761445
-4.9087500000000004,-0.0037594615638761445
-4.9074999999999998,-0.0074191861892371177
-4.90625,-0.011078910814598091
-4.9050000000000002,-0.014738635439959064
-4.9037499999999996,-0.018398360065320037
-4.9024999999999999,-0.018398360065320037
-4.9012500000000001,-0.018398360065320037
-4.9000000000000004,-0.025717809316038655
-4.8987499999999997,-0.029377533941402956
-4.8975,-0.033037258566763927
-4.8962500000000002,-0.033037258566763927
-4.8949999999999996,-0.029377533941402956
-4.8937499999999998,-0.029377533941402956
-4.8925000000000001,-0.029377533941402956
-4.8912500000000003,-0.025717809316043647
-4.8899999999999997,-0.022058084690681011
-4.8887499999999999,-0.022058084690681011
-4.8875000000000002,-0.018398360065320037
-4.8862500000000004,-0.018398360065320037
-4.8849999999999998,-0.014738635439959064
-4.88375,-0.018398360065320037
-4.8825000000000003,-0.018398360065320037
-4.8812499999999996,-0.022058084690681011
-4.8799999999999999,-0.022058084690681011
-4.8787500000000001,-0.025717809316041982
-4.8775000000000004,-0.025717809316041982
-4.8762499999999998,-0.029377533941402956
-4.875,-0.033037258566763927
-4.8737500000000002,-0.033037258566763927
-4.8724999999999996,-0.036696983192124902
-4.8712499999999999,-0.036696983192124902
-4.8700000000000001,-0.040356707817485876
-4.8687500000000004,-0.040356707817485876
-4.8674999999999997,-0.040356707817485876
-4.86625,-0.040356707817485876
-4.8650000000000002,-0.040356707817485876
-4.8637499999999996,-0.036696983192123236
-4.8624999999999998,-0.033037258566763927
-4.8612500000000001,-0.033037258566763927
-4.8600000000000003,-0.033037258566763927
-4.8587499999999997,-0.033037258566765593
-4.8574999999999999,-0.036696983192124902
-4.8562500000000002,-0.036696983192124902
-4.8550000000000004,-0.036696983192124902
-4.8537499999999998,-0.036696983192124902
-4.8525,-0.040356707817485876
-4.8512500000000003,-0.044016432442846851
-4.8499999999999996,-0.044016432442846851
-4.8487499999999999,-0.044016432442846851
-4.8475000000000001,-0.044016432442846851
-4.8462500000000004,-0.044016432442846851
-4.8449999999999998,-0.047676157068207825
-4.84375,-0.047676157068207825
-4.8425000000000002,-0.047676157068207825
-4.8412499999999996,-0.047676157068207825
-4.8399999999999999,-0.047676157068207825
-4.8387500000000001,-0.047676157068207825
-4.8375000000000004,-0.047676157068207825
-4.8362499999999997,-0.047676157068207825
-4.835,-0.044016432442846851
-4.8337500000000002,-0.044016432442846851
-4.8324999999999996,-0.044016432442848516
-4.8312499999999998,-0.047676157068207825
-4.8300000000000001,-0.047676157068207825
-4.8287500000000003,-0.047676157068207825
-4.8274999999999997,-0.044016432442848516
-4.8262499999999999,-0.047676157068207825
-4.8250000000000002,-0.047676157068207825
-4.8237500000000004,-0.047676157068207825
-4.8224999999999998,-0.051335881693568793
-4.82125,-0.051335881693568793
-4.8200000000000003,-0.051335881693568793
-4.8187499999999996,-0.054995606318933098
-4.8174999999999999,-0.062315055569651716
-4.8162500000000001,-0.065974780195012683
-4.8150000000000004,-0.073294229445731301
-4.8137499999999998,-0.076953954071095607
-4.8125,-0.084273403321817555
-4.8112500000000002,-0.091592852572539504
-4.8099999999999996,-0.09891230182326477
-4.8087499999999999,-0.10623175107398339
-4.8075000000000001,-0.10989147569934436
-4.8062500000000004,-0.11721092495006298
-4.8049999999999997,-0.12453037420078826
-4.80375,-0.12819009882614923
-4.8025000000000002,-0.13550954807687118
-4.8012499999999996,-0.14648872195295742
-4.7999999999999998,-0.15380817120367604
-4.7987500000000001,-0.16478734507975895
-4.7975000000000003,-0.17210679433047757
-4.7962499999999997,-0.17942624358120618
-4.7949999999999999,-0.1867456928319248
-4.7937500000000002,-0.19406514208264675
-4.7925000000000004,-0.20138459133336536
-4.7912499999999998,-0.2013845913333687
-4.79,-0.2013845913333687
-4.7887500000000003,-0.2013845913333687
-4.7874999999999996,-0.2013845913333687
-4.7862499999999999,-0.2013845913333687
-4.7850000000000001,-0.2013845913333687
-4.7837500000000004,-0.2013845913333687
-4.7824999999999998,-0.20504431595872966
-4.78125,-0.20870404058409064
-4.7800000000000002,-0.2123637652094516
-4.7787499999999996,-0.21602348983481259
-4.7774999999999999,-0.21602348983481259
-4.7762500000000001,-0.21968321446017355
-4.7750000000000004,-0.22700266371089217
-4.7737499999999997,-0.23066238833625649
-4.7725,-0.23432211296161745
-4.7712500000000002,-0.2416415622123394
-4.7699999999999996,-0.24530128683770369
-4.7687499999999998,-0.25262073608842234
-4.7675000000000001,-0.2562804607137833
-4.7662500000000003,-0.25994018533914259
-4.7649999999999997,-0.26359990996450855
-4.7637499999999999,-0.2709193592152272
-4.7625000000000002,-0.27457908384058816
-4.7612500000000004,-0.27823880846594745
-4.7599999999999998,-0.28555825771667109
-4.75875,-0.28555825771667109
-4.7575000000000003,-0.28189853309131008
-4.7562499999999996,-0.27457908384058483
-4.7549999999999999,-0.26725963458986624
-4.7537500000000001,-0.2562804607137833
-4.7525000000000004,-0.24164156221234606
-4.7512499999999998,-0.2270026637108955
-4.75,-0.21602348983481259
-4.7487500000000002,-0.2013845913333687
-4.7474999999999996,-0.18674569283191814
-4.7462499999999999,-0.1721067943304809
-4.7450000000000001,-0.15380817120367604
-4.7437500000000004,-0.13916927270223881
-4.7424999999999997,-0.11721092495006631
-4.74125,-0.098912301823261439
-4.7400000000000002,-0.084273403321817555
-4.7387499999999996,-0.069634504820365331
-4.7374999999999998,-0.051335881693568793
-4.7362500000000001,-0.029377533941402956
-4.7350000000000003,-0.011078910814606411
-4.7337499999999997,0.0072197123122150963
-4.7324999999999999,0.025518335439011639
-4.7312500000000002,0.047476683191177482
-4.7300000000000004,0.069435030943333337
-4.7287499999999998,0.087733654070148187
-4.7275,0.10603227719695305
-4.7262500000000003,0.12433090032375792
-4.7249999999999996,0.14262952345057112
-4.7237499999999999,0.16092814657736765
-4.7225000000000001,0.17922676970417251
-4.7212500000000004,0.19386566820560974
-4.7199999999999998,0.21216429133242126
-4.71875,0.22680318983386516
-4.7175000000000002,0.24144208833530906
-4.7162499999999996,0.25608098683675795
-4.7149999999999999,0.26706016071283589
-4.7137500000000001,0.27803933458891877
-4.7125000000000004,0.28901850846499672
-4.7112499999999997,0.30365740696644561
-4.71,0.31463658084252849
-4.7087500000000002,0.32561575471861143
-4.7074999999999996,0.3365949285946977
-4.7062499999999998,0.34391437784541629
-4.7050000000000001,0.35489355172149922
-4.7037500000000003,0.36221300097221781
-4.7024999999999997,0.36953245022294645
-4.7012499999999999,0.37685189947366504
-4.7000000000000002,0.38051162409902606
-4.6987500000000004,0.38417134872438535
-4.6974999999999998,0.38783107334974798
-4.69625,0.38783107334974798
-4.6950000000000003,0.38783107334974798
-4.6937499999999996,0.38783107334974798
-4.6924999999999999,0.38783107334974798
-4.6912500000000001,0.38417134872438702
-4.6900000000000004,0.38051162409902772
-4.6887499999999998,0.37685189947366504
-4.6875,0.37319217484830408
-4.6862500000000002,0.36953245022294312
-4.6849999999999996,0.36221300097221948
-4.6837499999999999,0.35855327634686018
-4.6825000000000001,0.35489355172149922
-4.6812500000000004,0.34757410247078063
-4.6799999999999997,0.34391437784541629
-4.67875,0.34025465322005533
-4.6775000000000002,0.33659492859469436
-4.6762499999999996,0.32927547934396906
-4.6749999999999998,0.32195603009325047
-4.6737500000000001,0.31463658084252849
-4.6725000000000003,0.3073171315918099
-4.6712499999999997,0.29633795771571864
-4.6699999999999999,0.28535878383964075
-4.6687500000000002,0.27437960996355781
-4.6675000000000004,0.25974071146212058
-4.6662499999999998,0.24876153758603101
-4.665,0.23412263908458711
-4.6637500000000003,0.2231434652085042
-4.6624999999999996,0.21216429133241793
-4.6612499999999999,0.20484484208169931
-4.6600000000000001,0.1938656682056164
-4.6587500000000004,0.18288649432953849
-4.6574999999999998,0.17556704507881155
-4.65625,0.16092814657736765
-4.6550000000000002,0.1536086973266457
-4.6537499999999996,0.14262952345055946
-4.6524999999999999,0.13531007419984084
-4.6512500000000001,0.12799062494911889
-4.6500000000000004,0.12799062494911889
-4.6487499999999997,0.12067117569839694
-4.6475,0.10969200182231402
-4.6462500000000002,0.10237255257159207
-4.6449999999999996,0.091393378695504165
-4.6437499999999998,0.080414204819426238
-4.6425000000000001,0.069435030943343315
-4.6412500000000003,0.054796132441906079
-4.6399999999999997,0.043816958565811512
-4.6387499999999999,0.032837784689733585
-4.6375000000000002,0.014539161562928721
-4.6362500000000004,-0.0074191861892271335
-4.6349999999999998,-0.025717809316041982
-4.63375,-0.047676157068207825
-4.6325000000000003,-0.069634504820373658
-4.6312499999999996,-0.091592852572549496
-4.6299999999999999,-0.11355120032470534
-4.6287500000000001,-0.1318498234515102
-4.6275000000000004,-0.14648872195294743
-4.6262499999999998,-0.16478734507975895
-4.625,-0.17942624358120285
-4.6237500000000002,-0.19406514208264675
-4.6224999999999996,-0.20504431595873465
-4.6212499999999999,-0.21602348983481259
-4.6200000000000001,-0.2270026637108955
-4.6187500000000004,-0.24164156221233274
-4.6174999999999997,-0.24896101146306135
-4.61625,-0.25994018533914426
-4.6150000000000002,-0.2709193592152272
-4.6137499999999996,-0.27823880846595245
-4.6124999999999998,-0.28555825771667109
-4.6112500000000001,-0.29653743159275398
-4.6100000000000003,-0.30385688084347262
-4.6087499999999997,-0.3111763300942012
-4.6074999999999999,-0.31849577934491985
-4.6062500000000002,-0.32581522859564177
-4.6050000000000004,-0.32947495322100107
-4.6037499999999998,-0.33679440247172471
-4.6025,-0.34045412709708567
-4.6012500000000003,-0.34411385172244663
-4.5999999999999996,-0.34777357634780931
-4.5987499999999999,-0.35143330097316861
-4.5975000000000001,-0.35509302559852957
-4.5962500000000004,-0.35509302559852957
-4.5949999999999998,-0.35509302559852957
-4.59375,-0.35509302559852957
-4.5925000000000002,-0.35509302559852957
-4.5912499999999996,-0.35143330097316861
-4.5899999999999999,-0.35143330097316861
-4.5887500000000001,-0.35143330097316861
-4.5875000000000004,-0.34411385172244996
-4.5862499999999997,-0.34411385172244663
-4.585,-0.34045412709708567
-4.5837500000000002,-0.33679440247172471
-4.5824999999999996,-0.33313467784636208
-4.5812499999999998,-0.32947495322100273
-4.5800000000000001,-0.32215550397028081
-4.5787500000000003,-0.31849577934492151
-4.5774999999999997,-0.31483605471955883
-4.5762499999999999,-0.31483605471955883
-4.5750000000000002,-0.31483605471955883
-4.5737500000000004,-0.31483605471955883
-4.5724999999999998,-0.31483605471955883
-4.57125,-0.31483605471955883
-4.5700000000000003,-0.31483605471955883
-4.5687499999999996,-0.31483605471955717
-4.5674999999999999,-0.31117633009419787
-4.5662500000000001,-0.30751660546883691
-4.5650000000000004,-0.30385688084347762
-4.5637499999999998,-0.30019715621811499
-4.5625,-0.29653743159275398
-4.5612500000000002,-0.29287770696739301
-4.5599999999999996,-0.28921798234202872
-4.5587499999999999,-0.28189853309131008
-4.5575000000000001,-0.27457908384058816
-4.5562500000000004,-0.26725963458986957
-4.5549999999999997,-0.25994018533914426
-4.55375,-0.25262073608842234
-4.5525000000000002,-0.24530128683770036
-4.5512499999999996,-0.23432211296161412
-4.5499999999999998,-0.2270026637108955
-4.5487500000000001,-0.21602348983481259
-4.5475000000000003,-0.20504431595873465
-4.5462499999999997,-0.19406514208264009
-4.5449999999999999,-0.17942624358120285
-4.5437500000000002,-0.16478734507975895
-4.5425000000000004,-0.15014844657832174
-4.5412499999999998,-0.13916927270223214
-4.54,-0.12453037420078826
-4.5387500000000003,-0.11355120032470534
-4.5374999999999996,-0.098912301823258109
-4.5362499999999999,-0.091592852572539504
-4.5350000000000001,-0.080613678696456581
-4.5337500000000004,-0.073294229445737963
-4.5324999999999998,-0.062315055569651716
-4.53125,-0.051335881693568793
-4.5300000000000002,-0.040356707817485876
-4.5287499999999996,-0.029377533941397964
-4.5274999999999999,-0.018398360065320037
-4.5262500000000001,-0.0074191861892371177
-4.5250000000000004,-9.973693851849947e-05
-4.5237499999999997,0.0072197123122067748
-4.5225,0.014539161562928721
-4.5212500000000002,0.021858610813650668
-4.5199999999999996,0.032837784689736915
-4.5187499999999998,0.040157233940455533
-4.5175000000000001,0.05113640781653845
-4.5162500000000003,0.058455857067257068
-4.5149999999999997,0.065775306317987337
-4.5137499999999999,0.076754480194065264
-4.5125000000000002,0.084073929444787213
-4.5112500000000004,0.09505310332086514
-4.5099999999999998,0.10237255257159207
-4.50875,0.11335172644767499
-4.5075000000000003,0.12433090032375792
-4.5062499999999996,0.13165034957448318
-4.5049999999999999,0.1389697988252018
-4.5037500000000001,0.14628924807592375
-4.5025000000000004,0.15360869732664237
-4.5012499999999998,0.16092814657736765
-4.5,0.1682475958280896
-4.4987500000000002,0.17556704507881155
-4.4974999999999996,0.18288649432953683
-4.4962499999999999,0.19020594358025544
-4.4950000000000001,0.19752539283097736
-4.4937500000000004,0.20484484208169598
-4.4924999999999997,0.21216429133242126
-4.49125,0.21948374058314321
-4.4900000000000002,0.22680318983386516
-4.4887499999999996,0.2377823637099514
-4.4874999999999998,0.24510181296067002
-4.4862500000000001,0.25242126221139199
-4.4850000000000003,0.25608098683675129
-4.4837499999999997,0.25608098683675462
-4.4824999999999999,0.25974071146211392
-4.4812500000000002,0.26340043608747488
-4.4800000000000004,0.26340043608747488
-4.4787499999999998,0.26340043608747488
-4.4775,0.26706016071283589
-4.4762500000000003,0.26706016071283589
-4.4749999999999996,0.27071988533819685
-4.4737499999999999,0.27071988533819685
-4.4725000000000001,0.27071988533819685
-4.4712500000000004,0.26706016071283756
-4.4699999999999998,0.26706016071283589
-4.46875,0.26340043608747488
-4.4675000000000002,0.26340043608747488
-4.4662499999999996,0.25974071146211225
-4.4649999999999999,0.25608098683675296
-4.4637500000000001,0.25242126221139199
-4.4625000000000004,0.24510181296067335
-4.4612499999999997,0.23778236370994807
-4.46,0.23046291445922615
-4.4587500000000002,0.21948374058314321
-4.4574999999999996,0.21216429133241793
-4.4562499999999998,0.20484484208169931
-4.4550000000000001,0.19752539283097736
-4.4537500000000003,0.19020594358025877
-4.4524999999999997,0.17922676970416918
-4.4512499999999999,0.17190732045345056
-4.4500000000000002,0.16092814657736765
-4.4487500000000004,0.15360869732664903
-4.4474999999999998,0.14628924807592375
-4.44625,0.1389697988252018
-4.4450000000000003,0.12799062494911889
-4.4437499999999996,0.11701145107303264
-4.4424999999999999,0.10969200182231402
-4.4412500000000001,0.098712827946231096
-4.4400000000000004,0.091393378695512492
-4.4387499999999998,0.084073929444787213
-4.4375,0.076754480194065264
-4.4362500000000002,0.069435030943343315
-4.4349999999999996,0.058455857067253744
-4.4337499999999999,0.043816958565816508
-4.4325000000000001,0.029178060064372614
-4.4312500000000004,0.018198886188294686
-4.4299999999999997,0.0035599876868458017
-4.42875,-0.0074191861892371177
-4.4275000000000002,-0.014738635439959064
-4.4262499999999996,-0.025717809316046975
-4.4249999999999998,-0.036696983192124902
-4.4237500000000001,-0.047676157068207825
-4.4225000000000003,-0.058655330944285752
-4.4212499999999997,-0.069634504820378654
-4.4199999999999999,-0.080613678696456581
-4.4187500000000002,-0.091592852572539504
-4.4175000000000004,-0.10257202644861742
-4.4162499999999998,-0.10989147569934436
-4.415,-0.11721092495006631
-4.4137500000000003,-0.12453037420078826
-4.4124999999999996,-0.13184982345151353
-4.4112499999999999,-0.13916927270223214
-4.4100000000000001,-0.14282899732759313
-4.4087500000000004,-0.14648872195295243
-4.4074999999999998,-0.14648872195295409
-4.40625,-0.14648872195295409
-4.4050000000000002,-0.14282899732759313
-4.4037499999999996,-0.1428289973275898
-4.4024999999999999,-0.13550954807687118
-4.4012500000000001,-0.1318498234515102
-4.4000000000000004,-0.1318498234515102
-4.3987499999999997,-0.1318498234515102
-4.3975,-0.12819009882614923
-4.3962500000000002,-0.12453037420078826
-4.3949999999999996,-0.12087064957542562
-4.3937499999999998,-0.11721092495006631
-4.3925000000000001,-0.10989147569934436
-4.3912500000000003,-0.10257202644862574
-4.3899999999999997,-0.095252577197897148
-4.3887499999999999,-0.08793312794717853
-4.3875000000000002,-0.076953954071095607
-4.3862500000000004,-0.073294229445736298
-4.3849999999999998,-0.065974780195012683
-4.38375,-0.062315055569651716
-4.3825000000000003,-0.058655330944290741
-4.3812499999999996,-0.054995606318928102
