Pulse Oximeter/pulse.csv

#Digilent WaveForms Oscilloscope Acquisition
#Device Name: Discovery2
#Serial Number: SN:210321A189D7
#Date Time: 2018-10-26 16:01:36.446
#Sample rate: 1333.33Hz
#Samples: 8192
#Trigger: Source: Channel 1 Type: Edge Condition: Rising Level: 0 V Hyst.: Auto HoldOff: 0 s
#Channel 2: Range: 500 mV/div Offset: 0 V

Time (s),Channel 2 (V)
-3.0705,0.0036748288645773084
-3.06975,0.0040076027178368775
-3.069,0.0040076027178368775
-3.0682499999999999,0.0050059242776154343
-3.0675000000000003,0.0046731504243561674
-3.0667500000000003,0.0043403765710965971
-3.0660000000000003,0.0033420550113177393
-3.0652500000000003,0.0046731504243560157
-3.0645000000000002,0.0040076027178368775
-3.0637500000000002,0.0030092811580581702
-3.0630000000000002,0.0030092811580581702
-3.0622500000000001,0.0030092811580581702
-3.0615000000000001,0.0030092811580581702
-3.0607500000000001,0.0030092811580581702
-3.0600000000000001,0.0016781857450198939
-3.05925,0.002010959598279463
-3.0585,0.002010959598279463
-3.05775,0.002343733451539032
-3.0569999999999999,0.0020109595982796143
-3.0562499999999999,0.002343733451539032
-3.0555000000000003,0.002343733451539032
-3.0547500000000003,0.002343733451539032
-3.0540000000000003,0.002010959598279463
-3.0532500000000002,0.002010959598279463
-3.0525000000000002,0.0026765073047986011
-3.0517500000000002,0.0013454118917603248
-3.0510000000000002,0.0013454118917603248
-3.0502500000000001,0.0016781857450198939
-3.0495000000000001,0.0010126380385007557
-3.0487500000000001,0.0010126380385007557
-3.048,-0.00031845737453752064
-3.04725,0.00067986418524118662
-3.0465,0.00034709033198161753
-3.04575,-0.00031845737453752064
-3.0449999999999999,-0.00065123122779708973
-3.0442499999999999,-0.000651231227798149
-3.0435000000000003,-0.0029806482006130139
-3.0427500000000003,-0.0033134220538734911
-3.0420000000000003,-0.0033134220538736424
-3.0412500000000002,-0.0039789697603927806
-3.0405000000000002,-0.0033134220538736424
-3.0397500000000002,-0.0029806482006140733
-3.0390000000000001,-0.0029806482006140733
-3.0382500000000001,-0.0029806482006140733
-3.0375000000000001,-0.0036461959071332115
-3.0367500000000001,-0.0036461959071332115
-3.036,-0.0046445174669119188
-3.03525,-0.0043117436136523492
-3.0345,-0.0046445174669119188
-3.0337499999999999,-0.0043117436136523492
-3.0329999999999999,-0.0046445174669122215
-3.0322500000000003,-0.0053100651734307542
-3.0315000000000003,-0.0059756128799498924
-3.0307500000000003,-0.0053100651734310569
-3.0300000000000002,-0.0056428390266906256
-3.0292500000000002,-0.0059756128799501951
-3.0285000000000002,-0.0069739344397289019
-3.0277500000000002,-0.0066411605864693333
-3.0270000000000001,-0.0049772913201714883
-3.0262500000000001,-0.0059756128799501951
-3.0255000000000001,-0.0069739344397289019
-3.02475,-0.0063083867332097646
-3.024,-0.0059756128799501951
-3.02325,-0.0059756128799501951
-3.0225,-0.0053100651734310569
-3.0217499999999999,-0.0046445174669116161
-3.0209999999999999,-0.003978969760392327
-3.0202500000000003,-0.0029806482006145274
-3.0195000000000003,-0.0026478743473546556
-3.0187500000000003,-0.0019823266408353661
-3.0180000000000002,-0.0013167789343162279
-3.0172500000000002,-0.00098400508105665882
-3.0165000000000002,1.4316478722048442e-05
-3.0157500000000002,0.00067986418524118662
-3.0150000000000001,0.0010126380385007557
-3.0142500000000001,1.4316478722048442e-05
-3.0135000000000001,0.00034709033198161753
-3.01275,0.0013454118917603248
-3.012,0.0026765073047986011
-3.01125,0.0036748288645773084
-3.0105,0.0036748288645773084
-3.0097499999999999,0.0050059242776155852
-3.0089999999999999,0.0050059242776154343
-3.0082500000000003,0.0046731504243561674
-3.0075000000000003,0.0066697935439134302
-3.0067500000000003,0.0076681151036921379
-3.0060000000000002,0.0096647582232495515
-3.0052500000000002,0.0096647582232495515
-3.0045000000000002,0.010330305929768691
-3.0037500000000001,0.011661401342806967
-3.0030000000000001,0.012659722902585675
-3.0022500000000001,0.013658044462364381
-3.0015000000000001,0.014989139875402657
-3.00075,0.015321913728662227
-3,0.015987461435181365
-2.99925,0.017651330701479211
-2.9984999999999999,0.018316878407998349
-2.9977499999999999,0.019315199967777658
-2.9970000000000003,0.020646295380814729
-2.9962500000000003,0.021311843087334168
-2.9955000000000003,0.021977390793853607
-2.9947500000000002,0.022642938500372745
-2.9940000000000002,0.023641260060151454
-2.9932500000000002,0.025305129326449301
-2.9925000000000002,0.026968998592747144
-2.9917500000000001,0.027634546299266281
-2.9910000000000001,0.028965641712304559
-2.9902500000000001,0.030296737125342834
-2.9895,0.031960606391640681
-2.98875,0.033291701804678955
-2.988,0.034290023364457661
-2.98725,0.03628666648401508
-2.9864999999999999,0.038283309603572943
-2.9857499999999999,0.039281631163351503
-2.9850000000000003,0.039947178869870037
-2.9842500000000003,0.040612726576389174
-2.9835000000000003,0.042276595842687323
-2.9827500000000002,0.04294214354920646
-2.9820000000000002,0.044273238962244735
-2.9812500000000002,0.045937108228542585
-2.9805000000000001,0.046602655935061722
-2.9797500000000001,0.04726820364158086
-2.9790000000000001,0.048932072907878703
-2.9782500000000001,0.050928716027436122
-2.9775,0.051927037587214828
-2.97675,0.052925359146993534
-2.976,0.054256454560031808
-2.97525,0.055587549973070083
-2.9744999999999999,0.055587549973070534
-2.9737499999999999,0.056585871532849705
-2.9730000000000003,0.058582514652405299
-2.9722500000000003,0.059913610065444482
-2.9715000000000003,0.061910253185001901
-2.9707500000000002,0.062908574744780607
-2.9700000000000002,0.063241348598040176
-2.9692500000000002,0.063574122451299744
-2.9685000000000001,0.065237991717597588
-2.9677500000000001,0.066236313277376294
-2.9670000000000001,0.065570765570857156
-2.9662500000000001,0.065903539424116725
-2.9655,0.067234634837155
-2.96475,0.066901860983895431
-2.964,0.066901860983895431
-2.9632499999999999,0.067234634837154847
-2.9624999999999999,0.066901860983895584
-2.9617500000000003,0.067234634837154847
-2.9610000000000003,0.067900182543673832
-2.9602500000000003,0.066901860983895431
-2.9595000000000002,0.066901860983895431
-2.9587500000000002,0.066569087130635862
-2.9580000000000002,0.066569087130635862
-2.9572500000000002,0.065237991717597588
-2.9565000000000001,0.065237991717597588
-2.9557500000000001,0.06457244401107845
-2.9550000000000001,0.06457244401107845
-2.95425,0.06457244401107845
-2.9535,0.063574122451299744
-2.95275,0.063241348598040176
-2.952,0.062575800891521038
-2.9512499999999999,0.062243027038261622
-2.9504999999999999,0.062575800891520136
-2.9497500000000003,0.060579157771964529
-2.9490000000000003,0.060246383918704204
-2.9482500000000003,0.058582514652406208
-2.9475000000000002,0.057251419239367933
-2.9467500000000002,0.055920323826329651
-2.9460000000000002,0.054256454560031808
-2.9452500000000001,0.05392368070677224
-2.9445000000000001,0.053258133000253102
-2.9437500000000001,0.050263168320916977
-2.9430000000000001,0.04959762061439784
-2.94225,0.048266525201359566
-2.9415,0.048599299054619134
-2.94075,0.045937108228542585
-2.9399999999999999,0.044938786668763872
-2.9392499999999999,0.044273238962244131
-2.9384999999999999,0.042942143549205856
-2.9377500000000003,0.041611048136168789
-2.9370000000000003,0.04061272657638948
-2.9362500000000002,0.039947178869870342
-2.9355000000000002,0.038616083456832061
-2.9347500000000002,0.037284988043793786
-2.9340000000000002,0.035953892630755512
-2.9332500000000001,0.034955571070976806
-2.9325000000000001,0.034290023364457661
-2.9317500000000001,0.031627832538381112
-2.931,0.029963963272083265
-2.93025,0.028632867859044991
-2.9295,0.026968998592747144
-2.92875,0.025637903179708869
-2.9279999999999999,0.023641260060151152
-2.9272499999999999,0.022975712353631713
-2.9265000000000003,0.021644616940594642
-2.9257500000000003,0.021311843087334623
-2.9250000000000003,0.019647973821036623
-2.9242500000000002,0.018649652261257917
-2.9235000000000002,0.017318556848219639
-2.9227500000000002,0.015654687581921796
-2.9220000000000002,0.015321913728662227
-2.9212500000000001,0.015321913728662227
-2.9205000000000001,0.014989139875402657
-2.9197500000000001,0.01432359216888352
-2.919,0.013990818315623949
-2.91825,0.013325270609104812
-2.9175,0.01432359216888352
-2.91675,0.012326949049326104
-2.9159999999999999,0.011661401342806512
-2.9152499999999999,0.010663079783028108
-2.9145000000000003,0.010330305929768841
-2.9137500000000003,0.010330305929768691
-2.9130000000000003,0.0096647582232495515
-2.9122500000000002,0.0093319843699899829
-2.9115000000000002,0.010663079783028259
-2.9107500000000002,0.0096647582232495515
-2.9100000000000001,0.0089992105167304142
-2.9092500000000001,0.010330305929768691
-2.9085000000000001,0.010330305929768691
-2.9077500000000001,0.010330305929768691
-2.907,0.0096647582232495515
-2.90625,0.010330305929768691
-2.9055,0.011661401342806967
-2.9047499999999999,0.011661401342806967
-2.9039999999999999,0.012326949049326861
-2.9032499999999999,0.013990818315623949
-2.9025000000000003,0.013990818315623949
-2.9017500000000003,0.014989139875402657
-2.9010000000000002,0.015654687581921796
-2.9002500000000002,0.015987461435181365
-2.8995000000000002,0.015987461435181365
-2.8987500000000002,0.016320235288440933
-2.8980000000000001,0.016653009141700502
-2.8972500000000001,0.018316878407998349
-2.8965000000000001,0.019315199967777055
-2.89575,0.019647973821036623
-2.895,0.020979069234074901
-2.89425,0.019647973821036623
-2.8935,0.021644616940594039
-2.8927499999999999,0.02164461694059434
-2.8919999999999999,0.02231016464711378
-2.8912500000000003,0.023641260060150847
-2.8905000000000003,0.024306807766670289
-2.8897500000000003,0.024972355473189729
-2.8890000000000002,0.026303450886228007
-2.8882500000000002,0.027301772446006713
-2.8875000000000002,0.02796732015252585
-2.8867500000000001,0.029298415565564128
-2.8860000000000001,0.028965641712304559
-2.8852500000000001,0.030296737125342834
-2.8845000000000001,0.030296737125342834
-2.88375,0.030296737125342834
-2.883,0.031960606391640681
-2.88225,0.032626154098159818
-2.8815,0.033291701804678955
-2.8807499999999999,0.034290023364458112
-2.8799999999999999,0.035288344924236374
-2.8792500000000003,0.035288344924236374
-2.8785000000000003,0.036286666484014629
-2.8777500000000003,0.037284988043793786
-2.8770000000000002,0.038616083456832061
-2.8762500000000002,0.039281631163351198
-2.8755000000000002,0.039281631163351198
-2.8747500000000001,0.041278274282908617
-2.8740000000000001,0.041611048136168186
-2.8732500000000001,0.042609369695946891
-2.8725000000000001,0.043274917402466029
-2.87175,0.043607691255725597
-2.871,0.046935429788321291
-2.87025,0.047600977494840428
-2.8694999999999999,0.048599299054619134
-2.8687499999999999,0.049597620614398444
-2.8680000000000003,0.050928716027435518
-2.8672500000000003,0.051927037587214377
-2.8665000000000003,0.053590906853512671
-2.8657500000000002,0.054922002266550946
-2.8650000000000002,0.055254776119810514
-2.8642500000000002,0.056918645386108364
-2.8635000000000002,0.056253097679589227
-2.8627500000000001,0.057251419239367933
-2.8620000000000001,0.059580836212184914
-2.8612500000000001,0.059580836212184914
-2.8605,0.060246383918704051
-2.85975,0.06057915777196362
-2.859,0.062908574744780607
-2.85825,0.063241348598040176
-2.8574999999999999,0.064905217864338324
-2.8567499999999999,0.065570765570857156
-2.8560000000000003,0.065570765570857156
-2.8552500000000003,0.067234634837154236
-2.8545000000000003,0.067900182543674137
-2.8537500000000002,0.069896825663231563
-2.8530000000000002,0.070895147223010269
-2.8522500000000002,0.071227921076269837
-2.8515000000000001,0.073557338049086818
-2.8507500000000001,0.072559016489308112
-2.8500000000000001,0.073224564195827249
-2.8492500000000001,0.074222885755605955
-2.8485,0.074222885755605955
-2.84775,0.073557338049086818
-2.847,0.074555659608865524
-2.8462499999999999,0.073224564195827249
-2.8454999999999999,0.073890111902346692
-2.8447499999999999,0.074555659608865066
-2.8440000000000003,0.073557338049087276
-2.8432500000000003,0.073890111902346234
-2.8425000000000002,0.071893468782788975
-2.8417500000000002,0.072559016489308112
-2.8410000000000002,0.072891790342567681
-2.8402500000000002,0.072891790342567681
-2.8395000000000001,0.072226242636048543
-2.8387500000000001,0.071893468782788975
-2.8380000000000001,0.071893468782788975
-2.83725,0.072226242636048543
-2.8365,0.072891790342567681
-2.83575,0.071560694929529406
-2.835,0.071227921076269837
-2.8342499999999999,0.0705623733697507
-2.8334999999999999,0.068565730250193122
-2.8327500000000003,0.068232956396933858
-2.8320000000000003,0.066901860983896042
-2.8312500000000003,0.065237991717597588
-2.8305000000000002,0.064239670157818882
-2.8297500000000002,0.062908574744780607
-2.8290000000000002,0.061577479331742332
-2.8282500000000002,0.06224302703826147
-2.8275000000000001,0.061244705478482764
-2.8267500000000001,0.059580836212184914
-2.8260000000000001,0.058249740799146639
-2.82525,0.056918645386108364
-2.8245,0.055587549973070083
-2.82375,0.054922002266550946
-2.823,0.053258133000253102
-2.8222499999999999,0.052925359146992777
-2.8214999999999999,0.051261489880694934
-2.8207500000000003,0.049597620614398596
-2.8200000000000003,0.048599299054619585
-2.8192500000000003,0.046935429788321291
-2.8185000000000002,0.045604334375283016
-2.8177500000000002,0.044273238962244735
-2.8170000000000002,0.04294214354920646
-2.8162500000000001,0.041278274282908617
-2.8155000000000001,0.040279952723129911
-2.8147500000000001,0.037950535750312923
-2.8140000000000001,0.03628666648401508
-2.81325,0.034290023364457661
-2.8125,0.031960606391640681
-2.81175,0.030296737125342834
-2.8109999999999999,0.029298415565564128
-2.8102499999999999,0.0273017724460052
-2.8094999999999999,0.023974033913410419
-2.8087500000000003,0.022642938500373348
-2.8080000000000003,0.020979069234075658
-2.8072500000000002,0.018649652261257917
-2.8065000000000002,0.01798410455473878
-2.8057500000000002,0.015987461435181365
-2.8050000000000002,0.013990818315623949
-2.8042500000000001,0.012659722902585675
-2.8035000000000001,0.010330305929768691
-2.8027500000000001,0.0086664366634708438
-2.802,0.0066697935439134302
-2.80125,0.006004245837394292
-2.8005,0.0036748288645773084
-2.79975,0.0030092811580581702
-2.7989999999999999,1.4316478722048442e-05
-2.7982499999999999,-0.0033134220538742478
-2.7975000000000003,-0.0046445174669113133
-2.7967500000000003,-0.006973934439727842
-2.7960000000000003,-0.009303351412545886
-2.7952500000000002,-0.010634446825584162
-2.7945000000000002,-0.013962185358179852
-2.7937500000000002,-0.016624376184256405
-2.7930000000000001,-0.01862101930381382
-2.7922500000000001,-0.020950436276630804
-2.7915000000000001,-0.022614305542928648
-2.7907500000000001,-0.024610948662486063
-2.79,-0.026940365635303047
-2.78925,-0.027938687195081753
-2.7885,-0.029935330314639168
-2.78775,-0.031599199580937015
-2.7869999999999999,-0.034261390407014168
-2.7862499999999999,-0.035592485820052602
-2.7855000000000003,-0.037256355086348933
-2.7847500000000003,-0.03858745049938736
-2.7840000000000003,-0.040916867472204951
-2.7832500000000002,-0.042913510591762363
-2.7825000000000002,-0.045908475271098488
-2.7817500000000002,-0.047239570684136763
-2.7810000000000001,-0.048570666097175037
-2.7802500000000001,-0.050567309216732456
-2.7795000000000001,-0.053229500042809005
-2.7787500000000001,-0.055891690868885555
-2.778,-0.057555560135183405
-2.77725,-0.059884977108000385
-2.7765,-0.062214394080817373
-2.7757499999999999,-0.064876584906893922
-2.7749999999999999,-0.065209358760154698
-2.7742499999999999,-0.067871549586230942
-2.7735000000000003,-0.069868192705786564
-2.7727500000000003,-0.071532061972085309
-2.7720000000000002,-0.07386147894490229
-2.7712500000000002,-0.075192574357940564
-2.7705000000000002,-0.077521991330757545
-2.7697500000000002,-0.079185860597055388
-2.7690000000000001,-0.081515277569872382
-2.7682500000000001,-0.083844694542689363
-2.7675000000000001,-0.085508563808987206
-2.76675,-0.087505206928544618
-2.766,-0.08950185004810203
-2.76525,-0.092496814727438162
-2.7645,-0.09549177940677428
-2.7637499999999999,-0.097155648673073178
-2.7629999999999999,-0.099485065645890616
-2.7622500000000003,-0.10281280417848329
-2.7615000000000003,-0.10547499500456015
-2.7607500000000003,-0.10780441197737833
-2.7600000000000002,-0.11046660280345488
-2.7592500000000002,-0.11246324592301231
-2.7585000000000002,-0.11479266289582929
-2.7577500000000001,-0.11745485372190584
-2.7570000000000001,-0.11945149684146325
-2.7562500000000001,-0.12144813996102066
-2.7555000000000001,-0.12444310464035679
-2.75475,-0.12610697390665462
-2.754,-0.1274380693196929
-2.75325,-0.12976748629250989
-2.7524999999999999,-0.1317641294120673
-2.7517499999999999,-0.13442632023814521
-2.7509999999999999,-0.13742128491748104
-2.7502500000000003,-0.13975070189029593
-2.7495000000000003,-0.14174734500985348
-2.7487500000000002,-0.14440953583593094
-2.7480000000000002,-0.14707172666200749
-2.7472500000000002,-0.1490683697815649
-2.7465000000000002,-0.15173056060764145
-2.7457500000000001,-0.15505829914023714
-2.7450000000000001,-0.15838603767283282
-2.7442500000000001,-0.16071545464564982
-2.7435,-0.16371041932498595
-2.74275,-0.16504151473802423
-2.742,-0.16770370556410077
-2.74125,-0.17069867024343691
-2.7404999999999999,-0.17336086106951346
-2.7397499999999999,-0.17668859960211006
-2.7389999999999999,-0.17868524272166761
-2.7382500000000003,-0.18101465969448247
-2.7375000000000003,-0.1836768505205601
-2.7367500000000002,-0.18567349364011751
-2.7360000000000002,-0.18800291061293448
-2.7352500000000002,-0.19066510143901103
-2.7345000000000002,-0.19465838767812588
-2.7337500000000001,-0.19665503079768329
-2.7330000000000001,-0.19998276933027898
-2.7322500000000001,-0.20231218630309597
-2.7315,-0.20464160327591294
-2.73075,-0.20863488951502776
-2.73,-0.21196262804762345
-2.72925,-0.2136264973139213
-2.7284999999999999,-0.21628868813999907
-2.7277499999999999,-0.21895087896607501
-2.7270000000000003,-0.22028197437911207
-2.7262500000000003,-0.22394248676496628
-2.7255000000000003,-0.22760299915082322
-2.7247500000000002,-0.23026518997689976
-2.7240000000000002,-0.23259460694971673
-2.7232500000000002,-0.23459125006927417
-2.7225000000000001,-0.23725344089535072
-2.7217500000000001,-0.23991563172142727
-2.7210000000000001,-0.24224504869424424
-2.7202500000000001,-0.24457446566706123
-2.7195,-0.24623833493335909
-2.71875,-0.24890052575943564
-2.718,-0.25122994273225263
-2.7172499999999999,-0.25289381199855043
-2.7164999999999999,-0.25522322897136862
-2.7157499999999999,-0.25788541979744484
-2.7150000000000003,-0.25988206291700056
-2.7142500000000003,-0.26187870603655794
-2.7135000000000002,-0.26420812300937579
-2.7127500000000002,-0.26620476612893318
-2.7120000000000002,-0.26853418310175026
-2.7112500000000002,-0.26986527851478848
-2.7105000000000001,-0.27186192163434586
-2.7097500000000001,-0.27518966016694157
-2.7090000000000001,-0.27685352943323938
-2.70825,-0.27785185099301812
-2.7075,-0.28051404181909467
-2.70675,-0.28217791108539259
-2.706,-0.28417455420494997
-2.7052499999999999,-0.28484010191146913
-2.7044999999999999,-0.28650397117776771
-2.7037499999999999,-0.2881678404440649
-2.7030000000000003,-0.28850061429732415
-2.7022500000000003,-0.29016448356362223
-2.7015000000000002,-0.29182835282992003
-2.7007500000000002,-0.29349222209621784
-2.7000000000000002,-0.29449054365599658
-2.6992500000000001,-0.29615441292229439
-2.6985000000000001,-0.29715273448207313
-2.6977500000000001,-0.2978182821885923
-2.6970000000000001,-0.29815105604185188
-2.69625,-0.30048047301466885
-2.6955,-0.30147879457444759
-2.69475,-0.30181156842770707
-2.694,-0.3031426638407454
-2.6932499999999999,-0.30347543769400526
-2.6924999999999999,-0.30414098540052442
-2.6917500000000003,-0.30480653310704292
-2.6910000000000003,-0.30547208081356209
-2.6902500000000003,-0.30647040237334111
-2.6895000000000002,-0.30613762852008153
-2.6887500000000002,-0.30580485466682195
