EKG/Pulse.csv

#Digilent WaveForms Oscilloscope Acquisition
#Device Name: Discovery2
#Serial Number: SN:210321A2ABA7
#Date Time: 2018-10-02 15:24:39.445
#Sample rate: 2666.67Hz
#Samples: 8192
#Trigger: Source: Channel 1 Type: Edge Condition: Rising Level: 0 V Hyst.: Auto HoldOff: 0 s
#Channel 2: Range: 200 mV/div Offset: -116 mV

Time (s),Channel 2 (V)
-1.54125,-0.098718365701004729
-1.540875,-0.1097754316473584
-1.5405,-0.11949224717597223
-1.540125,-0.12719868707797904
-1.5397500000000002,-0.13322981395780281
-1.5393750000000002,-0.13725056521102325
-1.5390000000000001,-0.13959600344206979
-1.5386250000000001,-0.13926094083763485
-1.5382500000000001,-0.13725056521102508
-1.5378750000000001,-0.13255968874893564
-1.5375000000000001,-0.12585843666023644
-1.5371250000000001,-0.11748187154936246
-1.5367500000000001,-0.10742999341631368
-1.536375,-0.096037864865525069
-1.536,-0.083640548501431572
-1.535625,-0.070908169532903104
-1.53525,-0.056835540146634833
-1.534875,-0.042762910760366535
-1.5345,-0.027685093560786647
-1.534125,-0.012942338965648156
-1.5337500000000002,0.0024705408383459693
-1.5333750000000002,0.017213295433484488
-1.5330000000000001,0.031956050028629404
-1.5326250000000001,0.045693616810462731
-1.5322500000000001,0.05876105838342615
-1.5318750000000001,0.070153186934214767
-1.5315000000000001,0.07987000246282859
-1.5311250000000001,0.087911504969267612
-1.5307500000000001,0.093607569244661917
-1.530375,0.096958195289011506
-1.53,0.097963383102316393
-1.529625,0.096958195289011506
-1.52925,0.094277694453531846
-1.528875,0.089251755387007442
-1.5285,0.082550503298304309
-1.528125,0.073838875582994595
-1.5277500000000002,0.063451934845520308
-1.5273750000000001,0.051389681085862518
-1.5270000000000001,0.037987176908458667
-1.5266250000000001,0.023244422313320454
-1.5262500000000001,0.0078315425093123253
-1.5258750000000001,-0.007581337294695803
-1.5255000000000001,-0.022659154494268974
-1.5251250000000001,-0.037736971693842131
-1.52475,-0.052479726288980344
-1.524375,-0.066552355675248642
-1.524,-0.079954859852647026
-1.523625,-0.092017113612305551
-1.52325,-0.10206899174535433
-1.522875,-0.1097754316473584
-1.5225,-0.11513643331831912
-1.5221250000000002,-0.118151996758231
-1.5217500000000002,-0.11848705936266719
-1.5213750000000001,-0.1164766837360576
-1.5210000000000001,-0.11245593248283808
-1.5206250000000001,-0.10642480560300882
-1.5202500000000001,-0.098718365701004729
-1.5198750000000001,-0.089671675381260835
-1.5195000000000001,-0.079284734643777111
-1.5191250000000001,-0.067557543488553529
-1.51875,-0.054490101915590117
-1.518375,-0.040082409924886847
-1.518,-0.024669530120878719
-1.517625,-0.0085865251080006755
-1.51725,0.0081666051137472828
-1.516875,0.024919735335502874
-1.5165,0.041672865557250541
-1.5161250000000002,0.057755870570113957
-1.5157500000000002,0.073503812978557209
-1.5153750000000001,0.087911504969267612
-1.5150000000000001,0.10097894654223102
-1.5146250000000001,0.11237107509301965
-1.5142500000000001,0.12108270280832859
-1.5138750000000001,0.12744889229259282
-1.5135000000000001,0.13079951833694242
-1.5131250000000001,0.13046445573250745
-1.51275,0.12711382968815785
-1.512375,0.12108270280832859
-1.512,0.11203601248858469
-1.511625,0.10164907175110094
-1.51125,0.089251755387007442
-1.510875,0.075514188605167412
-1.5105,0.060771434010028894
-1.5101250000000002,0.045358554206034782
-1.5097500000000001,0.028940486588714773
-1.5093750000000001,0.012522418971401758
-1.5090000000000001,-0.0045657738547811716
-1.5086250000000001,-0.021318904076529144
-1.5082500000000001,-0.037066846484972216
-1.5078750000000001,-0.051809601080110429
-1.5075000000000001,-0.065547167861943756
-1.507125,-0.077274359017167338
-1.50675,-0.086656111941346203
-1.506375,-0.093692426634480352
-1.506,-0.098048240492134814
-1.505625,-0.099723553514309615
-1.50525,-0.098383303096569785
-1.504875,-0.094027489238912423
-1.5045000000000002,-0.08766129975465399
-1.5041250000000002,-0.079284734643780913
-1.5037500000000001,-0.068897793906293359
-1.5033750000000001,-0.056835540146634833
-1.5030000000000001,-0.04343303596923645
-1.5026250000000001,-0.029360406582968152
-1.5022500000000001,-0.014282589383394995
-1.5018750000000001,0.0011302904206131476
-1.5015000000000001,0.016208107620186318
-1.501125,0.03061579961088956
-1.50075,0.044353366392722901
-1.500375,0.057085745361251355
-1.5,0.068812936516474937
-1.499625,0.079534939858393633
-1.49925,0.088581630178141191
-1.498875,0.096623132684579616
-1.4985000000000002,0.10332438477327269
-1.4981250000000002,0.10902044904866745
-1.4977500000000001,0.11304120030188956
-1.4973750000000001,0.11538663853293428
-1.4970000000000001,0.11605676374180419
-1.4966250000000001,0.11505157592849932
-1.4962500000000001,0.11170094988414972
-1.4958750000000001,0.10701007342206029
-1.4955000000000001,0.10030882133336111
-1.495125,0.091597193618052158
-1.49475,0.080875190276133463
-1.494375,0.068812936516474937
-1.494,0.055410432339076554
-1.493625,0.041672865557243227
-1.49325,0.027265173566533421
-1.492875,0.012857481575830469
-1.4925000000000002,-0.00088008520599036459
-1.4921250000000001,-0.014282589383394995
-1.4917500000000001,-0.026679905747488492
-1.4913750000000001,-0.038072034298277102
-1.4910000000000001,-0.048123912431325883
-1.4906250000000001,-0.056500477542199862
-1.4902500000000001,-0.063536792235334011
-1.4898750000000001,-0.068897793906293359
-1.4895,-0.072248419950642961
-1.489125,-0.073923732972817763
-1.48875,-0.073923732972817763
-1.488375,-0.07191335734620799
-1.488,-0.067892606092988472
-1.487625,-0.062196541817590982
-1.48725,-0.05516022712445607
-1.4868750000000002,-0.046448599409155043
-1.4865000000000002,-0.036396721276106873
-1.4861250000000001,-0.025339655329748634
-1.4857500000000001,-0.013947526778960023
-1.4853750000000001,-0.0022203356237364552
-1.4850000000000001,0.0098419181359220842
-1.4846250000000001,0.021904171895580624
-1.4842500000000001,0.034301488259674121
-1.4838750000000001,0.047033867228202575
-1.4835,0.059766246196731029
-1.483125,0.072498625165259484
-1.48275,0.084560878924918023
-1.482375,0.095617944871271676
-1.482,0.10566982300432046
-1.481625,0.1143814507196329
-1.48125,0.12208789062163591
-1.4808750000000002,0.12744889229259038
-1.4805000000000001,0.1307995183369409
-1.4801250000000001,0.13213976875468225
-1.4797500000000001,0.13079951833694242
-1.4793750000000001,0.12744889229259282
-1.4790000000000001,0.12141776541276354
-1.4786250000000001,0.11304120030188956
-1.4782500000000001,0.10298932216884078
-1.477875,0.091262131013617201
-1.4775,0.078529752045088747
-1.477125,0.064457122658820448
-1.47675,0.050049430668117206
-1.476375,0.035306676072978993
-1.476,0.020898984082275737
-1.475625,0.007161417300436468
-1.47525,-0.0059060242725269439
-1.4748750000000002,-0.018973465845478484
-1.4745000000000001,-0.030700657000708009
-1.4741250000000001,-0.041757722947061648
-1.4737500000000001,-0.051809601080110429
-1.4733750000000001,-0.060521228795419379
-1.4730000000000001,-0.067892606092988472
-1.4726250000000001,-0.073588670368382791
-1.4722500000000001,-0.077274359017167338
-1.471875,-0.078279546830472224
-1.4715,-0.076939296412732394
-1.471125,-0.07325360776394782
-1.47075,-0.066887418279683614
-1.470375,-0.058510853168809634
-1.47,-0.047788849826885423
-1.469625,-0.035726596067226141
-1.4692500000000002,-0.021989029285405304
-1.4688750000000002,-0.0072462746902675502
-1.4685000000000001,0.0085016677181822542
-1.4681250000000001,0.024919735335495255
-1.4677500000000001,0.041672865557243227
-1.4673750000000001,0.05876105838342615
-1.4670000000000001,0.075514188605174115
-1.4666250000000001,0.09193225622248713
-1.4662500000000001,0.10801526123536517
-1.465875,0.12275801583050339
-1.4655,0.13616052000790174
-1.465125,0.14755264855869038
-1.46475,0.15693440148286925
-1.464375,0.16397071617600339
-1.464,0.16866159263809374
-1.463625,0.17067196826470271
-1.4632500000000002,0.17100703086913741
-1.4628750000000001,0.16866159263809388
-1.4625000000000001,0.16464084138487331
-1.4621250000000001,0.15860971450504402
-1.4617500000000001,0.15056821199860501
-1.4613750000000001,0.14051633386555623
-1.4610000000000001,0.12845408010589771
-1.4606250000000001,0.11471651332406436
-1.46025,0.099638696124491194
-1.459875,0.082550503298308264
-1.4595,0.064457122658820448
-1.459125,0.045693616810462731
-1.45875,0.026595048357670056
-1.458375,0.0071614173004424103
-1.458,-0.011937151152358811
-1.4576249999999999,-0.030700657000715781
-1.4572500000000002,-0.04778884982688314
-1.4568750000000001,-0.063536792235334011
-1.4565000000000001,-0.077609421621602309
-1.4561250000000001,-0.089336612776825891
-1.4557500000000001,-0.0990534283054397
-1.4553750000000001,-0.10575468039413888
-1.4550000000000001,-0.10944036904292345
-1.4546250000000001,-0.11044555685622831
-1.45425,-0.10843518122961857
-1.453875,-0.10340924216309416
-1.4535,-0.095702802261090097
-1.453125,-0.085985986732476288
-1.45275,-0.074258795577252706
-1.452375,-0.060186166190977247
-1.452,-0.04443822378253387
-1.4516250000000002,-0.028020156165235788
-1.4512500000000002,-0.010261838130183554
-1.4508750000000001,0.0078315425093123253
-1.4505000000000001,0.02558986054436517
-1.4501250000000001,0.043348178579418015
-1.4497500000000001,0.060771434010035902
-1.4493750000000001,0.076854439022913945
-1.4490000000000001,0.09193225622248713
-1.4486250000000001,0.10566982300432046
-1.44825,0.117732076763979
-1.447875,0.12711382968815785
-1.4475,0.13381508177685705
-1.447125,0.13783583303007654
-1.44675,0.13884102084338143
-1.446375,0.13750077042563993
-1.446,0.13381508177685447
-1.4456250000000002,0.12811901750146532
-1.4452500000000001,0.12108270280833179
-1.4448750000000001,0.11203601248858469
-1.4445000000000001,0.10198413435553591
-1.4441250000000001,0.090592005804747286
-1.4437500000000001,0.077859626836218832
-1.4433750000000001,0.064457122658820448
-1.4430000000000001,0.050719555876987121
-1.442625,0.036646926490718837
-1.44225,0.022239234500015581
-1.441875,0.0088367303226172117
-1.4415,-0.0038956486459112427
-1.441125,-0.015957902405569796
-1.44075,-0.027014968351923435
-1.440375,-0.03639672127610611
-1.4400000000000002,-0.04477328638697247
-1.4396250000000002,-0.05247972628897684
-1.4392500000000001,-0.059180978377679549
-1.4388750000000001,-0.064541980048638897
-1.4385000000000001,-0.06923285651072833
-1.4381250000000001,-0.072583482555077905
-1.4377500000000001,-0.074593858181687678
-1.4373750000000001,-0.074928920786122621
-1.4370000000000001,-0.07325360776394782
-1.436625,-0.069567919115163274
-1.43625,-0.063871854839768982
-1.435875,-0.056835540146634833
-1.4355,-0.048123912431325883
-1.435125,-0.037736971693842131
-1.43475,-0.027014968351918255
-1.434375,-0.015622839801129645
-1.4340000000000002,-0.004230711250351394
-1.4336250000000001,0.0068263546960024239
-1.4332500000000001,0.017213295433491191
-1.4328750000000001,0.027265173566539971
-1.4325000000000001,0.036311863886283879
-1.4321250000000001,0.044353366392722901
-1.4317500000000001,0.051389681085857036
-1.4313750000000001,0.057085745361251355
-1.431,0.061776621823340781
-1.430625,0.06479218526325542
-1.43025,0.066467498285430221
-1.429875,0.06613243568099525
-1.4295,0.064457122658820448
-1.429125,0.060436371405600944
-1.42875,0.054740307130203135
-1.428375,0.047033867228198002
-1.4280000000000002,0.036981989095158367
-1.4276250000000001,0.02491973533550074
-1.4272500000000001,0.011182168553661928
-1.4268750000000001,-0.0042307112503462141
-1.4265000000000001,-0.020648778867659229
-1.4261250000000001,-0.037401909089407187
-1.4257500000000001,-0.054155039311155145
-1.4253750000000001,-0.070238044324033189
-1.425,-0.085985986732476288
-1.424625,-0.10106380393204945
-1.42425,-0.1148013707138828
-1.423875,-0.1271986870779763
-1.4235,-0.13825575302432996
-1.423125,-0.14763750594850883
-1.42275,-0.1550088832460802
-1.4223750000000002,-0.16003482231260002
-1.4220000000000002,-0.1630503857525156
-1.4216250000000001,-0.16372051096138684
-1.4212500000000001,-0.16204519793921207
-1.4208750000000001,-0.15802444668599253
-1.4205000000000001,-0.15266344501503321
-1.4201250000000001,-0.14495700511302911
-1.4197500000000001,-0.13591031479328525
-1.4193750000000001,-0.1255233740558015
-1.419,-0.11413124550501288
-1.418625,-0.10173392914091939
-1.41825,-0.088331424963521005
-1.417875,-0.074593858181687678
-1.4175,-0.060186166190984408
-1.417125,-0.045443411595839645
-1.41675,-0.031035719605136857
-1.4163750000000002,-0.017633215427750662
-1.4160000000000001,-0.0055709616680915293
-1.4156250000000001,0.0048159790693976939
-1.4152500000000001,0.013527606784706631
-1.4148750000000001,0.02056392147784078
-1.4145000000000001,0.025924923148800127
-1.4141250000000001,0.029610611797584688
-1.4137500000000001,0.031620987424194447
-1.413375,0.030950862215324518
-1.413,0.027935298775409886
-1.412625,0.021904171895580624
-1.41225,0.013527606784706631
-1.411875,0.0024705408383529776
-1.4115,-0.010931963339045392
-1.411125,-0.026344843143061292
-1.4107499999999999,-0.043433035969244832
-1.4103750000000002,-0.061861479213150827
-1.4100000000000001,-0.080624985061508406
-1.4096250000000001,-0.099723553514309615
-1.4092500000000001,-0.11882212196710229
-1.4088750000000001,-0.13725056521102508
-1.4085000000000001,-0.15500888324607792
-1.4081250000000001,-0.17142695086339094
-1.4077500000000001,-0.18616970545852912
-1.407375,-0.19923714703149253
-1.407,-0.20962408776897629
-1.406625,-0.21766559027541532
-1.40625,-0.22369671715524458
-1.405875,-0.22671228059515919
-1.4055,-0.22671228059515919
-1.405125,-0.22403177975967709
-1.4047500000000002,-0.21867077808872265
-1.4043750000000002,-0.21163446339558925
-1.4040000000000001,-0.20292283568027708
-1.4036250000000001,-0.19287095754722833
-1.4032500000000001,-0.18181389160087463
-1.4028750000000001,-0.17008670044565111
-1.4025000000000001,-0.15768938408155758
-1.4021250000000001,-0.14529206771746411
-1.4017500000000001,-0.13255968874893564
-1.401375,-0.11949224717597223
-1.401,-0.10675986820744376
-1.400625,-0.093692426634480352
-1.40025,-0.080960047665951884
-1.399875,-0.068562731301858415
-1.3995,-0.056165414937759582
-1.399125,-0.044438223782536306
-1.3987500000000002,-0.0333811578361927
-1.3983750000000001,-0.02366434230757828
-1.3980000000000001,-0.01495271459226491
-1.3976250000000001,-0.007581337294695803
-1.3972500000000001,-0.0022203356237364552
-1.3968750000000001,0.0014653530250481051
-1.3965000000000001,0.0034757286516578639
-1.3961250000000001,0.0041458538605277789
-1.39575,0.0034757286516578639
-1.395375,0.0014653530250481051
-1.395,-0.0018852730193014977
-1.394625,-0.0072462746902608455
-1.39425,-0.014282589383394995
-1.393875,-0.023329279703138889
-1.3935,-0.034051283045063073
-1.3931249999999999,-0.046113536804722077
-1.3927500000000002,-0.05918097837767361
-1.3923750000000001,-0.072918545159512876
-1.3920000000000001,-0.086656111941346203
-1.3916250000000001,-0.1007287413276145
-1.3912500000000001,-0.1148013707138828
-1.3908750000000001,-0.12820387489128116
-1.3905000000000001,-0.14160637906867957
-1.3901250000000001,-0.15366863282833809
-1.38975,-0.16472569877469173
-1.389375,-0.17477757690774054
-1.389,-0.18315414201861452
-1.388625,-0.18918526889844378
-1.38825,-0.19354108275609821
-1.387875,-0.19622158359157824
-1.3875,-0.19689170880044737
-1.3871250000000002,-0.19588652098714338
-1.3867500000000001,-0.19320602015166449
-1.3863750000000001,-0.18851514368957384
-1.3860000000000001,-0.18248401680974458
-1.3856250000000001,-0.17511263951217548
-1.3852500000000001,-0.16606594919243156
-1.3848750000000001,-0.15601407105938281
-1.3845000000000001,-0.14529206771746411
-1.384125,-0.13423500177111045
-1.38375,-0.12284287322032181
-1.383375,-0.11178580727396817
-1.383,-0.1007287413276145
-1.382625,-0.090006737985695806
-1.38225,-0.079954859852647026
-1.381875,-0.070908169532899301
-1.3815,-0.062531604422025766
-1.3811250000000002,-0.055160227124463383
-1.3807500000000001,-0.04979922545350312
-1.3803750000000001,-0.045778474200281166
-1.3800000000000001,-0.044103161178106365
-1.3796250000000001,-0.044103161178106365
-1.3792500000000001,-0.045778474200281166
-1.3788750000000001,-0.049464162849065713
-1.3785000000000001,-0.055160227124460032
-1.378125,-0.062531604422029125
-1.37775,-0.071578294741773046
-1.377375,-0.081965235479256771
-1.377,-0.093692426634480352
-1.376625,-0.10642480560300882
-1.37625,-0.11949224717597223
-1.375875,-0.13222462614450617
-1.3754999999999999,-0.14428687990416442
-1.3751250000000002,-0.15567900845494262
-1.3747500000000001,-0.16573088658799662
-1.3743750000000001,-0.17511263951217548
-1.3740000000000001,-0.18348920462304946
-1.3736250000000001,-0.19052551931618361
-1.3732500000000001,-0.19655664619601287
-1.3728750000000001,-0.20124752265810231
-1.3725000000000001,-0.20426308609801691
-1.372125,-0.2056033365157568
-1.37175,-0.2056033365157568
-1.371375,-0.20426308609801691
-1.371,-0.20158258526253725
-1.370625,-0.19756183400931776
-1.37025,-0.19253589494279064
-1.369875,-0.18650476806296057
-1.3695000000000002,-0.17879832816096353
-1.3691250000000001,-0.17008670044565508
-1.3687500000000001,-0.15969975970816735
-1.3683750000000001,-0.14864269376181366
-1.3680000000000001,-0.13691550260659013
-1.3676250000000001,-0.12485324884693158
-1.3672500000000001,-0.113126057691708
-1.3668750000000001,-0.10206899174535433
-1.3665,-0.091346988403435636
-1.366125,-0.081965235479256771
-1.36575,-0.07325360776394782
-1.365375,-0.065547167861943756
-1.365,-0.058845915773244578
-1.364625,-0.05348491410228523
-1.36425,-0.049464162849064491
-1.3638749999999999,-0.046783662013585747
-1.3635000000000002,-0.046113536804716443
-1.3631250000000001,-0.047118724618020538
-1.3627500000000001,-0.049799225453500684
-1.3623750000000001,-0.054155039311155145
-1.3620000000000001,-0.060186166190984408
-1.3616250000000001,-0.067557543488553529
-1.3612500000000001,-0.075934108599427508
-1.3608750000000001,-0.084980798919171402
-1.3605,-0.095032677052220182
-1.360125,-0.10575468039413888
-1.35975,-0.11681174634049254
-1.359375,-0.12820387489128116
-1.359,-0.13959600344206979
-1.358625,-0.15065306938842343
-1.35825,-0.16070494752147696
-1.3578749999999999,-0.17109188825896021
-1.3575000000000002,-0.18047364118313053
-1.3571250000000001,-0.18918526889844378
-1.3567500000000001,-0.19722677140488282
-1.3563750000000001,-0.20392802349358197
-1.3560000000000001,-0.20928902516454134
-1.3556250000000001,-0.21263965120889095
-1.3552500000000001,-0.21431496423106572
-1.3548750000000001,-0.21364483902219578
-1.3545,-0.21096433818671612
-1.354125,-0.20627346172462668
-1.35375,-0.19957220963592748
-1.353375,-0.19086058192061855
-1.353,-0.1804736411831348
-1.352625,-0.16841138742346987
-1.35225,-0.15433875803720082
-1.3518750000000002,-0.13859081562877207
-1.3515000000000001,-0.12150262280258975
-1.3511250000000001,-0.1040793673719641
-1.3507500000000001,-0.085650924128041317
-1.3503750000000001,-0.067892606092988472
-1.3500000000000001,-0.050469350662370599
-1.3496250000000001,-0.034721408253927499
-1.3492500000000001,-0.020313716263224257
-1.348875,-0.007581337294695803
-1.3485,0.0028056034427879351
-1.348125,0.010847105949226957
-1.34775,0.017213295433491191
-1.347375,0.021234046686710709
-1.347,0.023244422313320454
-1.346625,0.022909359708884278
-1.3462499999999999,0.020228858873403536
-1.3458750000000002,0.015202919806883718
-1.3455000000000001,0.0085016677181853004
-1.3451250000000001,-0.00020995999712669633
-1.3447500000000001,-0.010261838130175477
-1.3443750000000001,-0.022659154494268974
-1.3440000000000001,-0.036731783880537272
-1.3436250000000001,-0.052479726288980344
-1.3432500000000001,-0.06923285651072833
-1.342875,-0.086991174545781175
-1.3425,-0.10508455518526896
-1.342125,-0.12284287322032181
-1.34175,-0.13993106604650474
-1.341375,-0.15634913366381775
-1.341,-0.17075682565452099
-1.340625,-0.18348920462305418
-1.3402500000000002,-0.1938761453605285
-1.3398750000000001,-0.20158258526253375
-1.3395000000000001,-0.20627346172462668
-1.3391250000000001,-0.20895396256010634
-1.3387500000000001,-0.2086188999556714
